++========================================
||
||   Package:  ./gnome-bluetooth-42.6-x86_64-2_snuk.txz
||
++========================================
drwxr-xr-x root/root         0 2023-10-17 00:45 ./
drwxr-xr-x root/root         0 2023-10-17 00:45 install/
-rw-r--r-- root/root      1103 2023-10-17 00:45 install/doinst.sh
-rw-r--r-- root/root       795 2023-10-17 00:45 install/slack-desc
drwxr-xr-x root/root         0 2023-10-17 00:45 usr/
drwxr-xr-x root/root         0 2023-10-17 00:45 usr/bin/
-rwxr-xr-x root/root     31960 2023-10-17 00:45 usr/bin/bluetooth-sendto
drwxr-xr-x root/root         0 2023-10-17 00:45 usr/doc/
drwxr-xr-x root/root         0 2023-10-17 00:45 usr/doc/gnome-bluetooth-42.6/
-rw-r--r-- root/root       262 2023-08-14 11:16 usr/doc/gnome-bluetooth-42.6/AUTHORS
-rw-r--r-- root/root     18011 2023-08-14 11:16 usr/doc/gnome-bluetooth-42.6/COPYING
-rw-r--r-- root/root     26432 2023-08-14 11:16 usr/doc/gnome-bluetooth-42.6/COPYING.LIB
-rw-r--r-- root/root       730 2023-08-14 11:16 usr/doc/gnome-bluetooth-42.6/ChangeLog.README
-rw-r--r-- root/root     29874 2023-08-14 11:16 usr/doc/gnome-bluetooth-42.6/ChangeLog.pre-2.27
-rw-r--r-- root/root        56 2023-08-14 11:16 usr/doc/gnome-bluetooth-42.6/MAINTAINERS
-rw-r--r-- root/root      2424 2023-08-14 11:16 usr/doc/gnome-bluetooth-42.6/README.md
-rw-r--r-- root/root      3593 2023-10-17 00:45 usr/doc/gnome-bluetooth-42.6/gnome-bluetooth.SlackBuild
drwxr-xr-x root/root         0 2023-10-17 00:45 usr/include/
drwxr-xr-x root/root         0 2023-10-17 00:45 usr/include/gnome-bluetooth-3.0/
-rw-r--r-- root/root      1384 2023-08-14 11:16 usr/include/gnome-bluetooth-3.0/bluetooth-settings-widget.h
drwxr-xr-x root/root         0 2023-10-17 00:45 usr/lib64/
drwxr-xr-x root/root         0 2023-10-17 00:45 usr/lib64/girepository-1.0/
-rw-r--r-- root/root      5384 2023-10-17 00:45 usr/lib64/girepository-1.0/GnomeBluetooth-3.0.typelib
-rwxr-xr-x root/root    151616 2023-10-17 00:45 usr/lib64/libgnome-bluetooth-3.0.so.13.2.0
-rwxr-xr-x root/root    218408 2023-10-17 00:45 usr/lib64/libgnome-bluetooth-ui-3.0.so.13.2.0
drwxr-xr-x root/root         0 2023-10-17 00:45 usr/lib64/pkgconfig/
-rw-r--r-- root/root       288 2023-10-17 00:45 usr/lib64/pkgconfig/gnome-bluetooth-3.0.pc
-rw-r--r-- root/root       339 2023-10-17 00:45 usr/lib64/pkgconfig/gnome-bluetooth-ui-3.0.pc
drwxr-xr-x root/root         0 2023-10-17 00:45 usr/man/
drwxr-xr-x root/root         0 2023-10-17 00:45 usr/man/man1/
-rw-r--r-- root/root       787 2023-08-14 11:16 usr/man/man1/bluetooth-sendto.1.gz
drwxr-xr-x root/root         0 2023-10-17 00:45 usr/share/
drwxr-xr-x root/root         0 2023-10-17 00:45 usr/share/applications/
-rw-r--r-- root/root      8150 2023-10-17 00:45 usr/share/applications/bluetooth-sendto.desktop
drwxr-xr-x root/root         0 2023-10-17 00:45 usr/share/gir-1.0/
-rw-r--r-- root/root     38256 2023-10-17 00:45 usr/share/gir-1.0/GnomeBluetooth-3.0.gir
drwxr-xr-x root/root         0 2023-10-17 00:45 usr/share/gnome-bluetooth-3.0/
-rw-r--r-- root/root      5881 2023-08-14 11:16 usr/share/gnome-bluetooth-3.0/pin-code-database.xml
drwxr-xr-x root/root         0 2023-10-17 00:45 usr/share/locale/
drwxr-xr-x root/root         0 2023-10-17 00:45 usr/share/locale/ab/
drwxr-xr-x root/root         0 2023-10-17 00:45 usr/share/locale/ab/LC_MESSAGES/
-rw-r--r-- root/root      4396 2023-10-17 00:45 usr/share/locale/ab/LC_MESSAGES/gnome-bluetooth-3.0.mo
drwxr-xr-x root/root         0 2023-10-17 00:45 usr/share/locale/af/
drwxr-xr-x root/root         0 2023-10-17 00:45 usr/share/locale/af/LC_MESSAGES/
-rw-r--r-- root/root     13111 2023-10-17 00:45 usr/share/locale/af/LC_MESSAGES/gnome-bluetooth-3.0.mo
drwxr-xr-x root/root         0 2023-10-17 00:45 usr/share/locale/an/
drwxr-xr-x root/root         0 2023-10-17 00:45 usr/share/locale/an/LC_MESSAGES/
-rw-r--r-- root/root      8142 2023-10-17 00:45 usr/share/locale/an/LC_MESSAGES/gnome-bluetooth-3.0.mo
drwxr-xr-x root/root         0 2023-10-17 00:45 usr/share/locale/ar/
drwxr-xr-x root/root         0 2023-10-17 00:45 usr/share/locale/ar/LC_MESSAGES/
-rw-r--r-- root/root      9758 2023-10-17 00:45 usr/share/locale/ar/LC_MESSAGES/gnome-bluetooth-3.0.mo
drwxr-xr-x root/root         0 2023-10-17 00:45 usr/share/locale/as/
drwxr-xr-x root/root         0 2023-10-17 00:45 usr/share/locale/as/LC_MESSAGES/
-rw-r--r-- root/root      9905 2023-10-17 00:45 usr/share/locale/as/LC_MESSAGES/gnome-bluetooth-3.0.mo
drwxr-xr-x root/root         0 2023-10-17 00:45 usr/share/locale/ast/
drwxr-xr-x root/root         0 2023-10-17 00:45 usr/share/locale/ast/LC_MESSAGES/
-rw-r--r-- root/root     14143 2023-10-17 00:45 usr/share/locale/ast/LC_MESSAGES/gnome-bluetooth-3.0.mo
drwxr-xr-x root/root         0 2023-10-17 00:45 usr/share/locale/be/
drwxr-xr-x root/root         0 2023-10-17 00:45 usr/share/locale/be/LC_MESSAGES/
-rw-r--r-- root/root      8316 2023-10-17 00:45 usr/share/locale/be/LC_MESSAGES/gnome-bluetooth-3.0.mo
drwxr-xr-x root/root         0 2023-10-17 00:45 usr/share/locale/bg/
drwxr-xr-x root/root         0 2023-10-17 00:45 usr/share/locale/bg/LC_MESSAGES/
-rw-r--r-- root/root      8329 2023-10-17 00:45 usr/share/locale/bg/LC_MESSAGES/gnome-bluetooth-3.0.mo
drwxr-xr-x root/root         0 2023-10-17 00:45 usr/share/locale/bn/
drwxr-xr-x root/root         0 2023-10-17 00:45 usr/share/locale/bn/LC_MESSAGES/
-rw-r--r-- root/root     20879 2023-10-17 00:45 usr/share/locale/bn/LC_MESSAGES/gnome-bluetooth-3.0.mo
drwxr-xr-x root/root         0 2023-10-17 00:45 usr/share/locale/bn_IN/
drwxr-xr-x root/root         0 2023-10-17 00:45 usr/share/locale/bn_IN/LC_MESSAGES/
-rw-r--r-- root/root     10341 2023-10-17 00:45 usr/share/locale/bn_IN/LC_MESSAGES/gnome-bluetooth-3.0.mo
drwxr-xr-x root/root         0 2023-10-17 00:45 usr/share/locale/bs/
drwxr-xr-x root/root         0 2023-10-17 00:45 usr/share/locale/bs/LC_MESSAGES/
-rw-r--r-- root/root      6947 2023-10-17 00:45 usr/share/locale/bs/LC_MESSAGES/gnome-bluetooth-3.0.mo
drwxr-xr-x root/root         0 2023-10-17 00:45 usr/share/locale/ca/
drwxr-xr-x root/root         0 2023-10-17 00:45 usr/share/locale/ca/LC_MESSAGES/
-rw-r--r-- root/root      6926 2023-10-17 00:45 usr/share/locale/ca/LC_MESSAGES/gnome-bluetooth-3.0.mo
drwxr-xr-x root/root         0 2023-10-17 00:45 usr/share/locale/ca@valencia/
drwxr-xr-x root/root         0 2023-10-17 00:45 usr/share/locale/ca@valencia/LC_MESSAGES/
-rw-r--r-- root/root      8276 2023-10-17 00:45 usr/share/locale/ca@valencia/LC_MESSAGES/gnome-bluetooth-3.0.mo
drwxr-xr-x root/root         0 2023-10-17 00:45 usr/share/locale/ckb/
drwxr-xr-x root/root         0 2023-10-17 00:45 usr/share/locale/ckb/LC_MESSAGES/
-rw-r--r-- root/root      8558 2023-10-17 00:45 usr/share/locale/ckb/LC_MESSAGES/gnome-bluetooth-3.0.mo
drwxr-xr-x root/root         0 2023-10-17 00:45 usr/share/locale/crh/
drwxr-xr-x root/root         0 2023-10-17 00:45 usr/share/locale/crh/LC_MESSAGES/
-rw-r--r-- root/root      6725 2023-10-17 00:45 usr/share/locale/crh/LC_MESSAGES/gnome-bluetooth-3.0.mo
drwxr-xr-x root/root         0 2023-10-17 00:45 usr/share/locale/cs/
drwxr-xr-x root/root         0 2023-10-17 00:45 usr/share/locale/cs/LC_MESSAGES/
-rw-r--r-- root/root      7171 2023-10-17 00:45 usr/share/locale/cs/LC_MESSAGES/gnome-bluetooth-3.0.mo
drwxr-xr-x root/root         0 2023-10-17 00:45 usr/share/locale/da/
drwxr-xr-x root/root         0 2023-10-17 00:45 usr/share/locale/da/LC_MESSAGES/
-rw-r--r-- root/root      6720 2023-10-17 00:45 usr/share/locale/da/LC_MESSAGES/gnome-bluetooth-3.0.mo
drwxr-xr-x root/root         0 2023-10-17 00:45 usr/share/locale/de/
drwxr-xr-x root/root         0 2023-10-17 00:45 usr/share/locale/de/LC_MESSAGES/
-rw-r--r-- root/root      7101 2023-10-17 00:45 usr/share/locale/de/LC_MESSAGES/gnome-bluetooth-3.0.mo
drwxr-xr-x root/root         0 2023-10-17 00:45 usr/share/locale/el/
drwxr-xr-x root/root         0 2023-10-17 00:45 usr/share/locale/el/LC_MESSAGES/
-rw-r--r-- root/root      8823 2023-10-17 00:45 usr/share/locale/el/LC_MESSAGES/gnome-bluetooth-3.0.mo
drwxr-xr-x root/root         0 2023-10-17 00:45 usr/share/locale/en@shaw/
drwxr-xr-x root/root         0 2023-10-17 00:45 usr/share/locale/en@shaw/LC_MESSAGES/
-rw-r--r-- root/root     12568 2023-10-17 00:45 usr/share/locale/en@shaw/LC_MESSAGES/gnome-bluetooth-3.0.mo
drwxr-xr-x root/root         0 2023-10-17 00:45 usr/share/locale/en_GB/
drwxr-xr-x root/root         0 2023-10-17 00:45 usr/share/locale/en_GB/LC_MESSAGES/
-rw-r--r-- root/root      7722 2023-10-17 00:45 usr/share/locale/en_GB/LC_MESSAGES/gnome-bluetooth-3.0.mo
drwxr-xr-x root/root         0 2023-10-17 00:45 usr/share/locale/eo/
drwxr-xr-x root/root         0 2023-10-17 00:45 usr/share/locale/eo/LC_MESSAGES/
-rw-r--r-- root/root      7768 2023-10-17 00:45 usr/share/locale/eo/LC_MESSAGES/gnome-bluetooth-3.0.mo
drwxr-xr-x root/root         0 2023-10-17 00:45 usr/share/locale/es/
drwxr-xr-x root/root         0 2023-10-17 00:45 usr/share/locale/es/LC_MESSAGES/
-rw-r--r-- root/root      6953 2023-10-17 00:45 usr/share/locale/es/LC_MESSAGES/gnome-bluetooth-3.0.mo
drwxr-xr-x root/root         0 2023-10-17 00:45 usr/share/locale/et/
drwxr-xr-x root/root         0 2023-10-17 00:45 usr/share/locale/et/LC_MESSAGES/
-rw-r--r-- root/root      6702 2023-10-17 00:45 usr/share/locale/et/LC_MESSAGES/gnome-bluetooth-3.0.mo
drwxr-xr-x root/root         0 2023-10-17 00:45 usr/share/locale/eu/
drwxr-xr-x root/root         0 2023-10-17 00:45 usr/share/locale/eu/LC_MESSAGES/
-rw-r--r-- root/root      6810 2023-10-17 00:45 usr/share/locale/eu/LC_MESSAGES/gnome-bluetooth-3.0.mo
drwxr-xr-x root/root         0 2023-10-17 00:45 usr/share/locale/fa/
drwxr-xr-x root/root         0 2023-10-17 00:45 usr/share/locale/fa/LC_MESSAGES/
-rw-r--r-- root/root      8237 2023-10-17 00:45 usr/share/locale/fa/LC_MESSAGES/gnome-bluetooth-3.0.mo
drwxr-xr-x root/root         0 2023-10-17 00:45 usr/share/locale/fi/
drwxr-xr-x root/root         0 2023-10-17 00:45 usr/share/locale/fi/LC_MESSAGES/
-rw-r--r-- root/root      6863 2023-10-17 00:45 usr/share/locale/fi/LC_MESSAGES/gnome-bluetooth-3.0.mo
drwxr-xr-x root/root         0 2023-10-17 00:45 usr/share/locale/fr/
drwxr-xr-x root/root         0 2023-10-17 00:45 usr/share/locale/fr/LC_MESSAGES/
-rw-r--r-- root/root      7232 2023-10-17 00:45 usr/share/locale/fr/LC_MESSAGES/gnome-bluetooth-3.0.mo
drwxr-xr-x root/root         0 2023-10-17 00:45 usr/share/locale/fur/
drwxr-xr-x root/root         0 2023-10-17 00:45 usr/share/locale/fur/LC_MESSAGES/
-rw-r--r-- root/root      6769 2023-10-17 00:45 usr/share/locale/fur/LC_MESSAGES/gnome-bluetooth-3.0.mo
drwxr-xr-x root/root         0 2023-10-17 00:45 usr/share/locale/fy/
drwxr-xr-x root/root         0 2023-10-17 00:45 usr/share/locale/fy/LC_MESSAGES/
-rw-r--r-- root/root      1063 2023-10-17 00:45 usr/share/locale/fy/LC_MESSAGES/gnome-bluetooth-3.0.mo
drwxr-xr-x root/root         0 2023-10-17 00:45 usr/share/locale/ga/
drwxr-xr-x root/root         0 2023-10-17 00:45 usr/share/locale/ga/LC_MESSAGES/
-rw-r--r-- root/root      4437 2023-10-17 00:45 usr/share/locale/ga/LC_MESSAGES/gnome-bluetooth-3.0.mo
drwxr-xr-x root/root         0 2023-10-17 00:45 usr/share/locale/gd/
drwxr-xr-x root/root         0 2023-10-17 00:45 usr/share/locale/gd/LC_MESSAGES/
-rw-r--r-- root/root      8626 2023-10-17 00:45 usr/share/locale/gd/LC_MESSAGES/gnome-bluetooth-3.0.mo
drwxr-xr-x root/root         0 2023-10-17 00:45 usr/share/locale/gl/
drwxr-xr-x root/root         0 2023-10-17 00:45 usr/share/locale/gl/LC_MESSAGES/
-rw-r--r-- root/root      6972 2023-10-17 00:45 usr/share/locale/gl/LC_MESSAGES/gnome-bluetooth-3.0.mo
drwxr-xr-x root/root         0 2023-10-17 00:45 usr/share/locale/gu/
drwxr-xr-x root/root         0 2023-10-17 00:45 usr/share/locale/gu/LC_MESSAGES/
-rw-r--r-- root/root      9545 2023-10-17 00:45 usr/share/locale/gu/LC_MESSAGES/gnome-bluetooth-3.0.mo
drwxr-xr-x root/root         0 2023-10-17 00:45 usr/share/locale/he/
drwxr-xr-x root/root         0 2023-10-17 00:45 usr/share/locale/he/LC_MESSAGES/
-rw-r--r-- root/root      7624 2023-10-17 00:45 usr/share/locale/he/LC_MESSAGES/gnome-bluetooth-3.0.mo
drwxr-xr-x root/root         0 2023-10-17 00:45 usr/share/locale/hi/
drwxr-xr-x root/root         0 2023-10-17 00:45 usr/share/locale/hi/LC_MESSAGES/
-rw-r--r-- root/root     10002 2023-10-17 00:45 usr/share/locale/hi/LC_MESSAGES/gnome-bluetooth-3.0.mo
drwxr-xr-x root/root         0 2023-10-17 00:45 usr/share/locale/hr/
drwxr-xr-x root/root         0 2023-10-17 00:45 usr/share/locale/hr/LC_MESSAGES/
-rw-r--r-- root/root      6854 2023-10-17 00:45 usr/share/locale/hr/LC_MESSAGES/gnome-bluetooth-3.0.mo
drwxr-xr-x root/root         0 2023-10-17 00:45 usr/share/locale/hu/
drwxr-xr-x root/root         0 2023-10-17 00:45 usr/share/locale/hu/LC_MESSAGES/
-rw-r--r-- root/root      7026 2023-10-17 00:45 usr/share/locale/hu/LC_MESSAGES/gnome-bluetooth-3.0.mo
drwxr-xr-x root/root         0 2023-10-17 00:45 usr/share/locale/hy/
drwxr-xr-x root/root         0 2023-10-17 00:45 usr/share/locale/hy/LC_MESSAGES/
-rw-r--r-- root/root     17461 2023-10-17 00:45 usr/share/locale/hy/LC_MESSAGES/gnome-bluetooth-3.0.mo
drwxr-xr-x root/root         0 2023-10-17 00:45 usr/share/locale/id/
drwxr-xr-x root/root         0 2023-10-17 00:45 usr/share/locale/id/LC_MESSAGES/
-rw-r--r-- root/root      6638 2023-10-17 00:45 usr/share/locale/id/LC_MESSAGES/gnome-bluetooth-3.0.mo
drwxr-xr-x root/root         0 2023-10-17 00:45 usr/share/locale/ie/
drwxr-xr-x root/root         0 2023-10-17 00:45 usr/share/locale/ie/LC_MESSAGES/
-rw-r--r-- root/root      5172 2023-10-17 00:45 usr/share/locale/ie/LC_MESSAGES/gnome-bluetooth-3.0.mo
drwxr-xr-x root/root         0 2023-10-17 00:45 usr/share/locale/is/
drwxr-xr-x root/root         0 2023-10-17 00:45 usr/share/locale/is/LC_MESSAGES/
-rw-r--r-- root/root      6703 2023-10-17 00:45 usr/share/locale/is/LC_MESSAGES/gnome-bluetooth-3.0.mo
drwxr-xr-x root/root         0 2023-10-17 00:45 usr/share/locale/it/
drwxr-xr-x root/root         0 2023-10-17 00:45 usr/share/locale/it/LC_MESSAGES/
-rw-r--r-- root/root      6738 2023-10-17 00:45 usr/share/locale/it/LC_MESSAGES/gnome-bluetooth-3.0.mo
drwxr-xr-x root/root         0 2023-10-17 00:45 usr/share/locale/ja/
drwxr-xr-x root/root         0 2023-10-17 00:45 usr/share/locale/ja/LC_MESSAGES/
-rw-r--r-- root/root      8795 2023-10-17 00:45 usr/share/locale/ja/LC_MESSAGES/gnome-bluetooth-3.0.mo
drwxr-xr-x root/root         0 2023-10-17 00:45 usr/share/locale/ka/
drwxr-xr-x root/root         0 2023-10-17 00:45 usr/share/locale/ka/LC_MESSAGES/
-rw-r--r-- root/root      9404 2023-10-17 00:45 usr/share/locale/ka/LC_MESSAGES/gnome-bluetooth-3.0.mo
drwxr-xr-x root/root         0 2023-10-17 00:45 usr/share/locale/kk/
drwxr-xr-x root/root         0 2023-10-17 00:45 usr/share/locale/kk/LC_MESSAGES/
-rw-r--r-- root/root      8268 2023-10-17 00:45 usr/share/locale/kk/LC_MESSAGES/gnome-bluetooth-3.0.mo
drwxr-xr-x root/root         0 2023-10-17 00:45 usr/share/locale/km/
drwxr-xr-x root/root         0 2023-10-17 00:45 usr/share/locale/km/LC_MESSAGES/
-rw-r--r-- root/root     14984 2023-10-17 00:45 usr/share/locale/km/LC_MESSAGES/gnome-bluetooth-3.0.mo
drwxr-xr-x root/root         0 2023-10-17 00:45 usr/share/locale/kn/
drwxr-xr-x root/root         0 2023-10-17 00:45 usr/share/locale/kn/LC_MESSAGES/
-rw-r--r-- root/root     10320 2023-10-17 00:45 usr/share/locale/kn/LC_MESSAGES/gnome-bluetooth-3.0.mo
drwxr-xr-x root/root         0 2023-10-17 00:45 usr/share/locale/ko/
drwxr-xr-x root/root         0 2023-10-17 00:45 usr/share/locale/ko/LC_MESSAGES/
-rw-r--r-- root/root      6912 2023-10-17 00:45 usr/share/locale/ko/LC_MESSAGES/gnome-bluetooth-3.0.mo
drwxr-xr-x root/root         0 2023-10-17 00:45 usr/share/locale/ku/
drwxr-xr-x root/root         0 2023-10-17 00:45 usr/share/locale/ku/LC_MESSAGES/
-rw-r--r-- root/root     13525 2023-10-17 00:45 usr/share/locale/ku/LC_MESSAGES/gnome-bluetooth-3.0.mo
drwxr-xr-x root/root         0 2023-10-17 00:45 usr/share/locale/lt/
drwxr-xr-x root/root         0 2023-10-17 00:45 usr/share/locale/lt/LC_MESSAGES/
-rw-r--r-- root/root      6904 2023-10-17 00:45 usr/share/locale/lt/LC_MESSAGES/gnome-bluetooth-3.0.mo
drwxr-xr-x root/root         0 2023-10-17 00:45 usr/share/locale/lv/
drwxr-xr-x root/root         0 2023-10-17 00:45 usr/share/locale/lv/LC_MESSAGES/
-rw-r--r-- root/root      7009 2023-10-17 00:45 usr/share/locale/lv/LC_MESSAGES/gnome-bluetooth-3.0.mo
drwxr-xr-x root/root         0 2023-10-17 00:45 usr/share/locale/mai/
drwxr-xr-x root/root         0 2023-10-17 00:45 usr/share/locale/mai/LC_MESSAGES/
-rw-r--r-- root/root      2980 2023-10-17 00:45 usr/share/locale/mai/LC_MESSAGES/gnome-bluetooth-3.0.mo
drwxr-xr-x root/root         0 2023-10-17 00:45 usr/share/locale/mjw/
drwxr-xr-x root/root         0 2023-10-17 00:45 usr/share/locale/mjw/LC_MESSAGES/
-rw-r--r-- root/root      5528 2023-10-17 00:45 usr/share/locale/mjw/LC_MESSAGES/gnome-bluetooth-3.0.mo
drwxr-xr-x root/root         0 2023-10-17 00:45 usr/share/locale/mk/
drwxr-xr-x root/root         0 2023-10-17 00:45 usr/share/locale/mk/LC_MESSAGES/
-rw-r--r-- root/root     15341 2023-10-17 00:45 usr/share/locale/mk/LC_MESSAGES/gnome-bluetooth-3.0.mo
drwxr-xr-x root/root         0 2023-10-17 00:45 usr/share/locale/ml/
drwxr-xr-x root/root         0 2023-10-17 00:45 usr/share/locale/ml/LC_MESSAGES/
-rw-r--r-- root/root     13040 2023-10-17 00:45 usr/share/locale/ml/LC_MESSAGES/gnome-bluetooth-3.0.mo
drwxr-xr-x root/root         0 2023-10-17 00:45 usr/share/locale/mn/
drwxr-xr-x root/root         0 2023-10-17 00:45 usr/share/locale/mn/LC_MESSAGES/
-rw-r--r-- root/root      7170 2023-10-17 00:45 usr/share/locale/mn/LC_MESSAGES/gnome-bluetooth-3.0.mo
drwxr-xr-x root/root         0 2023-10-17 00:45 usr/share/locale/mr/
drwxr-xr-x root/root         0 2023-10-17 00:45 usr/share/locale/mr/LC_MESSAGES/
-rw-r--r-- root/root      9318 2023-10-17 00:45 usr/share/locale/mr/LC_MESSAGES/gnome-bluetooth-3.0.mo
drwxr-xr-x root/root         0 2023-10-17 00:45 usr/share/locale/ms/
drwxr-xr-x root/root         0 2023-10-17 00:45 usr/share/locale/ms/LC_MESSAGES/
-rw-r--r-- root/root      7735 2023-10-17 00:45 usr/share/locale/ms/LC_MESSAGES/gnome-bluetooth-3.0.mo
drwxr-xr-x root/root         0 2023-10-17 00:45 usr/share/locale/nb/
drwxr-xr-x root/root         0 2023-10-17 00:45 usr/share/locale/nb/LC_MESSAGES/
-rw-r--r-- root/root      7732 2023-10-17 00:45 usr/share/locale/nb/LC_MESSAGES/gnome-bluetooth-3.0.mo
drwxr-xr-x root/root         0 2023-10-17 00:45 usr/share/locale/ne/
drwxr-xr-x root/root         0 2023-10-17 00:45 usr/share/locale/ne/LC_MESSAGES/
-rw-r--r-- root/root      1278 2023-10-17 00:45 usr/share/locale/ne/LC_MESSAGES/gnome-bluetooth-3.0.mo
drwxr-xr-x root/root         0 2023-10-17 00:45 usr/share/locale/nl/
drwxr-xr-x root/root         0 2023-10-17 00:45 usr/share/locale/nl/LC_MESSAGES/
-rw-r--r-- root/root      6754 2023-10-17 00:45 usr/share/locale/nl/LC_MESSAGES/gnome-bluetooth-3.0.mo
drwxr-xr-x root/root         0 2023-10-17 00:45 usr/share/locale/nn/
drwxr-xr-x root/root         0 2023-10-17 00:45 usr/share/locale/nn/LC_MESSAGES/
-rw-r--r-- root/root     12911 2023-10-17 00:45 usr/share/locale/nn/LC_MESSAGES/gnome-bluetooth-3.0.mo
drwxr-xr-x root/root         0 2023-10-17 00:45 usr/share/locale/oc/
drwxr-xr-x root/root         0 2023-10-17 00:45 usr/share/locale/oc/LC_MESSAGES/
-rw-r--r-- root/root      7069 2023-10-17 00:45 usr/share/locale/oc/LC_MESSAGES/gnome-bluetooth-3.0.mo
drwxr-xr-x root/root         0 2023-10-17 00:45 usr/share/locale/or/
drwxr-xr-x root/root         0 2023-10-17 00:45 usr/share/locale/or/LC_MESSAGES/
-rw-r--r-- root/root     10253 2023-10-17 00:45 usr/share/locale/or/LC_MESSAGES/gnome-bluetooth-3.0.mo
drwxr-xr-x root/root         0 2023-10-17 00:45 usr/share/locale/pa/
drwxr-xr-x root/root         0 2023-10-17 00:45 usr/share/locale/pa/LC_MESSAGES/
-rw-r--r-- root/root     11087 2023-10-17 00:45 usr/share/locale/pa/LC_MESSAGES/gnome-bluetooth-3.0.mo
drwxr-xr-x root/root         0 2023-10-17 00:45 usr/share/locale/pl/
drwxr-xr-x root/root         0 2023-10-17 00:45 usr/share/locale/pl/LC_MESSAGES/
-rw-r--r-- root/root      7140 2023-10-17 00:45 usr/share/locale/pl/LC_MESSAGES/gnome-bluetooth-3.0.mo
drwxr-xr-x root/root         0 2023-10-17 00:45 usr/share/locale/pt/
drwxr-xr-x root/root         0 2023-10-17 00:45 usr/share/locale/pt/LC_MESSAGES/
-rw-r--r-- root/root      6817 2023-10-17 00:45 usr/share/locale/pt/LC_MESSAGES/gnome-bluetooth-3.0.mo
drwxr-xr-x root/root         0 2023-10-17 00:45 usr/share/locale/pt_BR/
drwxr-xr-x root/root         0 2023-10-17 00:45 usr/share/locale/pt_BR/LC_MESSAGES/
-rw-r--r-- root/root      7191 2023-10-17 00:45 usr/share/locale/pt_BR/LC_MESSAGES/gnome-bluetooth-3.0.mo
drwxr-xr-x root/root         0 2023-10-17 00:45 usr/share/locale/ro/
drwxr-xr-x root/root         0 2023-10-17 00:45 usr/share/locale/ro/LC_MESSAGES/
-rw-r--r-- root/root      7077 2023-10-17 00:45 usr/share/locale/ro/LC_MESSAGES/gnome-bluetooth-3.0.mo
drwxr-xr-x root/root         0 2023-10-17 00:45 usr/share/locale/ru/
drwxr-xr-x root/root         0 2023-10-17 00:45 usr/share/locale/ru/LC_MESSAGES/
-rw-r--r-- root/root      8465 2023-10-17 00:45 usr/share/locale/ru/LC_MESSAGES/gnome-bluetooth-3.0.mo
drwxr-xr-x root/root         0 2023-10-17 00:45 usr/share/locale/sk/
drwxr-xr-x root/root         0 2023-10-17 00:45 usr/share/locale/sk/LC_MESSAGES/
-rw-r--r-- root/root      7134 2023-10-17 00:45 usr/share/locale/sk/LC_MESSAGES/gnome-bluetooth-3.0.mo
drwxr-xr-x root/root         0 2023-10-17 00:45 usr/share/locale/sl/
drwxr-xr-x root/root         0 2023-10-17 00:45 usr/share/locale/sl/LC_MESSAGES/
-rw-r--r-- root/root      7010 2023-10-17 00:45 usr/share/locale/sl/LC_MESSAGES/gnome-bluetooth-3.0.mo
drwxr-xr-x root/root         0 2023-10-17 00:45 usr/share/locale/sr/
drwxr-xr-x root/root         0 2023-10-17 00:45 usr/share/locale/sr/LC_MESSAGES/
-rw-r--r-- root/root      8582 2023-10-17 00:45 usr/share/locale/sr/LC_MESSAGES/gnome-bluetooth-3.0.mo
drwxr-xr-x root/root         0 2023-10-17 00:45 usr/share/locale/sr@latin/
drwxr-xr-x root/root         0 2023-10-17 00:45 usr/share/locale/sr@latin/LC_MESSAGES/
-rw-r--r-- root/root      8157 2023-10-17 00:45 usr/share/locale/sr@latin/LC_MESSAGES/gnome-bluetooth-3.0.mo
drwxr-xr-x root/root         0 2023-10-17 00:45 usr/share/locale/sv/
drwxr-xr-x root/root         0 2023-10-17 00:45 usr/share/locale/sv/LC_MESSAGES/
-rw-r--r-- root/root      6653 2023-10-17 00:45 usr/share/locale/sv/LC_MESSAGES/gnome-bluetooth-3.0.mo
drwxr-xr-x root/root         0 2023-10-17 00:45 usr/share/locale/ta/
drwxr-xr-x root/root         0 2023-10-17 00:45 usr/share/locale/ta/LC_MESSAGES/
-rw-r--r-- root/root     10633 2023-10-17 00:45 usr/share/locale/ta/LC_MESSAGES/gnome-bluetooth-3.0.mo
drwxr-xr-x root/root         0 2023-10-17 00:45 usr/share/locale/te/
drwxr-xr-x root/root         0 2023-10-17 00:45 usr/share/locale/te/LC_MESSAGES/
-rw-r--r-- root/root     10309 2023-10-17 00:45 usr/share/locale/te/LC_MESSAGES/gnome-bluetooth-3.0.mo
drwxr-xr-x root/root         0 2023-10-17 00:45 usr/share/locale/tg/
drwxr-xr-x root/root         0 2023-10-17 00:45 usr/share/locale/tg/LC_MESSAGES/
-rw-r--r-- root/root      8810 2023-10-17 00:45 usr/share/locale/tg/LC_MESSAGES/gnome-bluetooth-3.0.mo
drwxr-xr-x root/root         0 2023-10-17 00:45 usr/share/locale/th/
drwxr-xr-x root/root         0 2023-10-17 00:45 usr/share/locale/th/LC_MESSAGES/
-rw-r--r-- root/root     10905 2023-10-17 00:45 usr/share/locale/th/LC_MESSAGES/gnome-bluetooth-3.0.mo
drwxr-xr-x root/root         0 2023-10-17 00:45 usr/share/locale/tr/
drwxr-xr-x root/root         0 2023-10-17 00:45 usr/share/locale/tr/LC_MESSAGES/
-rw-r--r-- root/root      6795 2023-10-17 00:45 usr/share/locale/tr/LC_MESSAGES/gnome-bluetooth-3.0.mo
drwxr-xr-x root/root         0 2023-10-17 00:45 usr/share/locale/ug/
drwxr-xr-x root/root         0 2023-10-17 00:45 usr/share/locale/ug/LC_MESSAGES/
-rw-r--r-- root/root      8354 2023-10-17 00:45 usr/share/locale/ug/LC_MESSAGES/gnome-bluetooth-3.0.mo
drwxr-xr-x root/root         0 2023-10-17 00:45 usr/share/locale/uk/
drwxr-xr-x root/root         0 2023-10-17 00:45 usr/share/locale/uk/LC_MESSAGES/
-rw-r--r-- root/root      8476 2023-10-17 00:45 usr/share/locale/uk/LC_MESSAGES/gnome-bluetooth-3.0.mo
drwxr-xr-x root/root         0 2023-10-17 00:45 usr/share/locale/vi/
drwxr-xr-x root/root         0 2023-10-17 00:45 usr/share/locale/vi/LC_MESSAGES/
-rw-r--r-- root/root      7121 2023-10-17 00:45 usr/share/locale/vi/LC_MESSAGES/gnome-bluetooth-3.0.mo
drwxr-xr-x root/root         0 2023-10-17 00:45 usr/share/locale/xh/
drwxr-xr-x root/root         0 2023-10-17 00:45 usr/share/locale/xh/LC_MESSAGES/
-rw-r--r-- root/root     12742 2023-10-17 00:45 usr/share/locale/xh/LC_MESSAGES/gnome-bluetooth-3.0.mo
drwxr-xr-x root/root         0 2023-10-17 00:45 usr/share/locale/zh_CN/
drwxr-xr-x root/root         0 2023-10-17 00:45 usr/share/locale/zh_CN/LC_MESSAGES/
-rw-r--r-- root/root      6342 2023-10-17 00:45 usr/share/locale/zh_CN/LC_MESSAGES/gnome-bluetooth-3.0.mo
drwxr-xr-x root/root         0 2023-10-17 00:45 usr/share/locale/zh_HK/
drwxr-xr-x root/root         0 2023-10-17 00:45 usr/share/locale/zh_HK/LC_MESSAGES/
-rw-r--r-- root/root      6561 2023-10-17 00:45 usr/share/locale/zh_HK/LC_MESSAGES/gnome-bluetooth-3.0.mo
drwxr-xr-x root/root         0 2023-10-17 00:45 usr/share/locale/zh_TW/
drwxr-xr-x root/root         0 2023-10-17 00:45 usr/share/locale/zh_TW/LC_MESSAGES/
-rw-r--r-- root/root      6402 2023-10-17 00:45 usr/share/locale/zh_TW/LC_MESSAGES/gnome-bluetooth-3.0.mo
drwxr-xr-x root/root         0 2023-10-17 00:45 usr/share/locale/zu/
drwxr-xr-x root/root         0 2023-10-17 00:45 usr/share/locale/zu/LC_MESSAGES/
-rw-r--r-- root/root     14619 2023-10-17 00:45 usr/share/locale/zu/LC_MESSAGES/gnome-bluetooth-3.0.mo


