++========================================
||
||   Package:  ./gnome-text-editor-44.0-x86_64-1_snuk.txz
||
++========================================
drwxr-xr-x root/root         0 2023-10-17 04:58 ./
drwxr-xr-x root/root         0 2023-10-17 04:58 install/
-rw-r--r-- root/root      9682 2023-10-17 04:58 install/doinst.sh
-rw-r--r-- root/root      1021 2023-10-17 04:58 install/slack-desc
drwxr-xr-x root/root         0 2023-10-17 04:58 usr/
drwxr-xr-x root/root         0 2023-10-17 04:58 usr/bin/
-rwxr-xr-x root/root    575704 2023-10-17 04:58 usr/bin/gnome-text-editor
drwxr-xr-x root/root         0 2023-10-17 04:58 usr/doc/
drwxr-xr-x root/root         0 2023-10-17 04:58 usr/doc/gnome-text-editor-44.0/
-rw-r--r-- root/root      1301 2023-03-17 19:53 usr/doc/gnome-text-editor-44.0/CONTRIBUTING.md
-rw-r--r-- root/root     35148 2023-03-17 19:53 usr/doc/gnome-text-editor-44.0/COPYING
-rw-r--r-- root/root       892 2023-03-17 19:53 usr/doc/gnome-text-editor-44.0/NEWS
-rw-r--r-- root/root      1789 2023-03-17 19:53 usr/doc/gnome-text-editor-44.0/README.md
-rw-r--r-- root/root      5065 2023-10-17 04:58 usr/doc/gnome-text-editor-44.0/gnome-text-editor.SlackBuild
drwxr-xr-x root/root         0 2023-10-17 04:58 usr/share/
drwxr-xr-x root/root         0 2023-10-17 04:58 usr/share/applications/
-rw-r--r-- root/root      8144 2023-10-17 04:57 usr/share/applications/org.gnome.TextEditor.desktop
drwxr-xr-x root/root         0 2023-10-17 04:58 usr/share/dbus-1/
drwxr-xr-x root/root         0 2023-10-17 04:58 usr/share/dbus-1/services/
-rw-r--r-- root/root        98 2023-10-17 04:57 usr/share/dbus-1/services/org.gnome.TextEditor.service
drwxr-xr-x root/root         0 2023-10-17 04:58 usr/share/glib-2.0/
drwxr-xr-x root/root         0 2023-10-17 04:58 usr/share/glib-2.0/schemas/
-rw-r--r-- root/root      6489 2023-03-17 19:53 usr/share/glib-2.0/schemas/org.gnome.TextEditor.gschema.xml
drwxr-xr-x root/root         0 2023-10-17 04:58 usr/share/gnome-text-editor/
drwxr-xr-x root/root         0 2023-10-17 04:58 usr/share/gnome-text-editor/styles/
-rw-r--r-- root/root     12061 2023-03-17 19:53 usr/share/gnome-text-editor/styles/builder-dark.xml
-rw-r--r-- root/root     12518 2023-03-17 19:53 usr/share/gnome-text-editor/styles/builder.xml
-rw-r--r-- root/root      4076 2023-03-17 19:53 usr/share/gnome-text-editor/styles/peninsula-dark.xml
-rw-r--r-- root/root      5208 2023-03-17 19:53 usr/share/gnome-text-editor/styles/peninsula.xml
-rw-r--r-- root/root      4138 2023-03-17 19:53 usr/share/gnome-text-editor/styles/printing.xml
drwxr-xr-x root/root         0 2023-10-17 04:58 usr/share/help/
drwxr-xr-x root/root         0 2023-10-17 04:58 usr/share/help/C/
drwxr-xr-x root/root         0 2023-10-17 04:58 usr/share/help/C/gnome-text-editor/
-rw-r--r-- root/root      1063 2023-03-17 19:53 usr/share/help/C/gnome-text-editor/basics-create-new-file.page
-rw-r--r-- root/root      1136 2023-03-17 19:53 usr/share/help/C/gnome-text-editor/basics-draft-folder.page
-rw-r--r-- root/root       989 2023-03-17 19:53 usr/share/help/C/gnome-text-editor/basics-open-file.page
-rw-r--r-- root/root      3493 2023-03-17 19:53 usr/share/help/C/gnome-text-editor/edit-search-and-replace.page
-rw-r--r-- root/root      2347 2023-03-17 19:53 usr/share/help/C/gnome-text-editor/edit-undo-redo.page
-rw-r--r-- root/root      1331 2023-03-17 19:53 usr/share/help/C/gnome-text-editor/index.page
-rw-r--r-- root/root       295 2023-03-17 19:53 usr/share/help/C/gnome-text-editor/legal.xml
drwxr-xr-x root/root         0 2023-10-17 04:58 usr/share/help/C/gnome-text-editor/media/
-rw-r--r-- root/root      5094 2023-03-17 19:53 usr/share/help/C/gnome-text-editor/media/org.gnome.TextEditor.svg
-rw-r--r-- root/root     20441 2023-03-17 19:53 usr/share/help/C/gnome-text-editor/media/search-recent.png
drwxr-xr-x root/root         0 2023-10-17 04:58 usr/share/help/ca/
drwxr-xr-x root/root         0 2023-10-17 04:58 usr/share/help/ca/gnome-text-editor/
-rw-r--r-- root/root      1166 2023-10-17 04:57 usr/share/help/ca/gnome-text-editor/basics-create-new-file.page
-rw-r--r-- root/root      1281 2023-10-17 04:57 usr/share/help/ca/gnome-text-editor/basics-draft-folder.page
-rw-r--r-- root/root      1045 2023-10-17 04:57 usr/share/help/ca/gnome-text-editor/basics-open-file.page
-rw-r--r-- root/root      3721 2023-10-17 04:57 usr/share/help/ca/gnome-text-editor/edit-search-and-replace.page
-rw-r--r-- root/root      2294 2023-10-17 04:57 usr/share/help/ca/gnome-text-editor/edit-undo-redo.page
-rw-r--r-- root/root      1432 2023-10-17 04:57 usr/share/help/ca/gnome-text-editor/index.page
-rw-r--r-- root/root       334 2023-10-17 04:57 usr/share/help/ca/gnome-text-editor/legal.xml
drwxr-xr-x root/root         0 2023-10-17 04:58 usr/share/help/ca/gnome-text-editor/media/
drwxr-xr-x root/root         0 2023-10-17 04:58 usr/share/help/cs/
drwxr-xr-x root/root         0 2023-10-17 04:58 usr/share/help/cs/gnome-text-editor/
-rw-r--r-- root/root      1195 2023-10-17 04:57 usr/share/help/cs/gnome-text-editor/basics-create-new-file.page
-rw-r--r-- root/root      1259 2023-10-17 04:57 usr/share/help/cs/gnome-text-editor/basics-draft-folder.page
-rw-r--r-- root/root      1141 2023-10-17 04:57 usr/share/help/cs/gnome-text-editor/basics-open-file.page
-rw-r--r-- root/root      3841 2023-10-17 04:57 usr/share/help/cs/gnome-text-editor/edit-search-and-replace.page
-rw-r--r-- root/root      2448 2023-10-17 04:57 usr/share/help/cs/gnome-text-editor/edit-undo-redo.page
-rw-r--r-- root/root      1418 2023-10-17 04:57 usr/share/help/cs/gnome-text-editor/index.page
-rw-r--r-- root/root       315 2023-10-17 04:57 usr/share/help/cs/gnome-text-editor/legal.xml
drwxr-xr-x root/root         0 2023-10-17 04:58 usr/share/help/cs/gnome-text-editor/media/
drwxr-xr-x root/root         0 2023-10-17 04:58 usr/share/help/da/
drwxr-xr-x root/root         0 2023-10-17 04:58 usr/share/help/da/gnome-text-editor/
-rw-r--r-- root/root      1081 2023-10-17 04:57 usr/share/help/da/gnome-text-editor/basics-create-new-file.page
-rw-r--r-- root/root      1181 2023-10-17 04:57 usr/share/help/da/gnome-text-editor/basics-draft-folder.page
-rw-r--r-- root/root      1071 2023-10-17 04:57 usr/share/help/da/gnome-text-editor/basics-open-file.page
-rw-r--r-- root/root      3555 2023-10-17 04:57 usr/share/help/da/gnome-text-editor/edit-search-and-replace.page
-rw-r--r-- root/root      2203 2023-10-17 04:57 usr/share/help/da/gnome-text-editor/edit-undo-redo.page
-rw-r--r-- root/root      1413 2023-10-17 04:57 usr/share/help/da/gnome-text-editor/index.page
-rw-r--r-- root/root       340 2023-10-17 04:57 usr/share/help/da/gnome-text-editor/legal.xml
drwxr-xr-x root/root         0 2023-10-17 04:58 usr/share/help/da/gnome-text-editor/media/
drwxr-xr-x root/root         0 2023-10-17 04:58 usr/share/help/de/
drwxr-xr-x root/root         0 2023-10-17 04:58 usr/share/help/de/gnome-text-editor/
-rw-r--r-- root/root      1869 2023-10-17 04:58 usr/share/help/de/gnome-text-editor/basics-create-new-file.page
-rw-r--r-- root/root      1966 2023-10-17 04:58 usr/share/help/de/gnome-text-editor/basics-draft-folder.page
-rw-r--r-- root/root      1928 2023-10-17 04:58 usr/share/help/de/gnome-text-editor/basics-open-file.page
-rw-r--r-- root/root      4520 2023-10-17 04:58 usr/share/help/de/gnome-text-editor/edit-search-and-replace.page
-rw-r--r-- root/root      3286 2023-10-17 04:58 usr/share/help/de/gnome-text-editor/edit-undo-redo.page
-rw-r--r-- root/root      2113 2023-10-17 04:58 usr/share/help/de/gnome-text-editor/index.page
-rw-r--r-- root/root       331 2023-10-17 04:58 usr/share/help/de/gnome-text-editor/legal.xml
drwxr-xr-x root/root         0 2023-10-17 04:58 usr/share/help/de/gnome-text-editor/media/
drwxr-xr-x root/root         0 2023-10-17 04:58 usr/share/help/es/
drwxr-xr-x root/root         0 2023-10-17 04:58 usr/share/help/es/gnome-text-editor/
-rw-r--r-- root/root      1377 2023-10-17 04:58 usr/share/help/es/gnome-text-editor/basics-create-new-file.page
-rw-r--r-- root/root      1438 2023-10-17 04:58 usr/share/help/es/gnome-text-editor/basics-draft-folder.page
-rw-r--r-- root/root      1286 2023-10-17 04:58 usr/share/help/es/gnome-text-editor/basics-open-file.page
-rw-r--r-- root/root      3807 2023-10-17 04:58 usr/share/help/es/gnome-text-editor/edit-search-and-replace.page
-rw-r--r-- root/root      2658 2023-10-17 04:58 usr/share/help/es/gnome-text-editor/edit-undo-redo.page
-rw-r--r-- root/root      1659 2023-10-17 04:58 usr/share/help/es/gnome-text-editor/index.page
-rw-r--r-- root/root       333 2023-10-17 04:58 usr/share/help/es/gnome-text-editor/legal.xml
drwxr-xr-x root/root         0 2023-10-17 04:58 usr/share/help/es/gnome-text-editor/media/
drwxr-xr-x root/root         0 2023-10-17 04:58 usr/share/help/eu/
drwxr-xr-x root/root         0 2023-10-17 04:58 usr/share/help/eu/gnome-text-editor/
-rw-r--r-- root/root      1158 2023-10-17 04:58 usr/share/help/eu/gnome-text-editor/basics-create-new-file.page
-rw-r--r-- root/root      1268 2023-10-17 04:58 usr/share/help/eu/gnome-text-editor/basics-draft-folder.page
-rw-r--r-- root/root      1114 2023-10-17 04:58 usr/share/help/eu/gnome-text-editor/basics-open-file.page
-rw-r--r-- root/root      3602 2023-10-17 04:58 usr/share/help/eu/gnome-text-editor/edit-search-and-replace.page
-rw-r--r-- root/root      2446 2023-10-17 04:58 usr/share/help/eu/gnome-text-editor/edit-undo-redo.page
-rw-r--r-- root/root      1429 2023-10-17 04:58 usr/share/help/eu/gnome-text-editor/index.page
-rw-r--r-- root/root       316 2023-10-17 04:58 usr/share/help/eu/gnome-text-editor/legal.xml
drwxr-xr-x root/root         0 2023-10-17 04:58 usr/share/help/eu/gnome-text-editor/media/
drwxr-xr-x root/root         0 2023-10-17 04:58 usr/share/help/fr/
drwxr-xr-x root/root         0 2023-10-17 04:58 usr/share/help/fr/gnome-text-editor/
-rw-r--r-- root/root      1488 2023-10-17 04:58 usr/share/help/fr/gnome-text-editor/basics-create-new-file.page
-rw-r--r-- root/root      1577 2023-10-17 04:58 usr/share/help/fr/gnome-text-editor/basics-draft-folder.page
-rw-r--r-- root/root      1448 2023-10-17 04:58 usr/share/help/fr/gnome-text-editor/basics-open-file.page
-rw-r--r-- root/root      4219 2023-10-17 04:58 usr/share/help/fr/gnome-text-editor/edit-search-and-replace.page
-rw-r--r-- root/root      2879 2023-10-17 04:58 usr/share/help/fr/gnome-text-editor/edit-undo-redo.page
-rw-r--r-- root/root      1699 2023-10-17 04:58 usr/share/help/fr/gnome-text-editor/index.page
-rw-r--r-- root/root       357 2023-10-17 04:58 usr/share/help/fr/gnome-text-editor/legal.xml
drwxr-xr-x root/root         0 2023-10-17 04:58 usr/share/help/fr/gnome-text-editor/media/
drwxr-xr-x root/root         0 2023-10-17 04:58 usr/share/help/gl/
drwxr-xr-x root/root         0 2023-10-17 04:58 usr/share/help/gl/gnome-text-editor/
-rw-r--r-- root/root      1398 2023-10-17 04:58 usr/share/help/gl/gnome-text-editor/basics-create-new-file.page
-rw-r--r-- root/root      1502 2023-10-17 04:58 usr/share/help/gl/gnome-text-editor/basics-draft-folder.page
-rw-r--r-- root/root      1275 2023-10-17 04:58 usr/share/help/gl/gnome-text-editor/basics-open-file.page
-rw-r--r-- root/root      3940 2023-10-17 04:58 usr/share/help/gl/gnome-text-editor/edit-search-and-replace.page
-rw-r--r-- root/root      2581 2023-10-17 04:58 usr/share/help/gl/gnome-text-editor/edit-undo-redo.page
-rw-r--r-- root/root      1662 2023-10-17 04:58 usr/share/help/gl/gnome-text-editor/index.page
-rw-r--r-- root/root       337 2023-10-17 04:58 usr/share/help/gl/gnome-text-editor/legal.xml
drwxr-xr-x root/root         0 2023-10-17 04:58 usr/share/help/gl/gnome-text-editor/media/
drwxr-xr-x root/root         0 2023-10-17 04:58 usr/share/help/hu/
drwxr-xr-x root/root         0 2023-10-17 04:58 usr/share/help/hu/gnome-text-editor/
-rw-r--r-- root/root      1470 2023-10-17 04:58 usr/share/help/hu/gnome-text-editor/basics-create-new-file.page
-rw-r--r-- root/root      1495 2023-10-17 04:58 usr/share/help/hu/gnome-text-editor/basics-draft-folder.page
-rw-r--r-- root/root      1493 2023-10-17 04:58 usr/share/help/hu/gnome-text-editor/basics-open-file.page
-rw-r--r-- root/root      4176 2023-10-17 04:58 usr/share/help/hu/gnome-text-editor/edit-search-and-replace.page
-rw-r--r-- root/root      2961 2023-10-17 04:58 usr/share/help/hu/gnome-text-editor/edit-undo-redo.page
-rw-r--r-- root/root      1686 2023-10-17 04:58 usr/share/help/hu/gnome-text-editor/index.page
-rw-r--r-- root/root       331 2023-10-17 04:58 usr/share/help/hu/gnome-text-editor/legal.xml
drwxr-xr-x root/root         0 2023-10-17 04:58 usr/share/help/hu/gnome-text-editor/media/
drwxr-xr-x root/root         0 2023-10-17 04:58 usr/share/help/id/
drwxr-xr-x root/root         0 2023-10-17 04:58 usr/share/help/id/gnome-text-editor/
-rw-r--r-- root/root      1400 2023-10-17 04:58 usr/share/help/id/gnome-text-editor/basics-create-new-file.page
-rw-r--r-- root/root      1461 2023-10-17 04:58 usr/share/help/id/gnome-text-editor/basics-draft-folder.page
-rw-r--r-- root/root      1309 2023-10-17 04:58 usr/share/help/id/gnome-text-editor/basics-open-file.page
-rw-r--r-- root/root      3876 2023-10-17 04:58 usr/share/help/id/gnome-text-editor/edit-search-and-replace.page
-rw-r--r-- root/root      2743 2023-10-17 04:58 usr/share/help/id/gnome-text-editor/edit-undo-redo.page
-rw-r--r-- root/root      1642 2023-10-17 04:58 usr/share/help/id/gnome-text-editor/index.page
-rw-r--r-- root/root       323 2023-10-17 04:58 usr/share/help/id/gnome-text-editor/legal.xml
drwxr-xr-x root/root         0 2023-10-17 04:58 usr/share/help/id/gnome-text-editor/media/
drwxr-xr-x root/root         0 2023-10-17 04:58 usr/share/help/it/
drwxr-xr-x root/root         0 2023-10-17 04:58 usr/share/help/it/gnome-text-editor/
-rw-r--r-- root/root      1438 2023-10-17 04:58 usr/share/help/it/gnome-text-editor/basics-create-new-file.page
-rw-r--r-- root/root      1540 2023-10-17 04:58 usr/share/help/it/gnome-text-editor/basics-draft-folder.page
-rw-r--r-- root/root      1346 2023-10-17 04:58 usr/share/help/it/gnome-text-editor/basics-open-file.page
-rw-r--r-- root/root      4032 2023-10-17 04:58 usr/share/help/it/gnome-text-editor/edit-search-and-replace.page
-rw-r--r-- root/root      2697 2023-10-17 04:58 usr/share/help/it/gnome-text-editor/edit-undo-redo.page
-rw-r--r-- root/root      1655 2023-10-17 04:58 usr/share/help/it/gnome-text-editor/index.page
-rw-r--r-- root/root       346 2023-10-17 04:58 usr/share/help/it/gnome-text-editor/legal.xml
drwxr-xr-x root/root         0 2023-10-17 04:58 usr/share/help/it/gnome-text-editor/media/
drwxr-xr-x root/root         0 2023-10-17 04:58 usr/share/help/ko/
drwxr-xr-x root/root         0 2023-10-17 04:58 usr/share/help/ko/gnome-text-editor/
-rw-r--r-- root/root      1423 2023-10-17 04:58 usr/share/help/ko/gnome-text-editor/basics-create-new-file.page
-rw-r--r-- root/root      1526 2023-10-17 04:58 usr/share/help/ko/gnome-text-editor/basics-draft-folder.page
-rw-r--r-- root/root      1394 2023-10-17 04:58 usr/share/help/ko/gnome-text-editor/basics-open-file.page
-rw-r--r-- root/root      4014 2023-10-17 04:58 usr/share/help/ko/gnome-text-editor/edit-search-and-replace.page
-rw-r--r-- root/root      2976 2023-10-17 04:58 usr/share/help/ko/gnome-text-editor/edit-undo-redo.page
-rw-r--r-- root/root      1673 2023-10-17 04:58 usr/share/help/ko/gnome-text-editor/index.page
-rw-r--r-- root/root       376 2023-10-17 04:58 usr/share/help/ko/gnome-text-editor/legal.xml
drwxr-xr-x root/root         0 2023-10-17 04:58 usr/share/help/ko/gnome-text-editor/media/
drwxr-xr-x root/root         0 2023-10-17 04:58 usr/share/help/ne/
drwxr-xr-x root/root         0 2023-10-17 04:58 usr/share/help/ne/gnome-text-editor/
-rw-r--r-- root/root      1943 2023-10-17 04:58 usr/share/help/ne/gnome-text-editor/basics-create-new-file.page
-rw-r--r-- root/root      2330 2023-10-17 04:58 usr/share/help/ne/gnome-text-editor/basics-draft-folder.page
-rw-r--r-- root/root      1905 2023-10-17 04:58 usr/share/help/ne/gnome-text-editor/basics-open-file.page
-rw-r--r-- root/root      6130 2023-10-17 04:58 usr/share/help/ne/gnome-text-editor/edit-search-and-replace.page
-rw-r--r-- root/root      4379 2023-10-17 04:58 usr/share/help/ne/gnome-text-editor/edit-undo-redo.page
-rw-r--r-- root/root      1974 2023-10-17 04:58 usr/share/help/ne/gnome-text-editor/index.page
-rw-r--r-- root/root       498 2023-10-17 04:58 usr/share/help/ne/gnome-text-editor/legal.xml
drwxr-xr-x root/root         0 2023-10-17 04:58 usr/share/help/ne/gnome-text-editor/media/
drwxr-xr-x root/root         0 2023-10-17 04:58 usr/share/help/nl/
drwxr-xr-x root/root         0 2023-10-17 04:58 usr/share/help/nl/gnome-text-editor/
-rw-r--r-- root/root      1391 2023-10-17 04:58 usr/share/help/nl/gnome-text-editor/basics-create-new-file.page
-rw-r--r-- root/root      1479 2023-10-17 04:58 usr/share/help/nl/gnome-text-editor/basics-draft-folder.page
-rw-r--r-- root/root      1299 2023-10-17 04:58 usr/share/help/nl/gnome-text-editor/basics-open-file.page
-rw-r--r-- root/root      3889 2023-10-17 04:58 usr/share/help/nl/gnome-text-editor/edit-search-and-replace.page
-rw-r--r-- root/root      2725 2023-10-17 04:58 usr/share/help/nl/gnome-text-editor/edit-undo-redo.page
-rw-r--r-- root/root      1634 2023-10-17 04:58 usr/share/help/nl/gnome-text-editor/index.page
-rw-r--r-- root/root       331 2023-10-17 04:58 usr/share/help/nl/gnome-text-editor/legal.xml
drwxr-xr-x root/root         0 2023-10-17 04:58 usr/share/help/nl/gnome-text-editor/media/
drwxr-xr-x root/root         0 2023-10-17 04:58 usr/share/help/pl/
drwxr-xr-x root/root         0 2023-10-17 04:58 usr/share/help/pl/gnome-text-editor/
-rw-r--r-- root/root      1612 2023-10-17 04:58 usr/share/help/pl/gnome-text-editor/basics-create-new-file.page
-rw-r--r-- root/root      1716 2023-10-17 04:58 usr/share/help/pl/gnome-text-editor/basics-draft-folder.page
-rw-r--r-- root/root      1603 2023-10-17 04:58 usr/share/help/pl/gnome-text-editor/basics-open-file.page
-rw-r--r-- root/root      4229 2023-10-17 04:58 usr/share/help/pl/gnome-text-editor/edit-search-and-replace.page
-rw-r--r-- root/root      2689 2023-10-17 04:58 usr/share/help/pl/gnome-text-editor/edit-undo-redo.page
-rw-r--r-- root/root      1886 2023-10-17 04:58 usr/share/help/pl/gnome-text-editor/index.page
-rw-r--r-- root/root       305 2023-10-17 04:58 usr/share/help/pl/gnome-text-editor/legal.xml
drwxr-xr-x root/root         0 2023-10-17 04:58 usr/share/help/pl/gnome-text-editor/media/
drwxr-xr-x root/root         0 2023-10-17 04:58 usr/share/help/pt_BR/
drwxr-xr-x root/root         0 2023-10-17 04:58 usr/share/help/pt_BR/gnome-text-editor/
-rw-r--r-- root/root      1414 2023-10-17 04:58 usr/share/help/pt_BR/gnome-text-editor/basics-create-new-file.page
-rw-r--r-- root/root      1507 2023-10-17 04:58 usr/share/help/pt_BR/gnome-text-editor/basics-draft-folder.page
-rw-r--r-- root/root      1345 2023-10-17 04:58 usr/share/help/pt_BR/gnome-text-editor/basics-open-file.page
-rw-r--r-- root/root      4062 2023-10-17 04:58 usr/share/help/pt_BR/gnome-text-editor/edit-search-and-replace.page
-rw-r--r-- root/root      2684 2023-10-17 04:58 usr/share/help/pt_BR/gnome-text-editor/edit-undo-redo.page
-rw-r--r-- root/root      1666 2023-10-17 04:58 usr/share/help/pt_BR/gnome-text-editor/index.page
-rw-r--r-- root/root       339 2023-10-17 04:58 usr/share/help/pt_BR/gnome-text-editor/legal.xml
drwxr-xr-x root/root         0 2023-10-17 04:58 usr/share/help/pt_BR/gnome-text-editor/media/
drwxr-xr-x root/root         0 2023-10-17 04:58 usr/share/help/ru/
drwxr-xr-x root/root         0 2023-10-17 04:58 usr/share/help/ru/gnome-text-editor/
-rw-r--r-- root/root      1593 2023-10-17 04:58 usr/share/help/ru/gnome-text-editor/basics-create-new-file.page
-rw-r--r-- root/root      1819 2023-10-17 04:58 usr/share/help/ru/gnome-text-editor/basics-draft-folder.page
-rw-r--r-- root/root      1756 2023-10-17 04:58 usr/share/help/ru/gnome-text-editor/basics-open-file.page
-rw-r--r-- root/root      5008 2023-10-17 04:58 usr/share/help/ru/gnome-text-editor/edit-search-and-replace.page
-rw-r--r-- root/root      3503 2023-10-17 04:58 usr/share/help/ru/gnome-text-editor/edit-undo-redo.page
-rw-r--r-- root/root      1714 2023-10-17 04:58 usr/share/help/ru/gnome-text-editor/index.page
-rw-r--r-- root/root       356 2023-10-17 04:58 usr/share/help/ru/gnome-text-editor/legal.xml
drwxr-xr-x root/root         0 2023-10-17 04:58 usr/share/help/ru/gnome-text-editor/media/
drwxr-xr-x root/root         0 2023-10-17 04:58 usr/share/help/sv/
drwxr-xr-x root/root         0 2023-10-17 04:58 usr/share/help/sv/gnome-text-editor/
-rw-r--r-- root/root      1368 2023-10-17 04:58 usr/share/help/sv/gnome-text-editor/basics-create-new-file.page
-rw-r--r-- root/root      1429 2023-10-17 04:58 usr/share/help/sv/gnome-text-editor/basics-draft-folder.page
-rw-r--r-- root/root      1351 2023-10-17 04:58 usr/share/help/sv/gnome-text-editor/basics-open-file.page
-rw-r--r-- root/root      3806 2023-10-17 04:58 usr/share/help/sv/gnome-text-editor/edit-search-and-replace.page
-rw-r--r-- root/root      2680 2023-10-17 04:58 usr/share/help/sv/gnome-text-editor/edit-undo-redo.page
-rw-r--r-- root/root      1648 2023-10-17 04:58 usr/share/help/sv/gnome-text-editor/index.page
-rw-r--r-- root/root       323 2023-10-17 04:58 usr/share/help/sv/gnome-text-editor/legal.xml
drwxr-xr-x root/root         0 2023-10-17 04:58 usr/share/help/sv/gnome-text-editor/media/
drwxr-xr-x root/root         0 2023-10-17 04:58 usr/share/help/tr/
drwxr-xr-x root/root         0 2023-10-17 04:58 usr/share/help/tr/gnome-text-editor/
-rw-r--r-- root/root      1625 2023-10-17 04:58 usr/share/help/tr/gnome-text-editor/basics-create-new-file.page
-rw-r--r-- root/root      1711 2023-10-17 04:58 usr/share/help/tr/gnome-text-editor/basics-draft-folder.page
-rw-r--r-- root/root      1584 2023-10-17 04:58 usr/share/help/tr/gnome-text-editor/basics-open-file.page
-rw-r--r-- root/root      4086 2023-10-17 04:58 usr/share/help/tr/gnome-text-editor/edit-search-and-replace.page
-rw-r--r-- root/root      2919 2023-10-17 04:58 usr/share/help/tr/gnome-text-editor/edit-undo-redo.page
-rw-r--r-- root/root      1912 2023-10-17 04:58 usr/share/help/tr/gnome-text-editor/index.page
-rw-r--r-- root/root       328 2023-10-17 04:58 usr/share/help/tr/gnome-text-editor/legal.xml
drwxr-xr-x root/root         0 2023-10-17 04:58 usr/share/help/tr/gnome-text-editor/media/
drwxr-xr-x root/root         0 2023-10-17 04:58 usr/share/help/uk/
drwxr-xr-x root/root         0 2023-10-17 04:58 usr/share/help/uk/gnome-text-editor/
-rw-r--r-- root/root      1766 2023-10-17 04:58 usr/share/help/uk/gnome-text-editor/basics-create-new-file.page
-rw-r--r-- root/root      2004 2023-10-17 04:58 usr/share/help/uk/gnome-text-editor/basics-draft-folder.page
-rw-r--r-- root/root      1951 2023-10-17 04:58 usr/share/help/uk/gnome-text-editor/basics-open-file.page
-rw-r--r-- root/root      5969 2023-10-17 04:58 usr/share/help/uk/gnome-text-editor/edit-search-and-replace.page
-rw-r--r-- root/root      3941 2023-10-17 04:58 usr/share/help/uk/gnome-text-editor/edit-undo-redo.page
-rw-r--r-- root/root      1897 2023-10-17 04:58 usr/share/help/uk/gnome-text-editor/index.page
-rw-r--r-- root/root       377 2023-10-17 04:58 usr/share/help/uk/gnome-text-editor/legal.xml
drwxr-xr-x root/root         0 2023-10-17 04:58 usr/share/help/uk/gnome-text-editor/media/
drwxr-xr-x root/root         0 2023-10-17 04:58 usr/share/help/zh_CN/
drwxr-xr-x root/root         0 2023-10-17 04:58 usr/share/help/zh_CN/gnome-text-editor/
-rw-r--r-- root/root      1117 2023-10-17 04:58 usr/share/help/zh_CN/gnome-text-editor/basics-create-new-file.page
-rw-r--r-- root/root      1187 2023-10-17 04:58 usr/share/help/zh_CN/gnome-text-editor/basics-draft-folder.page
-rw-r--r-- root/root      1016 2023-10-17 04:58 usr/share/help/zh_CN/gnome-text-editor/basics-open-file.page
-rw-r--r-- root/root      3424 2023-10-17 04:58 usr/share/help/zh_CN/gnome-text-editor/edit-search-and-replace.page
-rw-r--r-- root/root      2170 2023-10-17 04:58 usr/share/help/zh_CN/gnome-text-editor/edit-undo-redo.page
-rw-r--r-- root/root      1398 2023-10-17 04:58 usr/share/help/zh_CN/gnome-text-editor/index.page
-rw-r--r-- root/root       320 2023-10-17 04:58 usr/share/help/zh_CN/gnome-text-editor/legal.xml
drwxr-xr-x root/root         0 2023-10-17 04:58 usr/share/help/zh_CN/gnome-text-editor/media/
drwxr-xr-x root/root         0 2023-10-17 04:58 usr/share/icons/
drwxr-xr-x root/root         0 2023-10-17 04:58 usr/share/icons/hicolor/
drwxr-xr-x root/root         0 2023-10-17 04:58 usr/share/icons/hicolor/scalable/
drwxr-xr-x root/root         0 2023-10-17 04:58 usr/share/icons/hicolor/scalable/apps/
-rw-r--r-- root/root      5094 2023-03-17 19:53 usr/share/icons/hicolor/scalable/apps/org.gnome.TextEditor.svg
drwxr-xr-x root/root         0 2023-10-17 04:58 usr/share/icons/hicolor/symbolic/
drwxr-xr-x root/root         0 2023-10-17 04:58 usr/share/icons/hicolor/symbolic/apps/
-rw-r--r-- root/root       703 2023-03-17 19:53 usr/share/icons/hicolor/symbolic/apps/org.gnome.TextEditor-symbolic.svg
drwxr-xr-x root/root         0 2023-10-17 04:58 usr/share/locale/
drwxr-xr-x root/root         0 2023-10-17 04:58 usr/share/locale/ab/
drwxr-xr-x root/root         0 2023-10-17 04:58 usr/share/locale/ab/LC_MESSAGES/
-rw-r--r-- root/root      3833 2023-10-17 04:58 usr/share/locale/ab/LC_MESSAGES/gnome-text-editor.mo
drwxr-xr-x root/root         0 2023-10-17 04:58 usr/share/locale/be/
drwxr-xr-x root/root         0 2023-10-17 04:58 usr/share/locale/be/LC_MESSAGES/
-rw-r--r-- root/root     28482 2023-10-17 04:58 usr/share/locale/be/LC_MESSAGES/gnome-text-editor.mo
drwxr-xr-x root/root         0 2023-10-17 04:58 usr/share/locale/bg/
drwxr-xr-x root/root         0 2023-10-17 04:58 usr/share/locale/bg/LC_MESSAGES/
-rw-r--r-- root/root     29273 2023-10-17 04:58 usr/share/locale/bg/LC_MESSAGES/gnome-text-editor.mo
drwxr-xr-x root/root         0 2023-10-17 04:58 usr/share/locale/ca/
drwxr-xr-x root/root         0 2023-10-17 04:58 usr/share/locale/ca/LC_MESSAGES/
-rw-r--r-- root/root     22953 2023-10-17 04:58 usr/share/locale/ca/LC_MESSAGES/gnome-text-editor.mo
drwxr-xr-x root/root         0 2023-10-17 04:58 usr/share/locale/cs/
drwxr-xr-x root/root         0 2023-10-17 04:58 usr/share/locale/cs/LC_MESSAGES/
-rw-r--r-- root/root     22772 2023-10-17 04:58 usr/share/locale/cs/LC_MESSAGES/gnome-text-editor.mo
drwxr-xr-x root/root         0 2023-10-17 04:58 usr/share/locale/da/
drwxr-xr-x root/root         0 2023-10-17 04:58 usr/share/locale/da/LC_MESSAGES/
-rw-r--r-- root/root     21889 2023-10-17 04:58 usr/share/locale/da/LC_MESSAGES/gnome-text-editor.mo
drwxr-xr-x root/root         0 2023-10-17 04:58 usr/share/locale/de/
drwxr-xr-x root/root         0 2023-10-17 04:58 usr/share/locale/de/LC_MESSAGES/
-rw-r--r-- root/root     23335 2023-10-17 04:58 usr/share/locale/de/LC_MESSAGES/gnome-text-editor.mo
drwxr-xr-x root/root         0 2023-10-17 04:58 usr/share/locale/el/
drwxr-xr-x root/root         0 2023-10-17 04:58 usr/share/locale/el/LC_MESSAGES/
-rw-r--r-- root/root     30774 2023-10-17 04:58 usr/share/locale/el/LC_MESSAGES/gnome-text-editor.mo
drwxr-xr-x root/root         0 2023-10-17 04:58 usr/share/locale/en_GB/
drwxr-xr-x root/root         0 2023-10-17 04:58 usr/share/locale/en_GB/LC_MESSAGES/
-rw-r--r-- root/root     21197 2023-10-17 04:58 usr/share/locale/en_GB/LC_MESSAGES/gnome-text-editor.mo
drwxr-xr-x root/root         0 2023-10-17 04:58 usr/share/locale/es/
drwxr-xr-x root/root         0 2023-10-17 04:58 usr/share/locale/es/LC_MESSAGES/
-rw-r--r-- root/root     23200 2023-10-17 04:58 usr/share/locale/es/LC_MESSAGES/gnome-text-editor.mo
drwxr-xr-x root/root         0 2023-10-17 04:58 usr/share/locale/eu/
drwxr-xr-x root/root         0 2023-10-17 04:58 usr/share/locale/eu/LC_MESSAGES/
-rw-r--r-- root/root     22467 2023-10-17 04:58 usr/share/locale/eu/LC_MESSAGES/gnome-text-editor.mo
drwxr-xr-x root/root         0 2023-10-17 04:58 usr/share/locale/fa/
drwxr-xr-x root/root         0 2023-10-17 04:58 usr/share/locale/fa/LC_MESSAGES/
-rw-r--r-- root/root     26198 2023-10-17 04:58 usr/share/locale/fa/LC_MESSAGES/gnome-text-editor.mo
drwxr-xr-x root/root         0 2023-10-17 04:58 usr/share/locale/fi/
drwxr-xr-x root/root         0 2023-10-17 04:58 usr/share/locale/fi/LC_MESSAGES/
-rw-r--r-- root/root     20166 2023-10-17 04:58 usr/share/locale/fi/LC_MESSAGES/gnome-text-editor.mo
drwxr-xr-x root/root         0 2023-10-17 04:58 usr/share/locale/fr/
drwxr-xr-x root/root         0 2023-10-17 04:58 usr/share/locale/fr/LC_MESSAGES/
-rw-r--r-- root/root     23675 2023-10-17 04:58 usr/share/locale/fr/LC_MESSAGES/gnome-text-editor.mo
drwxr-xr-x root/root         0 2023-10-17 04:58 usr/share/locale/fur/
drwxr-xr-x root/root         0 2023-10-17 04:58 usr/share/locale/fur/LC_MESSAGES/
-rw-r--r-- root/root     22947 2023-10-17 04:58 usr/share/locale/fur/LC_MESSAGES/gnome-text-editor.mo
drwxr-xr-x root/root         0 2023-10-17 04:58 usr/share/locale/gl/
drwxr-xr-x root/root         0 2023-10-17 04:58 usr/share/locale/gl/LC_MESSAGES/
-rw-r--r-- root/root     22744 2023-10-17 04:58 usr/share/locale/gl/LC_MESSAGES/gnome-text-editor.mo
drwxr-xr-x root/root         0 2023-10-17 04:58 usr/share/locale/he/
drwxr-xr-x root/root         0 2023-10-17 04:58 usr/share/locale/he/LC_MESSAGES/
-rw-r--r-- root/root     23695 2023-10-17 04:58 usr/share/locale/he/LC_MESSAGES/gnome-text-editor.mo
drwxr-xr-x root/root         0 2023-10-17 04:58 usr/share/locale/hr/
drwxr-xr-x root/root         0 2023-10-17 04:58 usr/share/locale/hr/LC_MESSAGES/
-rw-r--r-- root/root     21515 2023-10-17 04:58 usr/share/locale/hr/LC_MESSAGES/gnome-text-editor.mo
drwxr-xr-x root/root         0 2023-10-17 04:58 usr/share/locale/hu/
drwxr-xr-x root/root         0 2023-10-17 04:58 usr/share/locale/hu/LC_MESSAGES/
-rw-r--r-- root/root     23901 2023-10-17 04:58 usr/share/locale/hu/LC_MESSAGES/gnome-text-editor.mo
drwxr-xr-x root/root         0 2023-10-17 04:58 usr/share/locale/id/
drwxr-xr-x root/root         0 2023-10-17 04:58 usr/share/locale/id/LC_MESSAGES/
-rw-r--r-- root/root     21940 2023-10-17 04:58 usr/share/locale/id/LC_MESSAGES/gnome-text-editor.mo
drwxr-xr-x root/root         0 2023-10-17 04:58 usr/share/locale/ie/
drwxr-xr-x root/root         0 2023-10-17 04:58 usr/share/locale/ie/LC_MESSAGES/
-rw-r--r-- root/root     16515 2023-10-17 04:58 usr/share/locale/ie/LC_MESSAGES/gnome-text-editor.mo
drwxr-xr-x root/root         0 2023-10-17 04:58 usr/share/locale/is/
drwxr-xr-x root/root         0 2023-10-17 04:58 usr/share/locale/is/LC_MESSAGES/
-rw-r--r-- root/root     19311 2023-10-17 04:58 usr/share/locale/is/LC_MESSAGES/gnome-text-editor.mo
drwxr-xr-x root/root         0 2023-10-17 04:58 usr/share/locale/it/
drwxr-xr-x root/root         0 2023-10-17 04:58 usr/share/locale/it/LC_MESSAGES/
-rw-r--r-- root/root     21988 2023-10-17 04:58 usr/share/locale/it/LC_MESSAGES/gnome-text-editor.mo
drwxr-xr-x root/root         0 2023-10-17 04:58 usr/share/locale/ja/
drwxr-xr-x root/root         0 2023-10-17 04:58 usr/share/locale/ja/LC_MESSAGES/
-rw-r--r-- root/root     16247 2023-10-17 04:58 usr/share/locale/ja/LC_MESSAGES/gnome-text-editor.mo
drwxr-xr-x root/root         0 2023-10-17 04:58 usr/share/locale/ka/
drwxr-xr-x root/root         0 2023-10-17 04:58 usr/share/locale/ka/LC_MESSAGES/
-rw-r--r-- root/root     25227 2023-10-17 04:58 usr/share/locale/ka/LC_MESSAGES/gnome-text-editor.mo
drwxr-xr-x root/root         0 2023-10-17 04:58 usr/share/locale/kk/
drwxr-xr-x root/root         0 2023-10-17 04:58 usr/share/locale/kk/LC_MESSAGES/
-rw-r--r-- root/root     26925 2023-10-17 04:58 usr/share/locale/kk/LC_MESSAGES/gnome-text-editor.mo
drwxr-xr-x root/root         0 2023-10-17 04:58 usr/share/locale/ko/
drwxr-xr-x root/root         0 2023-10-17 04:58 usr/share/locale/ko/LC_MESSAGES/
-rw-r--r-- root/root     22679 2023-10-17 04:58 usr/share/locale/ko/LC_MESSAGES/gnome-text-editor.mo
drwxr-xr-x root/root         0 2023-10-17 04:58 usr/share/locale/lt/
drwxr-xr-x root/root         0 2023-10-17 04:58 usr/share/locale/lt/LC_MESSAGES/
-rw-r--r-- root/root     22573 2023-10-17 04:58 usr/share/locale/lt/LC_MESSAGES/gnome-text-editor.mo
drwxr-xr-x root/root         0 2023-10-17 04:58 usr/share/locale/lv/
drwxr-xr-x root/root         0 2023-10-17 04:58 usr/share/locale/lv/LC_MESSAGES/
-rw-r--r-- root/root     21669 2023-10-17 04:58 usr/share/locale/lv/LC_MESSAGES/gnome-text-editor.mo
drwxr-xr-x root/root         0 2023-10-17 04:58 usr/share/locale/nb/
drwxr-xr-x root/root         0 2023-10-17 04:58 usr/share/locale/nb/LC_MESSAGES/
-rw-r--r-- root/root     10334 2023-10-17 04:58 usr/share/locale/nb/LC_MESSAGES/gnome-text-editor.mo
drwxr-xr-x root/root         0 2023-10-17 04:58 usr/share/locale/ne/
drwxr-xr-x root/root         0 2023-10-17 04:58 usr/share/locale/ne/LC_MESSAGES/
-rw-r--r-- root/root     34155 2023-10-17 04:58 usr/share/locale/ne/LC_MESSAGES/gnome-text-editor.mo
drwxr-xr-x root/root         0 2023-10-17 04:58 usr/share/locale/nl/
drwxr-xr-x root/root         0 2023-10-17 04:58 usr/share/locale/nl/LC_MESSAGES/
-rw-r--r-- root/root     22847 2023-10-17 04:58 usr/share/locale/nl/LC_MESSAGES/gnome-text-editor.mo
drwxr-xr-x root/root         0 2023-10-17 04:58 usr/share/locale/oc/
drwxr-xr-x root/root         0 2023-10-17 04:58 usr/share/locale/oc/LC_MESSAGES/
-rw-r--r-- root/root     11548 2023-10-17 04:58 usr/share/locale/oc/LC_MESSAGES/gnome-text-editor.mo
drwxr-xr-x root/root         0 2023-10-17 04:58 usr/share/locale/pa/
drwxr-xr-x root/root         0 2023-10-17 04:58 usr/share/locale/pa/LC_MESSAGES/
-rw-r--r-- root/root     11561 2023-10-17 04:58 usr/share/locale/pa/LC_MESSAGES/gnome-text-editor.mo
drwxr-xr-x root/root         0 2023-10-17 04:58 usr/share/locale/pl/
drwxr-xr-x root/root         0 2023-10-17 04:58 usr/share/locale/pl/LC_MESSAGES/
-rw-r--r-- root/root     22665 2023-10-17 04:58 usr/share/locale/pl/LC_MESSAGES/gnome-text-editor.mo
drwxr-xr-x root/root         0 2023-10-17 04:58 usr/share/locale/pt/
drwxr-xr-x root/root         0 2023-10-17 04:58 usr/share/locale/pt/LC_MESSAGES/
-rw-r--r-- root/root     22880 2023-10-17 04:58 usr/share/locale/pt/LC_MESSAGES/gnome-text-editor.mo
drwxr-xr-x root/root         0 2023-10-17 04:58 usr/share/locale/pt_BR/
drwxr-xr-x root/root         0 2023-10-17 04:58 usr/share/locale/pt_BR/LC_MESSAGES/
-rw-r--r-- root/root     22176 2023-10-17 04:58 usr/share/locale/pt_BR/LC_MESSAGES/gnome-text-editor.mo
drwxr-xr-x root/root         0 2023-10-17 04:58 usr/share/locale/ru/
drwxr-xr-x root/root         0 2023-10-17 04:58 usr/share/locale/ru/LC_MESSAGES/
-rw-r--r-- root/root     28899 2023-10-17 04:58 usr/share/locale/ru/LC_MESSAGES/gnome-text-editor.mo
drwxr-xr-x root/root         0 2023-10-17 04:58 usr/share/locale/sk/
drwxr-xr-x root/root         0 2023-10-17 04:58 usr/share/locale/sk/LC_MESSAGES/
-rw-r--r-- root/root     15435 2023-10-17 04:58 usr/share/locale/sk/LC_MESSAGES/gnome-text-editor.mo
drwxr-xr-x root/root         0 2023-10-17 04:58 usr/share/locale/sl/
drwxr-xr-x root/root         0 2023-10-17 04:58 usr/share/locale/sl/LC_MESSAGES/
-rw-r--r-- root/root     22608 2023-10-17 04:58 usr/share/locale/sl/LC_MESSAGES/gnome-text-editor.mo
drwxr-xr-x root/root         0 2023-10-17 04:58 usr/share/locale/sr/
drwxr-xr-x root/root         0 2023-10-17 04:58 usr/share/locale/sr/LC_MESSAGES/
-rw-r--r-- root/root     26822 2023-10-17 04:58 usr/share/locale/sr/LC_MESSAGES/gnome-text-editor.mo
drwxr-xr-x root/root         0 2023-10-17 04:58 usr/share/locale/sv/
drwxr-xr-x root/root         0 2023-10-17 04:58 usr/share/locale/sv/LC_MESSAGES/
-rw-r--r-- root/root     22335 2023-10-17 04:58 usr/share/locale/sv/LC_MESSAGES/gnome-text-editor.mo
drwxr-xr-x root/root         0 2023-10-17 04:58 usr/share/locale/tr/
drwxr-xr-x root/root         0 2023-10-17 04:58 usr/share/locale/tr/LC_MESSAGES/
-rw-r--r-- root/root     22438 2023-10-17 04:58 usr/share/locale/tr/LC_MESSAGES/gnome-text-editor.mo
drwxr-xr-x root/root         0 2023-10-17 04:58 usr/share/locale/uk/
drwxr-xr-x root/root         0 2023-10-17 04:58 usr/share/locale/uk/LC_MESSAGES/
-rw-r--r-- root/root     29409 2023-10-17 04:58 usr/share/locale/uk/LC_MESSAGES/gnome-text-editor.mo
drwxr-xr-x root/root         0 2023-10-17 04:58 usr/share/locale/vi/
drwxr-xr-x root/root         0 2023-10-17 04:58 usr/share/locale/vi/LC_MESSAGES/
-rw-r--r-- root/root     23019 2023-10-17 04:58 usr/share/locale/vi/LC_MESSAGES/gnome-text-editor.mo
drwxr-xr-x root/root         0 2023-10-17 04:58 usr/share/locale/zh_CN/
drwxr-xr-x root/root         0 2023-10-17 04:58 usr/share/locale/zh_CN/LC_MESSAGES/
-rw-r--r-- root/root     20147 2023-10-17 04:58 usr/share/locale/zh_CN/LC_MESSAGES/gnome-text-editor.mo
drwxr-xr-x root/root         0 2023-10-17 04:58 usr/share/locale/zh_TW/
drwxr-xr-x root/root         0 2023-10-17 04:58 usr/share/locale/zh_TW/LC_MESSAGES/
-rw-r--r-- root/root     21070 2023-10-17 04:58 usr/share/locale/zh_TW/LC_MESSAGES/gnome-text-editor.mo
drwxr-xr-x root/root         0 2023-10-17 04:58 usr/share/metainfo/
-rw-r--r-- root/root     15898 2023-10-17 04:57 usr/share/metainfo/org.gnome.TextEditor.appdata.xml


