++========================================
||
||   Package:  ./libdazzle-3.44.0-x86_64-1_snuk.txz
||
++========================================
drwxr-xr-x root/root         0 2023-10-17 04:47 ./
drwxr-xr-x root/root         0 2023-10-17 04:47 install/
-rw-r--r-- root/root       105 2023-10-17 04:47 install/doinst.sh
-rw-r--r-- root/root       654 2023-10-17 04:47 install/slack-desc
drwxr-xr-x root/root         0 2023-10-17 04:47 usr/
drwxr-xr-x root/root         0 2023-10-17 04:47 usr/bin/
-rwxr-xr-x root/root     14288 2023-10-17 04:47 usr/bin/dazzle-list-counters
drwxr-xr-x root/root         0 2023-10-17 04:47 usr/doc/
drwxr-xr-x root/root         0 2023-10-17 04:47 usr/doc/libdazzle-3.44.0/
-rw-r--r-- root/root       115 2022-03-18 23:05 usr/doc/libdazzle-3.44.0/AUTHORS
-rw-r--r-- root/root      2979 2022-03-18 23:05 usr/doc/libdazzle-3.44.0/CONTRIBUTING.md
-rw-r--r-- root/root     35148 2022-03-18 23:05 usr/doc/libdazzle-3.44.0/COPYING
-rw-r--r-- root/root      3544 2022-03-18 23:05 usr/doc/libdazzle-3.44.0/NEWS
-rw-r--r-- root/root      1904 2022-03-18 23:05 usr/doc/libdazzle-3.44.0/README.md
-rw-r--r-- root/root      3471 2023-10-17 04:47 usr/doc/libdazzle-3.44.0/libdazzle.SlackBuild
drwxr-xr-x root/root         0 2023-10-17 04:47 usr/include/
drwxr-xr-x root/root         0 2023-10-17 04:47 usr/include/libdazzle-1.0/
drwxr-xr-x root/root         0 2023-10-17 04:47 usr/include/libdazzle-1.0/actions/
-rw-r--r-- root/root     16421 2022-03-18 23:05 usr/include/libdazzle-1.0/actions/dzl-action-group.h
-rw-r--r-- root/root      1561 2022-03-18 23:05 usr/include/libdazzle-1.0/actions/dzl-child-property-action.h
-rw-r--r-- root/root      2437 2022-03-18 23:05 usr/include/libdazzle-1.0/actions/dzl-properties-group.h
-rw-r--r-- root/root      1362 2022-03-18 23:05 usr/include/libdazzle-1.0/actions/dzl-settings-flag-action.h
-rw-r--r-- root/root      1753 2022-03-18 23:05 usr/include/libdazzle-1.0/actions/dzl-widget-action-group.h
drwxr-xr-x root/root         0 2023-10-17 04:47 usr/include/libdazzle-1.0/animation/
-rw-r--r-- root/root      3848 2022-03-18 23:05 usr/include/libdazzle-1.0/animation/dzl-animation.h
-rw-r--r-- root/root      1079 2022-03-18 23:05 usr/include/libdazzle-1.0/animation/dzl-box-theatric.h
-rw-r--r-- root/root      1438 2022-03-18 23:05 usr/include/libdazzle-1.0/animation/dzl-frame-source.h
drwxr-xr-x root/root         0 2023-10-17 04:47 usr/include/libdazzle-1.0/app/
-rw-r--r-- root/root      2592 2022-03-18 23:05 usr/include/libdazzle-1.0/app/dzl-application-window.h
-rw-r--r-- root/root      2990 2022-03-18 23:05 usr/include/libdazzle-1.0/app/dzl-application.h
drwxr-xr-x root/root         0 2023-10-17 04:47 usr/include/libdazzle-1.0/bindings/
-rw-r--r-- root/root      3502 2022-03-18 23:05 usr/include/libdazzle-1.0/bindings/dzl-binding-group.h
-rw-r--r-- root/root      3563 2022-03-18 23:05 usr/include/libdazzle-1.0/bindings/dzl-signal-group.h
drwxr-xr-x root/root         0 2023-10-17 04:47 usr/include/libdazzle-1.0/cache/
-rw-r--r-- root/root      4147 2022-03-18 23:05 usr/include/libdazzle-1.0/cache/dzl-task-cache.h
-rw-r--r-- root/root      6495 2022-03-18 23:05 usr/include/libdazzle-1.0/dazzle.h
-rw-r--r-- root/root       975 2023-10-17 04:46 usr/include/libdazzle-1.0/dzl-enums.h
-rw-r--r-- root/root      6438 2022-03-18 23:05 usr/include/libdazzle-1.0/dzl-version-macros.h
-rw-r--r-- root/root      2640 2023-10-17 04:46 usr/include/libdazzle-1.0/dzl-version.h
drwxr-xr-x root/root         0 2023-10-17 04:47 usr/include/libdazzle-1.0/files/
-rw-r--r-- root/root      2246 2022-03-18 23:05 usr/include/libdazzle-1.0/files/dzl-directory-model.h
-rw-r--r-- root/root      3141 2022-03-18 23:05 usr/include/libdazzle-1.0/files/dzl-directory-reaper.h
-rw-r--r-- root/root      3547 2022-03-18 23:05 usr/include/libdazzle-1.0/files/dzl-file-transfer.h
-rw-r--r-- root/root      2906 2022-03-18 23:05 usr/include/libdazzle-1.0/files/dzl-recursive-file-monitor.h
drwxr-xr-x root/root         0 2023-10-17 04:47 usr/include/libdazzle-1.0/graphing/
-rw-r--r-- root/root      1212 2022-03-18 23:05 usr/include/libdazzle-1.0/graphing/dzl-cpu-graph.h
-rw-r--r-- root/root      1137 2022-03-18 23:05 usr/include/libdazzle-1.0/graphing/dzl-cpu-model.h
-rw-r--r-- root/root      1581 2022-03-18 23:05 usr/include/libdazzle-1.0/graphing/dzl-graph-column.h
-rw-r--r-- root/root      1808 2022-03-18 23:05 usr/include/libdazzle-1.0/graphing/dzl-graph-line-renderer.h
-rw-r--r-- root/root      4186 2022-03-18 23:05 usr/include/libdazzle-1.0/graphing/dzl-graph-model.h
-rw-r--r-- root/root      2276 2022-03-18 23:05 usr/include/libdazzle-1.0/graphing/dzl-graph-renderer.h
-rw-r--r-- root/root      1879 2022-03-18 23:05 usr/include/libdazzle-1.0/graphing/dzl-graph-view.h
drwxr-xr-x root/root         0 2023-10-17 04:47 usr/include/libdazzle-1.0/menus/
-rw-r--r-- root/root      1854 2022-03-18 23:05 usr/include/libdazzle-1.0/menus/dzl-joined-menu.h
-rw-r--r-- root/root      2431 2022-03-18 23:05 usr/include/libdazzle-1.0/menus/dzl-menu-button.h
-rw-r--r-- root/root      2233 2022-03-18 23:05 usr/include/libdazzle-1.0/menus/dzl-menu-manager.h
drwxr-xr-x root/root         0 2023-10-17 04:47 usr/include/libdazzle-1.0/panel/
-rw-r--r-- root/root      1432 2022-03-18 23:05 usr/include/libdazzle-1.0/panel/dzl-dock-bin-edge.h
-rw-r--r-- root/root      1919 2022-03-18 23:05 usr/include/libdazzle-1.0/panel/dzl-dock-bin.h
-rw-r--r-- root/root      5508 2022-03-18 23:05 usr/include/libdazzle-1.0/panel/dzl-dock-item.h
-rw-r--r-- root/root      2226 2022-03-18 23:05 usr/include/libdazzle-1.0/panel/dzl-dock-manager.h
-rw-r--r-- root/root      1616 2022-03-18 23:05 usr/include/libdazzle-1.0/panel/dzl-dock-overlay-edge.h
-rw-r--r-- root/root      2132 2022-03-18 23:05 usr/include/libdazzle-1.0/panel/dzl-dock-overlay.h
-rw-r--r-- root/root      1333 2022-03-18 23:05 usr/include/libdazzle-1.0/panel/dzl-dock-paned.h
-rw-r--r-- root/root      4634 2022-03-18 23:05 usr/include/libdazzle-1.0/panel/dzl-dock-revealer.h
-rw-r--r-- root/root      2117 2022-03-18 23:05 usr/include/libdazzle-1.0/panel/dzl-dock-stack.h
-rw-r--r-- root/root      3158 2022-03-18 23:05 usr/include/libdazzle-1.0/panel/dzl-dock-transient-grab.h
-rw-r--r-- root/root      4123 2022-03-18 23:05 usr/include/libdazzle-1.0/panel/dzl-dock-types.h
-rw-r--r-- root/root      1794 2022-03-18 23:05 usr/include/libdazzle-1.0/panel/dzl-dock-widget.h
-rw-r--r-- root/root      1329 2022-03-18 23:05 usr/include/libdazzle-1.0/panel/dzl-dock-window.h
-rw-r--r-- root/root      1026 2022-03-18 23:05 usr/include/libdazzle-1.0/panel/dzl-dock.h
-rw-r--r-- root/root      2368 2022-03-18 23:05 usr/include/libdazzle-1.0/panel/dzl-tab-strip.h
-rw-r--r-- root/root      2911 2022-03-18 23:05 usr/include/libdazzle-1.0/panel/dzl-tab.h
drwxr-xr-x root/root         0 2023-10-17 04:47 usr/include/libdazzle-1.0/pathbar/
-rw-r--r-- root/root      1528 2022-03-18 23:05 usr/include/libdazzle-1.0/pathbar/dzl-path-bar.h
-rw-r--r-- root/root      1601 2022-03-18 23:05 usr/include/libdazzle-1.0/pathbar/dzl-path-element.h
-rw-r--r-- root/root      2040 2022-03-18 23:05 usr/include/libdazzle-1.0/pathbar/dzl-path.h
drwxr-xr-x root/root         0 2023-10-17 04:47 usr/include/libdazzle-1.0/prefs/
-rw-r--r-- root/root      1719 2022-03-18 23:05 usr/include/libdazzle-1.0/prefs/dzl-preferences-bin.h
-rw-r--r-- root/root      1461 2022-03-18 23:05 usr/include/libdazzle-1.0/prefs/dzl-preferences-entry.h
-rw-r--r-- root/root      1283 2022-03-18 23:05 usr/include/libdazzle-1.0/prefs/dzl-preferences-file-chooser-button.h
-rw-r--r-- root/root      1246 2022-03-18 23:05 usr/include/libdazzle-1.0/prefs/dzl-preferences-flow-box.h
-rw-r--r-- root/root      1209 2022-03-18 23:05 usr/include/libdazzle-1.0/prefs/dzl-preferences-font-button.h
-rw-r--r-- root/root      2091 2022-03-18 23:05 usr/include/libdazzle-1.0/prefs/dzl-preferences-group.h
-rw-r--r-- root/root      1932 2022-03-18 23:05 usr/include/libdazzle-1.0/prefs/dzl-preferences-page.h
-rw-r--r-- root/root      1342 2022-03-18 23:05 usr/include/libdazzle-1.0/prefs/dzl-preferences-spin-button.h
-rw-r--r-- root/root      1165 2022-03-18 23:05 usr/include/libdazzle-1.0/prefs/dzl-preferences-switch.h
-rw-r--r-- root/root      2049 2022-03-18 23:05 usr/include/libdazzle-1.0/prefs/dzl-preferences-view.h
-rw-r--r-- root/root     14221 2022-03-18 23:05 usr/include/libdazzle-1.0/prefs/dzl-preferences.h
drwxr-xr-x root/root         0 2023-10-17 04:47 usr/include/libdazzle-1.0/search/
-rw-r--r-- root/root      4904 2022-03-18 23:05 usr/include/libdazzle-1.0/search/dzl-fuzzy-index-builder.h
-rw-r--r-- root/root      1261 2022-03-18 23:05 usr/include/libdazzle-1.0/search/dzl-fuzzy-index-cursor.h
-rw-r--r-- root/root      1512 2022-03-18 23:05 usr/include/libdazzle-1.0/search/dzl-fuzzy-index-match.h
-rw-r--r-- root/root      3748 2022-03-18 23:05 usr/include/libdazzle-1.0/search/dzl-fuzzy-index.h
-rw-r--r-- root/root      3855 2022-03-18 23:05 usr/include/libdazzle-1.0/search/dzl-fuzzy-mutable-index.h
-rw-r--r-- root/root      1015 2022-03-18 23:05 usr/include/libdazzle-1.0/search/dzl-levenshtein.h
-rw-r--r-- root/root      1686 2022-03-18 23:05 usr/include/libdazzle-1.0/search/dzl-pattern-spec.h
-rw-r--r-- root/root      2484 2022-03-18 23:05 usr/include/libdazzle-1.0/search/dzl-trie.h
drwxr-xr-x root/root         0 2023-10-17 04:47 usr/include/libdazzle-1.0/settings/
-rw-r--r-- root/root      6602 2022-03-18 23:05 usr/include/libdazzle-1.0/settings/dzl-settings-sandwich.h
drwxr-xr-x root/root         0 2023-10-17 04:47 usr/include/libdazzle-1.0/shortcuts/
-rw-r--r-- root/root      2111 2022-03-18 23:05 usr/include/libdazzle-1.0/shortcuts/dzl-shortcut-accel-dialog.h
-rw-r--r-- root/root      6504 2022-03-18 23:05 usr/include/libdazzle-1.0/shortcuts/dzl-shortcut-chord.h
-rw-r--r-- root/root      4557 2022-03-18 23:05 usr/include/libdazzle-1.0/shortcuts/dzl-shortcut-context.h
-rw-r--r-- root/root      5385 2022-03-18 23:05 usr/include/libdazzle-1.0/shortcuts/dzl-shortcut-controller.h
-rw-r--r-- root/root      1853 2022-03-18 23:05 usr/include/libdazzle-1.0/shortcuts/dzl-shortcut-label.h
-rw-r--r-- root/root      6838 2022-03-18 23:05 usr/include/libdazzle-1.0/shortcuts/dzl-shortcut-manager.h
-rw-r--r-- root/root      2238 2022-03-18 23:05 usr/include/libdazzle-1.0/shortcuts/dzl-shortcut-model.h
-rw-r--r-- root/root      1914 2022-03-18 23:05 usr/include/libdazzle-1.0/shortcuts/dzl-shortcut-phase.h
-rw-r--r-- root/root      2405 2022-03-18 23:05 usr/include/libdazzle-1.0/shortcuts/dzl-shortcut-simple-label.h
-rw-r--r-- root/root      1833 2022-03-18 23:05 usr/include/libdazzle-1.0/shortcuts/dzl-shortcut-theme-editor.h
-rw-r--r-- root/root      8464 2022-03-18 23:05 usr/include/libdazzle-1.0/shortcuts/dzl-shortcut-theme.h
-rw-r--r-- root/root      2351 2022-03-18 23:05 usr/include/libdazzle-1.0/shortcuts/dzl-shortcut-tooltip.h
-rw-r--r-- root/root      1861 2022-03-18 23:05 usr/include/libdazzle-1.0/shortcuts/dzl-shortcuts-group.h
-rw-r--r-- root/root      1895 2022-03-18 23:05 usr/include/libdazzle-1.0/shortcuts/dzl-shortcuts-section.h
-rw-r--r-- root/root      3431 2022-03-18 23:05 usr/include/libdazzle-1.0/shortcuts/dzl-shortcuts-shortcut.h
-rw-r--r-- root/root      2156 2022-03-18 23:05 usr/include/libdazzle-1.0/shortcuts/dzl-shortcuts-window.h
drwxr-xr-x root/root         0 2023-10-17 04:47 usr/include/libdazzle-1.0/statemachine/
-rw-r--r-- root/root      1058 2022-03-18 23:05 usr/include/libdazzle-1.0/statemachine/dzl-state-machine-buildable.h
-rw-r--r-- root/root      4678 2022-03-18 23:05 usr/include/libdazzle-1.0/statemachine/dzl-state-machine.h
drwxr-xr-x root/root         0 2023-10-17 04:47 usr/include/libdazzle-1.0/suggestions/
-rw-r--r-- root/root      1523 2022-03-18 23:05 usr/include/libdazzle-1.0/suggestions/dzl-suggestion-button.h
-rw-r--r-- root/root      2366 2022-03-18 23:05 usr/include/libdazzle-1.0/suggestions/dzl-suggestion-entry-buffer.h
-rw-r--r-- root/root      5444 2022-03-18 23:05 usr/include/libdazzle-1.0/suggestions/dzl-suggestion-entry.h
-rw-r--r-- root/root      2652 2022-03-18 23:05 usr/include/libdazzle-1.0/suggestions/dzl-suggestion-popover.h
-rw-r--r-- root/root      1673 2022-03-18 23:05 usr/include/libdazzle-1.0/suggestions/dzl-suggestion-row.h
-rw-r--r-- root/root      4136 2022-03-18 23:05 usr/include/libdazzle-1.0/suggestions/dzl-suggestion.h
drwxr-xr-x root/root         0 2023-10-17 04:47 usr/include/libdazzle-1.0/theming/
-rw-r--r-- root/root      1171 2022-03-18 23:05 usr/include/libdazzle-1.0/theming/dzl-css-provider.h
-rw-r--r-- root/root      1535 2022-03-18 23:05 usr/include/libdazzle-1.0/theming/dzl-theme-manager.h
drwxr-xr-x root/root         0 2023-10-17 04:47 usr/include/libdazzle-1.0/tree/
-rw-r--r-- root/root      1610 2022-03-18 23:05 usr/include/libdazzle-1.0/tree/dzl-list-store-adapter.h
-rw-r--r-- root/root      4333 2022-03-18 23:05 usr/include/libdazzle-1.0/tree/dzl-tree-builder.h
-rw-r--r-- root/root      7798 2022-03-18 23:05 usr/include/libdazzle-1.0/tree/dzl-tree-node.h
-rw-r--r-- root/root      1727 2022-03-18 23:05 usr/include/libdazzle-1.0/tree/dzl-tree-types.h
-rw-r--r-- root/root      4735 2022-03-18 23:05 usr/include/libdazzle-1.0/tree/dzl-tree.h
drwxr-xr-x root/root         0 2023-10-17 04:47 usr/include/libdazzle-1.0/util/
-rw-r--r-- root/root      3267 2022-03-18 23:05 usr/include/libdazzle-1.0/util/dzl-cairo.h
-rw-r--r-- root/root       974 2022-03-18 23:05 usr/include/libdazzle-1.0/util/dzl-cancellable.h
-rw-r--r-- root/root     11254 2022-03-18 23:05 usr/include/libdazzle-1.0/util/dzl-counter.h
-rw-r--r-- root/root      1426 2022-03-18 23:05 usr/include/libdazzle-1.0/util/dzl-date-time.h
-rw-r--r-- root/root       994 2022-03-18 23:05 usr/include/libdazzle-1.0/util/dzl-dnd.h
-rw-r--r-- root/root      1030 2022-03-18 23:05 usr/include/libdazzle-1.0/util/dzl-file-manager.h
-rw-r--r-- root/root      1176 2022-03-18 23:05 usr/include/libdazzle-1.0/util/dzl-gdk.h
-rw-r--r-- root/root      4588 2022-03-18 23:05 usr/include/libdazzle-1.0/util/dzl-gtk.h
-rw-r--r-- root/root      2121 2022-03-18 23:05 usr/include/libdazzle-1.0/util/dzl-heap.h
-rw-r--r-- root/root      3493 2022-03-18 23:05 usr/include/libdazzle-1.0/util/dzl-int-pair.h
-rw-r--r-- root/root      1926 2022-03-18 23:05 usr/include/libdazzle-1.0/util/dzl-list-model-filter.h
-rw-r--r-- root/root      3925 2022-03-18 23:05 usr/include/libdazzle-1.0/util/dzl-macros.h
-rw-r--r-- root/root       992 2022-03-18 23:05 usr/include/libdazzle-1.0/util/dzl-pango.h
-rw-r--r-- root/root      1150 2022-03-18 23:05 usr/include/libdazzle-1.0/util/dzl-read-only-list-model.h
-rw-r--r-- root/root      1025 2022-03-18 23:05 usr/include/libdazzle-1.0/util/dzl-rgba.h
-rw-r--r-- root/root      3257 2022-03-18 23:05 usr/include/libdazzle-1.0/util/dzl-ring.h
-rw-r--r-- root/root       962 2022-03-18 23:05 usr/include/libdazzle-1.0/util/dzl-variant.h
drwxr-xr-x root/root         0 2023-10-17 04:47 usr/include/libdazzle-1.0/widgets/
-rw-r--r-- root/root      1225 2022-03-18 23:05 usr/include/libdazzle-1.0/widgets/dzl-bin.h
-rw-r--r-- root/root      1795 2022-03-18 23:05 usr/include/libdazzle-1.0/widgets/dzl-bolding-label.h
-rw-r--r-- root/root      1500 2022-03-18 23:05 usr/include/libdazzle-1.0/widgets/dzl-box.h
-rw-r--r-- root/root      1210 2022-03-18 23:05 usr/include/libdazzle-1.0/widgets/dzl-centering-bin.h
-rw-r--r-- root/root      2309 2022-03-18 23:05 usr/include/libdazzle-1.0/widgets/dzl-column-layout.h
-rw-r--r-- root/root      1644 2022-03-18 23:05 usr/include/libdazzle-1.0/widgets/dzl-counters-window.h
-rw-r--r-- root/root      1298 2022-03-18 23:05 usr/include/libdazzle-1.0/widgets/dzl-elastic-bin.h
-rw-r--r-- root/root      2098 2022-03-18 23:05 usr/include/libdazzle-1.0/widgets/dzl-empty-state.h
-rw-r--r-- root/root      1110 2022-03-18 23:05 usr/include/libdazzle-1.0/widgets/dzl-entry-box.h
-rw-r--r-- root/root      1896 2022-03-18 23:05 usr/include/libdazzle-1.0/widgets/dzl-file-chooser-entry.h
-rw-r--r-- root/root      1122 2022-03-18 23:05 usr/include/libdazzle-1.0/widgets/dzl-list-box-row.h
-rw-r--r-- root/root      1886 2022-03-18 23:05 usr/include/libdazzle-1.0/widgets/dzl-list-box.h
-rw-r--r-- root/root      2253 2022-03-18 23:05 usr/include/libdazzle-1.0/widgets/dzl-multi-paned.h
-rw-r--r-- root/root      1340 2022-03-18 23:05 usr/include/libdazzle-1.0/widgets/dzl-pill-box.h
-rw-r--r-- root/root      1299 2022-03-18 23:05 usr/include/libdazzle-1.0/widgets/dzl-priority-box.h
-rw-r--r-- root/root      1998 2022-03-18 23:05 usr/include/libdazzle-1.0/widgets/dzl-progress-button.h
-rw-r--r-- root/root      1412 2022-03-18 23:05 usr/include/libdazzle-1.0/widgets/dzl-progress-icon.h
-rw-r--r-- root/root      2434 2022-03-18 23:05 usr/include/libdazzle-1.0/widgets/dzl-progress-menu-button.h
-rw-r--r-- root/root      1844 2022-03-18 23:05 usr/include/libdazzle-1.0/widgets/dzl-radio-box.h
-rw-r--r-- root/root      1115 2022-03-18 23:05 usr/include/libdazzle-1.0/widgets/dzl-scrolled-window.h
-rw-r--r-- root/root      1847 2022-03-18 23:05 usr/include/libdazzle-1.0/widgets/dzl-search-bar.h
-rw-r--r-- root/root      2217 2022-03-18 23:05 usr/include/libdazzle-1.0/widgets/dzl-simple-label.h
-rw-r--r-- root/root      3752 2022-03-18 23:05 usr/include/libdazzle-1.0/widgets/dzl-simple-popover.h
-rw-r--r-- root/root      1985 2022-03-18 23:05 usr/include/libdazzle-1.0/widgets/dzl-slider.h
-rw-r--r-- root/root      3008 2022-03-18 23:05 usr/include/libdazzle-1.0/widgets/dzl-stack-list.h
-rw-r--r-- root/root      1670 2022-03-18 23:05 usr/include/libdazzle-1.0/widgets/dzl-three-grid.h
drwxr-xr-x root/root         0 2023-10-17 04:47 usr/lib64/
drwxr-xr-x root/root         0 2023-10-17 04:47 usr/lib64/girepository-1.0/
-rw-r--r-- root/root    132284 2023-10-17 04:47 usr/lib64/girepository-1.0/Dazzle-1.0.typelib
-rwxr-xr-x root/root    977160 2023-10-17 04:47 usr/lib64/libdazzle-1.0.so.0
drwxr-xr-x root/root         0 2023-10-17 04:47 usr/lib64/pkgconfig/
-rw-r--r-- root/root       235 2023-10-17 04:46 usr/lib64/pkgconfig/libdazzle-1.0.pc
drwxr-xr-x root/root         0 2023-10-17 04:47 usr/share/
drwxr-xr-x root/root         0 2023-10-17 04:47 usr/share/gir-1.0/
-rw-r--r-- root/root   1167681 2023-10-17 04:47 usr/share/gir-1.0/Dazzle-1.0.gir
drwxr-xr-x root/root         0 2023-10-17 04:47 usr/share/gtk-doc/
drwxr-xr-x root/root         0 2023-10-17 04:47 usr/share/gtk-doc/html/
drwxr-xr-x root/root         0 2023-10-17 04:47 usr/share/gtk-doc/html/libdazzle/
-rw-r--r-- root/root     24344 2023-10-17 04:47 usr/share/gtk-doc/html/libdazzle/DzlApplication.html
-rw-r--r-- root/root      6611 2023-10-17 04:47 usr/share/gtk-doc/html/libdazzle/DzlBin.html
-rw-r--r-- root/root     11031 2023-10-17 04:47 usr/share/gtk-doc/html/libdazzle/DzlBox.html
-rw-r--r-- root/root      7472 2023-10-17 04:47 usr/share/gtk-doc/html/libdazzle/DzlCenteringBin.html
-rw-r--r-- root/root     16500 2023-10-17 04:47 usr/share/gtk-doc/html/libdazzle/DzlColumnLayout.html
-rw-r--r-- root/root      2940 2023-10-17 04:47 usr/share/gtk-doc/html/libdazzle/DzlDock.html
-rw-r--r-- root/root      9827 2023-10-17 04:47 usr/share/gtk-doc/html/libdazzle/DzlDockBin.html
-rw-r--r-- root/root      4400 2023-10-17 04:47 usr/share/gtk-doc/html/libdazzle/DzlDockBinEdge.html
-rw-r--r-- root/root     38408 2023-10-17 04:47 usr/share/gtk-doc/html/libdazzle/DzlDockItem.html
-rw-r--r-- root/root     10609 2023-10-17 04:47 usr/share/gtk-doc/html/libdazzle/DzlDockManager.html
-rw-r--r-- root/root      9736 2023-10-17 04:47 usr/share/gtk-doc/html/libdazzle/DzlDockOverlay.html
-rw-r--r-- root/root      4194 2023-10-17 04:47 usr/share/gtk-doc/html/libdazzle/DzlDockPaned.html
-rw-r--r-- root/root     24383 2023-10-17 04:47 usr/share/gtk-doc/html/libdazzle/DzlDockRevealer.html
-rw-r--r-- root/root      8862 2023-10-17 04:47 usr/share/gtk-doc/html/libdazzle/DzlDockStack.html
-rw-r--r-- root/root      6694 2023-10-17 04:47 usr/share/gtk-doc/html/libdazzle/DzlDockWidget.html
-rw-r--r-- root/root      4184 2023-10-17 04:47 usr/share/gtk-doc/html/libdazzle/DzlDockWindow.html
-rw-r--r-- root/root      6212 2023-10-17 04:47 usr/share/gtk-doc/html/libdazzle/DzlElasticBin.html
-rw-r--r-- root/root     15605 2023-10-17 04:47 usr/share/gtk-doc/html/libdazzle/DzlEmptyState.html
-rw-r--r-- root/root     18308 2023-10-17 04:47 usr/share/gtk-doc/html/libdazzle/DzlFileChooserEntry.html
-rw-r--r-- root/root      9220 2023-10-17 04:47 usr/share/gtk-doc/html/libdazzle/DzlGraphColumn.html
-rw-r--r-- root/root     26659 2023-10-17 04:47 usr/share/gtk-doc/html/libdazzle/DzlGraphModel.html
-rw-r--r-- root/root      7869 2023-10-17 04:47 usr/share/gtk-doc/html/libdazzle/DzlGraphRenderer.html
-rw-r--r-- root/root     10931 2023-10-17 04:47 usr/share/gtk-doc/html/libdazzle/DzlGraphView.html
-rw-r--r-- root/root     14453 2023-10-17 04:47 usr/share/gtk-doc/html/libdazzle/DzlListBox.html
-rw-r--r-- root/root      5552 2023-10-17 04:47 usr/share/gtk-doc/html/libdazzle/DzlListBoxRow.html
-rw-r--r-- root/root     16835 2023-10-17 04:47 usr/share/gtk-doc/html/libdazzle/DzlMultiPaned.html
-rw-r--r-- root/root      7369 2023-10-17 04:47 usr/share/gtk-doc/html/libdazzle/DzlPatternSpec.html
-rw-r--r-- root/root     38839 2023-10-17 04:47 usr/share/gtk-doc/html/libdazzle/DzlPreferences.html
-rw-r--r-- root/root     11567 2023-10-17 04:47 usr/share/gtk-doc/html/libdazzle/DzlPreferencesBin.html
-rw-r--r-- root/root     12924 2023-10-17 04:47 usr/share/gtk-doc/html/libdazzle/DzlPreferencesEntry.html
-rw-r--r-- root/root     13097 2023-10-17 04:47 usr/share/gtk-doc/html/libdazzle/DzlPreferencesView.html
-rw-r--r-- root/root      6362 2023-10-17 04:47 usr/share/gtk-doc/html/libdazzle/DzlPriorityBox.html
-rw-r--r-- root/root     12293 2023-10-17 04:47 usr/share/gtk-doc/html/libdazzle/DzlProgressButton.html
-rw-r--r-- root/root     19124 2023-10-17 04:47 usr/share/gtk-doc/html/libdazzle/DzlProgressMenuButton.html
-rw-r--r-- root/root     24033 2023-10-17 04:47 usr/share/gtk-doc/html/libdazzle/DzlPropertiesGroup.html
-rw-r--r-- root/root     13596 2023-10-17 04:47 usr/share/gtk-doc/html/libdazzle/DzlRadioBox.html
-rw-r--r-- root/root     15421 2023-10-17 04:47 usr/share/gtk-doc/html/libdazzle/DzlSearchBar.html
-rw-r--r-- root/root     39247 2023-10-17 04:47 usr/share/gtk-doc/html/libdazzle/DzlShortcutManager.html
-rw-r--r-- root/root     44740 2023-10-17 04:47 usr/share/gtk-doc/html/libdazzle/DzlShortcutTheme.html
-rw-r--r-- root/root     13730 2023-10-17 04:47 usr/share/gtk-doc/html/libdazzle/DzlShortcutThemeEditor.html
-rw-r--r-- root/root      8666 2023-10-17 04:47 usr/share/gtk-doc/html/libdazzle/DzlShortcutsGroup.html
-rw-r--r-- root/root     10549 2023-10-17 04:47 usr/share/gtk-doc/html/libdazzle/DzlShortcutsSection.html
-rw-r--r-- root/root     19790 2023-10-17 04:47 usr/share/gtk-doc/html/libdazzle/DzlShortcutsShortcut.html
-rw-r--r-- root/root     12842 2023-10-17 04:47 usr/share/gtk-doc/html/libdazzle/DzlShortcutsWindow.html
-rw-r--r-- root/root     27124 2023-10-17 04:47 usr/share/gtk-doc/html/libdazzle/DzlSimplePopover.html
-rw-r--r-- root/root      9506 2023-10-17 04:47 usr/share/gtk-doc/html/libdazzle/DzlSlider.html
-rw-r--r-- root/root     18092 2023-10-17 04:47 usr/share/gtk-doc/html/libdazzle/DzlStackList.html
-rw-r--r-- root/root     27017 2023-10-17 04:47 usr/share/gtk-doc/html/libdazzle/DzlStateMachine.html
-rw-r--r-- root/root     37237 2023-10-17 04:47 usr/share/gtk-doc/html/libdazzle/DzlSuggestion.html
-rw-r--r-- root/root     48290 2023-10-17 04:47 usr/share/gtk-doc/html/libdazzle/DzlSuggestionEntry.html
-rw-r--r-- root/root     15947 2023-10-17 04:47 usr/share/gtk-doc/html/libdazzle/DzlSuggestionEntryBuffer.html
-rw-r--r-- root/root     11843 2023-10-17 04:47 usr/share/gtk-doc/html/libdazzle/DzlSuggestionRow.html
-rw-r--r-- root/root     10158 2023-10-17 04:47 usr/share/gtk-doc/html/libdazzle/DzlTabStrip.html
-rw-r--r-- root/root      8435 2023-10-17 04:47 usr/share/gtk-doc/html/libdazzle/DzlThreeGrid.html
-rw-r--r-- root/root     36032 2023-10-17 04:47 usr/share/gtk-doc/html/libdazzle/DzlTree.html
-rw-r--r-- root/root      9338 2023-10-17 04:47 usr/share/gtk-doc/html/libdazzle/DzlTreeBuilder.html
-rw-r--r-- root/root     21805 2023-10-17 04:47 usr/share/gtk-doc/html/libdazzle/DzlTrie.html
-rw-r--r-- root/root      7230 2023-10-17 04:47 usr/share/gtk-doc/html/libdazzle/annotation-glossary.html
-rw-r--r-- root/root    392747 2023-10-17 04:47 usr/share/gtk-doc/html/libdazzle/api-index-full.html
-rw-r--r-- root/root      2005 2023-10-17 04:47 usr/share/gtk-doc/html/libdazzle/ch01.html
-rw-r--r-- root/root      2423 2023-10-17 04:47 usr/share/gtk-doc/html/libdazzle/ch02.html
-rw-r--r-- root/root      2443 2023-10-17 04:47 usr/share/gtk-doc/html/libdazzle/dazzle-actions.html
-rw-r--r-- root/root      2444 2023-10-17 04:47 usr/share/gtk-doc/html/libdazzle/dazzle-animation.html
-rw-r--r-- root/root      2731 2023-10-17 04:47 usr/share/gtk-doc/html/libdazzle/dazzle-application.html
-rw-r--r-- root/root      1921 2023-10-17 04:47 usr/share/gtk-doc/html/libdazzle/dazzle-caching.html
-rw-r--r-- root/root      2105 2023-10-17 04:47 usr/share/gtk-doc/html/libdazzle/dazzle-data-structures.html
-rw-r--r-- root/root      2073 2023-10-17 04:47 usr/share/gtk-doc/html/libdazzle/dazzle-directories.html
-rw-r--r-- root/root      2634 2023-10-17 04:47 usr/share/gtk-doc/html/libdazzle/dazzle-graphing.html
-rw-r--r-- root/root      2489 2023-10-17 04:47 usr/share/gtk-doc/html/libdazzle/dazzle-groups.html
-rw-r--r-- root/root      2238 2023-10-17 04:47 usr/share/gtk-doc/html/libdazzle/dazzle-listbox.html
-rw-r--r-- root/root      3534 2023-10-17 04:47 usr/share/gtk-doc/html/libdazzle/dazzle-other.html
-rw-r--r-- root/root      3715 2023-10-17 04:47 usr/share/gtk-doc/html/libdazzle/dazzle-panels.html
-rw-r--r-- root/root      2093 2023-10-17 04:47 usr/share/gtk-doc/html/libdazzle/dazzle-pathbar.html
-rw-r--r-- root/root      3391 2023-10-17 04:47 usr/share/gtk-doc/html/libdazzle/dazzle-prefs.html
-rw-r--r-- root/root      3151 2023-10-17 04:47 usr/share/gtk-doc/html/libdazzle/dazzle-search.html
-rw-r--r-- root/root      3991 2023-10-17 04:47 usr/share/gtk-doc/html/libdazzle/dazzle-shortcuts.html
-rw-r--r-- root/root      1875 2023-10-17 04:47 usr/share/gtk-doc/html/libdazzle/dazzle-states.html
-rw-r--r-- root/root      2804 2023-10-17 04:47 usr/share/gtk-doc/html/libdazzle/dazzle-suggestions.html
-rw-r--r-- root/root      2477 2023-10-17 04:47 usr/share/gtk-doc/html/libdazzle/dazzle-tree.html
-rw-r--r-- root/root      4924 2023-10-17 04:47 usr/share/gtk-doc/html/libdazzle/dazzle-widgets.html
-rw-r--r-- root/root       256 2023-10-17 04:47 usr/share/gtk-doc/html/libdazzle/home.png
-rw-r--r-- root/root     23298 2023-10-17 04:47 usr/share/gtk-doc/html/libdazzle/index.html
-rw-r--r-- root/root       395 2023-10-17 04:47 usr/share/gtk-doc/html/libdazzle/left-insensitive.png
-rw-r--r-- root/root       262 2023-10-17 04:47 usr/share/gtk-doc/html/libdazzle/left.png
-rw-r--r-- root/root     15093 2023-10-17 04:47 usr/share/gtk-doc/html/libdazzle/libdazzle-Cairo-Utilities.html
-rw-r--r-- root/root      5038 2023-10-17 04:47 usr/share/gtk-doc/html/libdazzle/libdazzle-Color-Utilities.html
-rw-r--r-- root/root      8442 2023-10-17 04:47 usr/share/gtk-doc/html/libdazzle/libdazzle-Date-and-Time-Functions.html
-rw-r--r-- root/root      5125 2023-10-17 04:47 usr/share/gtk-doc/html/libdazzle/libdazzle-Drag-and-Drop-Utilities.html
-rw-r--r-- root/root      7671 2023-10-17 04:47 usr/share/gtk-doc/html/libdazzle/libdazzle-DzlFrameSource.html
-rw-r--r-- root/root     23863 2023-10-17 04:47 usr/share/gtk-doc/html/libdazzle/libdazzle-DzlFuzzyMutableIndex-Matching.html
-rw-r--r-- root/root      3979 2023-10-17 04:47 usr/share/gtk-doc/html/libdazzle/libdazzle-Pango-Utilities.html
-rw-r--r-- root/root     27491 2023-10-17 04:47 usr/share/gtk-doc/html/libdazzle/libdazzle-dzl-animation.html
-rw-r--r-- root/root     27288 2023-10-17 04:47 usr/share/gtk-doc/html/libdazzle/libdazzle-dzl-binding-group.html
-rw-r--r-- root/root     11084 2023-10-17 04:47 usr/share/gtk-doc/html/libdazzle/libdazzle-dzl-bolding-label.html
-rw-r--r-- root/root     10516 2023-10-17 04:47 usr/share/gtk-doc/html/libdazzle/libdazzle-dzl-box-theatric.html
-rw-r--r-- root/root     11047 2023-10-17 04:47 usr/share/gtk-doc/html/libdazzle/libdazzle-dzl-child-property-action.html
-rw-r--r-- root/root      8311 2023-10-17 04:47 usr/share/gtk-doc/html/libdazzle/libdazzle-dzl-cpu-graph.html
-rw-r--r-- root/root      5112 2023-10-17 04:47 usr/share/gtk-doc/html/libdazzle/libdazzle-dzl-cpu-model.html
-rw-r--r-- root/root      7089 2023-10-17 04:47 usr/share/gtk-doc/html/libdazzle/libdazzle-dzl-css-provider.html
-rw-r--r-- root/root     13998 2023-10-17 04:47 usr/share/gtk-doc/html/libdazzle/libdazzle-dzl-directory-model.html
-rw-r--r-- root/root     15446 2023-10-17 04:47 usr/share/gtk-doc/html/libdazzle/libdazzle-dzl-directory-reaper.html
-rw-r--r-- root/root      6207 2023-10-17 04:47 usr/share/gtk-doc/html/libdazzle/libdazzle-dzl-dock-overlay-edge.html
-rw-r--r-- root/root     15861 2023-10-17 04:47 usr/share/gtk-doc/html/libdazzle/libdazzle-dzl-dock-transient-grab.html
-rw-r--r-- root/root     56331 2023-10-17 04:47 usr/share/gtk-doc/html/libdazzle/libdazzle-dzl-dock-types.html
-rw-r--r-- root/root      7239 2023-10-17 04:47 usr/share/gtk-doc/html/libdazzle/libdazzle-dzl-entry-box.html
-rw-r--r-- root/root      3565 2023-10-17 04:47 usr/share/gtk-doc/html/libdazzle/libdazzle-dzl-file-manager.html
-rw-r--r-- root/root     25114 2023-10-17 04:47 usr/share/gtk-doc/html/libdazzle/libdazzle-dzl-fuzzy-index-builder.html
-rw-r--r-- root/root     11649 2023-10-17 04:47 usr/share/gtk-doc/html/libdazzle/libdazzle-dzl-fuzzy-index-cursor.html
-rw-r--r-- root/root     11956 2023-10-17 04:47 usr/share/gtk-doc/html/libdazzle/libdazzle-dzl-fuzzy-index-match.html
-rw-r--r-- root/root     17008 2023-10-17 04:47 usr/share/gtk-doc/html/libdazzle/libdazzle-dzl-fuzzy-index.html
-rw-r--r-- root/root      5623 2023-10-17 04:47 usr/share/gtk-doc/html/libdazzle/libdazzle-dzl-gdk.html
-rw-r--r-- root/root     12509 2023-10-17 04:47 usr/share/gtk-doc/html/libdazzle/libdazzle-dzl-graph-line-renderer.html
-rw-r--r-- root/root     26012 2023-10-17 04:47 usr/share/gtk-doc/html/libdazzle/libdazzle-dzl-gtk.html
-rw-r--r-- root/root     12828 2023-10-17 04:47 usr/share/gtk-doc/html/libdazzle/libdazzle-dzl-heap.html
-rw-r--r-- root/root     10013 2023-10-17 04:47 usr/share/gtk-doc/html/libdazzle/libdazzle-dzl-int-pair.html
-rw-r--r-- root/root      3501 2023-10-17 04:47 usr/share/gtk-doc/html/libdazzle/libdazzle-dzl-levenshtein.html
-rw-r--r-- root/root     12969 2023-10-17 04:47 usr/share/gtk-doc/html/libdazzle/libdazzle-dzl-menu-manager.html
-rw-r--r-- root/root     13123 2023-10-17 04:47 usr/share/gtk-doc/html/libdazzle/libdazzle-dzl-path-bar.html
-rw-r--r-- root/root     17074 2023-10-17 04:47 usr/share/gtk-doc/html/libdazzle/libdazzle-dzl-path-element.html
-rw-r--r-- root/root     12134 2023-10-17 04:47 usr/share/gtk-doc/html/libdazzle/libdazzle-dzl-path.html
-rw-r--r-- root/root      8804 2023-10-17 04:47 usr/share/gtk-doc/html/libdazzle/libdazzle-dzl-pill-box.html
-rw-r--r-- root/root      9544 2023-10-17 04:47 usr/share/gtk-doc/html/libdazzle/libdazzle-dzl-preferences-file-chooser-button.html
-rw-r--r-- root/root      6468 2023-10-17 04:47 usr/share/gtk-doc/html/libdazzle/libdazzle-dzl-preferences-flow-box.html
-rw-r--r-- root/root      9245 2023-10-17 04:47 usr/share/gtk-doc/html/libdazzle/libdazzle-dzl-preferences-font-button.html
-rw-r--r-- root/root     15974 2023-10-17 04:47 usr/share/gtk-doc/html/libdazzle/libdazzle-dzl-preferences-group.html
-rw-r--r-- root/root     11278 2023-10-17 04:47 usr/share/gtk-doc/html/libdazzle/libdazzle-dzl-preferences-page.html
-rw-r--r-- root/root     11568 2023-10-17 04:47 usr/share/gtk-doc/html/libdazzle/libdazzle-dzl-preferences-spin-button.html
-rw-r--r-- root/root     11242 2023-10-17 04:47 usr/share/gtk-doc/html/libdazzle/libdazzle-dzl-preferences-switch.html
-rw-r--r-- root/root      8927 2023-10-17 04:47 usr/share/gtk-doc/html/libdazzle/libdazzle-dzl-progress-icon.html
-rw-r--r-- root/root     16336 2023-10-17 04:47 usr/share/gtk-doc/html/libdazzle/libdazzle-dzl-ring.html
-rw-r--r-- root/root      5223 2023-10-17 04:47 usr/share/gtk-doc/html/libdazzle/libdazzle-dzl-scrolled-window.html
-rw-r--r-- root/root      9487 2023-10-17 04:47 usr/share/gtk-doc/html/libdazzle/libdazzle-dzl-settings-flag-action.html
-rw-r--r-- root/root     30904 2023-10-17 04:47 usr/share/gtk-doc/html/libdazzle/libdazzle-dzl-settings-sandwich.html
-rw-r--r-- root/root     13578 2023-10-17 04:47 usr/share/gtk-doc/html/libdazzle/libdazzle-dzl-shortcut-accel-dialog.html
-rw-r--r-- root/root     28668 2023-10-17 04:47 usr/share/gtk-doc/html/libdazzle/libdazzle-dzl-shortcut-chord.html
-rw-r--r-- root/root     16115 2023-10-17 04:47 usr/share/gtk-doc/html/libdazzle/libdazzle-dzl-shortcut-closure-chain.html
-rw-r--r-- root/root     21196 2023-10-17 04:47 usr/share/gtk-doc/html/libdazzle/libdazzle-dzl-shortcut-context.html
-rw-r--r-- root/root     44778 2023-10-17 04:47 usr/share/gtk-doc/html/libdazzle/libdazzle-dzl-shortcut-controller.html
-rw-r--r-- root/root     13270 2023-10-17 04:47 usr/share/gtk-doc/html/libdazzle/libdazzle-dzl-shortcut-label.html
-rw-r--r-- root/root     16155 2023-10-17 04:47 usr/share/gtk-doc/html/libdazzle/libdazzle-dzl-shortcut-model.html
-rw-r--r-- root/root     39467 2023-10-17 04:47 usr/share/gtk-doc/html/libdazzle/libdazzle-dzl-signal-group.html
-rw-r--r-- root/root     13293 2023-10-17 04:47 usr/share/gtk-doc/html/libdazzle/libdazzle-dzl-simple-label.html
-rw-r--r-- root/root     25373 2023-10-17 04:47 usr/share/gtk-doc/html/libdazzle/libdazzle-dzl-suggestion-popover.html
-rw-r--r-- root/root     14300 2023-10-17 04:47 usr/share/gtk-doc/html/libdazzle/libdazzle-dzl-tab.html
-rw-r--r-- root/root     28682 2023-10-17 04:47 usr/share/gtk-doc/html/libdazzle/libdazzle-dzl-task-cache.html
-rw-r--r-- root/root     10175 2023-10-17 04:47 usr/share/gtk-doc/html/libdazzle/libdazzle-dzl-theme-manager.html
-rw-r--r-- root/root     64247 2023-10-17 04:47 usr/share/gtk-doc/html/libdazzle/libdazzle-dzl-tree-node.html
-rw-r--r-- root/root     49258 2023-10-17 04:47 usr/share/gtk-doc/html/libdazzle/libdazzle-dzl-tree-types.html
-rw-r--r-- root/root      3363 2023-10-17 04:47 usr/share/gtk-doc/html/libdazzle/libdazzle-dzl-variant.html
-rw-r--r-- root/root      8064 2023-10-17 04:47 usr/share/gtk-doc/html/libdazzle/libdazzle-dzl-version.html
-rw-r--r-- root/root     11003 2023-10-17 04:47 usr/share/gtk-doc/html/libdazzle/libdazzle-dzl-widget-action-group.html
-rw-r--r-- root/root    187283 2023-10-17 04:47 usr/share/gtk-doc/html/libdazzle/libdazzle.devhelp2
-rw-r--r-- root/root     34857 2023-10-17 04:47 usr/share/gtk-doc/html/libdazzle/object-tree.html
-rw-r--r-- root/root       373 2023-10-17 04:47 usr/share/gtk-doc/html/libdazzle/right-insensitive.png
-rw-r--r-- root/root       261 2023-10-17 04:47 usr/share/gtk-doc/html/libdazzle/right.png
-rw-r--r-- root/root     12017 2023-10-17 04:47 usr/share/gtk-doc/html/libdazzle/style.css
-rw-r--r-- root/root       374 2023-10-17 04:47 usr/share/gtk-doc/html/libdazzle/up-insensitive.png
-rw-r--r-- root/root       260 2023-10-17 04:47 usr/share/gtk-doc/html/libdazzle/up.png
drwxr-xr-x root/root         0 2023-10-17 04:47 usr/share/locale/
drwxr-xr-x root/root         0 2023-10-17 04:47 usr/share/locale/de/
drwxr-xr-x root/root         0 2023-10-17 04:47 usr/share/locale/de/LC_MESSAGES/
-rw-r--r-- root/root      4406 2023-10-17 04:46 usr/share/locale/de/LC_MESSAGES/libdazzle-1.0.mo
drwxr-xr-x root/root         0 2023-10-17 04:47 usr/share/locale/es/
drwxr-xr-x root/root         0 2023-10-17 04:47 usr/share/locale/es/LC_MESSAGES/
-rw-r--r-- root/root      4296 2023-10-17 04:46 usr/share/locale/es/LC_MESSAGES/libdazzle-1.0.mo
drwxr-xr-x root/root         0 2023-10-17 04:47 usr/share/locale/eu/
drwxr-xr-x root/root         0 2023-10-17 04:47 usr/share/locale/eu/LC_MESSAGES/
-rw-r--r-- root/root      2860 2023-10-17 04:46 usr/share/locale/eu/LC_MESSAGES/libdazzle-1.0.mo
drwxr-xr-x root/root         0 2023-10-17 04:47 usr/share/locale/pl/
drwxr-xr-x root/root         0 2023-10-17 04:47 usr/share/locale/pl/LC_MESSAGES/
-rw-r--r-- root/root      4389 2023-10-17 04:46 usr/share/locale/pl/LC_MESSAGES/libdazzle-1.0.mo
drwxr-xr-x root/root         0 2023-10-17 04:47 usr/share/locale/sv/
drwxr-xr-x root/root         0 2023-10-17 04:47 usr/share/locale/sv/LC_MESSAGES/
-rw-r--r-- root/root      4185 2023-10-17 04:46 usr/share/locale/sv/LC_MESSAGES/libdazzle-1.0.mo
drwxr-xr-x root/root         0 2023-10-17 04:47 usr/share/locale/uk/
drwxr-xr-x root/root         0 2023-10-17 04:47 usr/share/locale/uk/LC_MESSAGES/
-rw-r--r-- root/root      5507 2023-10-17 04:46 usr/share/locale/uk/LC_MESSAGES/libdazzle-1.0.mo
drwxr-xr-x root/root         0 2023-10-17 04:47 usr/share/locale/zh_CN/
drwxr-xr-x root/root         0 2023-10-17 04:47 usr/share/locale/zh_CN/LC_MESSAGES/
-rw-r--r-- root/root      3721 2023-10-17 04:46 usr/share/locale/zh_CN/LC_MESSAGES/libdazzle-1.0.mo
drwxr-xr-x root/root         0 2023-10-17 04:47 usr/share/vala/
drwxr-xr-x root/root         0 2023-10-17 04:47 usr/share/vala/vapi/
-rw-r--r-- root/root        17 2023-10-17 04:46 usr/share/vala/vapi/libdazzle-1.0.deps
-rw-r--r-- root/root     98746 2023-10-17 04:47 usr/share/vala/vapi/libdazzle-1.0.vapi


