++========================================
||
||   Package:  ./liblouis-3.22.0-x86_64-1_snuk.txz
||
++========================================
drwxr-xr-x root/root         0 2023-10-17 04:54 ./
drwxr-xr-x root/root         0 2023-10-17 04:54 install/
-rw-r--r-- root/root       198 2023-10-17 04:54 install/doinst.sh
-rw-r--r-- root/root       744 2023-10-17 04:54 install/slack-desc
drwxr-xr-x root/root         0 2023-10-17 04:54 usr/
drwxr-xr-x root/root         0 2023-10-17 04:54 usr/bin/
-rwxr-xr-x root/root     22888 2023-10-17 04:54 usr/bin/lou_allround
-rwxr-xr-x root/root     14592 2023-10-17 04:54 usr/bin/lou_checkhyphens
-rwxr-xr-x root/root     14560 2023-10-17 04:54 usr/bin/lou_checktable
-rwxr-xr-x root/root     47824 2023-10-17 04:54 usr/bin/lou_checkyaml
-rwxr-xr-x root/root     26976 2023-10-17 04:54 usr/bin/lou_debug
-rwxr-xr-x root/root      5514 2023-10-17 04:54 usr/bin/lou_maketable
drwxr-xr-x root/root         0 2023-10-17 04:54 usr/bin/lou_maketable.d/
-rwxr-xr-x root/root      2918 2023-10-17 04:54 usr/bin/lou_maketable.d/export_chunked_words.py
-rwxr-xr-x root/root      1734 2023-10-17 04:54 usr/bin/lou_maketable.d/generate_alphabet.py
-rwxr-xr-x root/root      5243 2023-10-17 04:54 usr/bin/lou_maketable.d/lou_maketable.mk
-rwxr-xr-x root/root      4835 2023-10-17 04:54 usr/bin/lou_maketable.d/make_suggestions.py
-rwxr-xr-x root/root      3167 2023-10-17 04:54 usr/bin/lou_maketable.d/submit_rows.py
-rwxr-xr-x root/root      1423 2023-10-17 04:54 usr/bin/lou_maketable.d/submit_rows.sh
-rwxr-xr-x root/root      3785 2023-10-17 04:54 usr/bin/lou_maketable.d/submit_rules.py
-rwxr-xr-x root/root      1645 2023-10-17 04:54 usr/bin/lou_maketable.d/submit_rules.sh
-rwxr-xr-x root/root      5039 2023-10-17 04:54 usr/bin/lou_maketable.d/substrings.pl
-rwxr-xr-x root/root      8217 2023-10-17 04:54 usr/bin/lou_maketable.d/utils.py
-rwxr-xr-x root/root      1441 2023-10-17 04:54 usr/bin/lou_maketable.d/wrap_patgen.sh
-rwxr-xr-x root/root     14560 2023-10-17 04:54 usr/bin/lou_tableinfo
-rwxr-xr-x root/root     18712 2023-10-17 04:54 usr/bin/lou_trace
-rwxr-xr-x root/root     14544 2023-10-17 04:54 usr/bin/lou_translate
drwxr-xr-x root/root         0 2023-10-17 04:54 usr/doc/
drwxr-xr-x root/root         0 2023-10-17 04:54 usr/doc/-3.22.0/
-rw-r--r-- root/root    233953 2023-10-17 04:54 usr/doc/-3.22.0/liblouis.html
-rw-r--r-- root/root    162809 2023-10-17 04:54 usr/doc/-3.22.0/liblouis.txt
drwxr-xr-x root/root         0 2023-10-17 04:54 usr/doc/liblouis-3.22.0/
-rw-r--r-- root/root      8874 2022-06-02 13:23 usr/doc/liblouis-3.22.0/AUTHORS
-rw-r--r-- root/root     35147 2016-09-14 09:07 usr/doc/liblouis-3.22.0/COPYING
-rw-r--r-- root/root     26530 2017-12-13 15:18 usr/doc/liblouis-3.22.0/COPYING.LESSER
-rw-r--r-- root/root     51791 2020-02-21 16:00 usr/doc/liblouis-3.22.0/ChangeLog
-rw-r--r-- root/root     15475 2022-03-01 16:23 usr/doc/liblouis-3.22.0/HACKING
-rw-r--r-- root/root    123134 2022-06-07 09:43 usr/doc/liblouis-3.22.0/NEWS
-rw-r--r-- root/root      4927 2022-05-10 09:55 usr/doc/liblouis-3.22.0/README
-rw-r--r-- root/root      2668 2017-11-15 16:16 usr/doc/liblouis-3.22.0/TODO
-rw-r--r-- root/root      3911 2023-10-17 04:54 usr/doc/liblouis-3.22.0/liblouis.SlackBuild
drwxr-xr-x root/root         0 2023-10-17 04:54 usr/include/
drwxr-xr-x root/root         0 2023-10-17 04:54 usr/include/liblouis/
-rw-r--r-- root/root     12164 2023-10-17 04:54 usr/include/liblouis/liblouis.h
drwxr-xr-x root/root         0 2023-10-17 04:54 usr/lib64/
-rwxr-xr-x root/root    187336 2023-10-17 04:54 usr/lib64/liblouis.so.20.0.10
drwxr-xr-x root/root         0 2023-10-17 04:54 usr/lib64/pkgconfig/
-rw-r--r-- root/root       279 2023-10-17 04:54 usr/lib64/pkgconfig/liblouis.pc
drwxr-xr-x root/root         0 2023-10-17 04:54 usr/lib64/python2.7/
drwxr-xr-x root/root         0 2023-10-17 04:54 usr/lib64/python2.7/site-packages/
drwxr-xr-x root/root         0 2023-10-17 04:54 usr/lib64/python2.7/site-packages/louis/
-rw-r--r-- root/root       527 2023-10-17 04:54 usr/lib64/python2.7/site-packages/louis-3.22.0-py2.7.egg-info
-rw-r--r-- root/root     20971 2023-10-17 04:54 usr/lib64/python2.7/site-packages/louis/__init__.py
-rw-r--r-- root/root     18311 2023-10-17 04:54 usr/lib64/python2.7/site-packages/louis/__init__.pyc
-rw-r--r-- root/root     18311 2023-10-17 04:54 usr/lib64/python2.7/site-packages/louis/__init__.pyo
drwxr-xr-x root/root         0 2023-10-17 04:54 usr/lib64/python3.9/
drwxr-xr-x root/root         0 2023-10-17 04:54 usr/lib64/python3.9/site-packages/
drwxr-xr-x root/root         0 2023-10-17 04:54 usr/lib64/python3.9/site-packages/louis/
-rw-r--r-- root/root       527 2023-10-17 04:54 usr/lib64/python3.9/site-packages/louis-3.22.0-py3.9.egg-info
-rw-r--r-- root/root     20971 2023-10-17 04:54 usr/lib64/python3.9/site-packages/louis/__init__.py
drwxr-xr-x root/root         0 2023-10-17 04:54 usr/lib64/python3.9/site-packages/louis/__pycache__/
-rw-r--r-- root/root     16168 2023-10-17 04:54 usr/lib64/python3.9/site-packages/louis/__pycache__/__init__.cpython-39.opt-1.pyc
-rw-r--r-- root/root     16168 2023-10-17 04:54 usr/lib64/python3.9/site-packages/louis/__pycache__/__init__.cpython-39.pyc
drwxr-xr-x root/root         0 2023-10-17 04:54 usr/man/
drwxr-xr-x root/root         0 2023-10-17 04:54 usr/man/man1/
-rw-r--r-- root/root       737 2023-10-17 04:54 usr/man/man1/lou_allround.1.gz
-rw-r--r-- root/root       762 2023-10-17 04:54 usr/man/man1/lou_checkhyphens.1.gz
-rw-r--r-- root/root       852 2023-10-17 04:54 usr/man/man1/lou_checktable.1.gz
-rw-r--r-- root/root       822 2023-10-17 04:54 usr/man/man1/lou_checkyaml.1.gz
-rw-r--r-- root/root       877 2023-10-17 04:54 usr/man/man1/lou_debug.1.gz
-rw-r--r-- root/root       783 2023-10-17 04:54 usr/man/man1/lou_tableinfo.1.gz
-rw-r--r-- root/root      1005 2023-10-17 04:54 usr/man/man1/lou_trace.1.gz
-rw-r--r-- root/root      1033 2023-10-17 04:54 usr/man/man1/lou_translate.1.gz
drwxr-xr-x root/root         0 2023-10-17 04:54 usr/share/
drwxr-xr-x root/root         0 2023-10-17 04:54 usr/share/info/
-rw-r--r-- root/root       406 2023-10-17 04:54 usr/share/info/dir.gz
-rw-r--r-- root/root     46269 2023-10-17 04:54 usr/share/info/liblouis.info.gz
drwxr-xr-x root/root         0 2023-10-17 04:54 usr/share/liblouis/
drwxr-xr-x root/root         0 2023-10-17 04:54 usr/share/liblouis/tables/
-rw-r--r-- root/root      8232 2023-10-17 04:54 usr/share/liblouis/tables/Es-Es-G0.utb
-rw-r--r-- root/root     13188 2023-10-17 04:54 usr/share/liblouis/tables/IPA-unicode-range.uti
-rw-r--r-- root/root      7300 2023-10-17 04:54 usr/share/liblouis/tables/IPA.utb
-rw-r--r-- root/root     20684 2023-10-17 04:54 usr/share/liblouis/tables/Lv-Lv-g1.utb
-rw-r--r-- root/root     10370 2023-10-17 04:54 usr/share/liblouis/tables/Pl-Pl-g1.utb
-rw-r--r-- root/root      5041 2023-10-17 04:54 usr/share/liblouis/tables/Se-Se-g1.utb
-rw-r--r-- root/root      2658 2023-10-17 04:54 usr/share/liblouis/tables/afr-za-g1.ctb
-rw-r--r-- root/root     30135 2023-10-17 04:54 usr/share/liblouis/tables/afr-za-g2.ctb
-rw-r--r-- root/root      9216 2023-10-17 04:54 usr/share/liblouis/tables/ar-ar-comp8.utb
-rw-r--r-- root/root     10492 2023-10-17 04:54 usr/share/liblouis/tables/ar-ar-g1-core.uti
-rw-r--r-- root/root      1210 2023-10-17 04:54 usr/share/liblouis/tables/ar-ar-g1.utb
-rw-r--r-- root/root     11799 2023-10-17 04:54 usr/share/liblouis/tables/ar-ar-g2.ctb
-rw-r--r-- root/root     20865 2023-10-17 04:54 usr/share/liblouis/tables/ar-ar-math.uti
-rw-r--r-- root/root       512 2023-10-17 04:54 usr/share/liblouis/tables/ar.tbl
-rw-r--r-- root/root      1216 2023-10-17 04:54 usr/share/liblouis/tables/as-in-g1.utb
-rw-r--r-- root/root       566 2023-10-17 04:54 usr/share/liblouis/tables/as.tbl
-rw-r--r-- root/root      1216 2023-10-17 04:54 usr/share/liblouis/tables/aw-in-g1.utb
-rw-r--r-- root/root       563 2023-10-17 04:54 usr/share/liblouis/tables/awa.tbl
-rw-r--r-- root/root      2465 2023-10-17 04:54 usr/share/liblouis/tables/ba.utb
-rw-r--r-- root/root      1215 2023-10-17 04:54 usr/share/liblouis/tables/be-in-g1.utb
-rw-r--r-- root/root      1533 2023-10-17 04:54 usr/share/liblouis/tables/bel-comp.utb
-rw-r--r-- root/root      1564 2023-10-17 04:54 usr/share/liblouis/tables/bel.utb
-rw-r--r-- root/root     10337 2023-10-17 04:54 usr/share/liblouis/tables/bengali.cti
-rw-r--r-- root/root      6820 2023-10-17 04:54 usr/share/liblouis/tables/bg.ctb
-rw-r--r-- root/root      1749 2023-10-17 04:54 usr/share/liblouis/tables/bg.dis
-rw-r--r-- root/root       686 2023-10-17 04:54 usr/share/liblouis/tables/bg.tbl
-rw-r--r-- root/root     11461 2023-10-17 04:54 usr/share/liblouis/tables/bg.utb
-rw-r--r-- root/root       926 2023-10-17 04:54 usr/share/liblouis/tables/bh.ctb
-rw-r--r-- root/root       546 2023-10-17 04:54 usr/share/liblouis/tables/bh.tbl
-rw-r--r-- root/root       564 2023-10-17 04:54 usr/share/liblouis/tables/bn.tbl
-rw-r--r-- root/root      7248 2023-10-17 04:54 usr/share/liblouis/tables/bo.ctb
-rw-r--r-- root/root       682 2023-10-17 04:54 usr/share/liblouis/tables/bo.tbl
-rw-r--r-- root/root     10305 2023-10-17 04:54 usr/share/liblouis/tables/boxes.ctb
-rw-r--r-- root/root      1214 2023-10-17 04:54 usr/share/liblouis/tables/br-in-g1.utb
-rw-r--r-- root/root       559 2023-10-17 04:54 usr/share/liblouis/tables/bra.tbl
-rw-r--r-- root/root     26431 2023-10-17 04:54 usr/share/liblouis/tables/braille-patterns.cti
-rw-r--r-- root/root     16118 2023-10-17 04:54 usr/share/liblouis/tables/ca-chardefs.cti
-rw-r--r-- root/root      1758 2023-10-17 04:54 usr/share/liblouis/tables/ca-g1.ctb
-rw-r--r-- root/root       561 2023-10-17 04:54 usr/share/liblouis/tables/ca.tbl
-rw-r--r-- root/root      5562 2023-10-17 04:54 usr/share/liblouis/tables/chr-us-g1.ctb
-rw-r--r-- root/root      8563 2023-10-17 04:54 usr/share/liblouis/tables/ckb-chardefs.cti
-rw-r--r-- root/root      1210 2023-10-17 04:54 usr/share/liblouis/tables/ckb-g1.ctb
-rw-r--r-- root/root      3541 2023-10-17 04:54 usr/share/liblouis/tables/ckb-translation.cti
-rw-r--r-- root/root       563 2023-10-17 04:54 usr/share/liblouis/tables/ckb.tbl
-rw-r--r-- root/root      1419 2023-10-17 04:54 usr/share/liblouis/tables/compress.cti
-rw-r--r-- root/root      1045 2023-10-17 04:54 usr/share/liblouis/tables/controlchars.cti
-rw-r--r-- root/root      8685 2023-10-17 04:54 usr/share/liblouis/tables/cop-eg-comp8.utb
-rw-r--r-- root/root      1492 2023-10-17 04:54 usr/share/liblouis/tables/corrections.cti
-rw-r--r-- root/root      6703 2023-10-17 04:54 usr/share/liblouis/tables/countries.cti
-rw-r--r-- root/root     24259 2023-10-17 04:54 usr/share/liblouis/tables/cs-chardefs.cti
-rw-r--r-- root/root     13503 2023-10-17 04:54 usr/share/liblouis/tables/cs-comp8.utb
-rw-r--r-- root/root      1354 2023-10-17 04:54 usr/share/liblouis/tables/cs-g1.ctb
-rw-r--r-- root/root      2527 2023-10-17 04:54 usr/share/liblouis/tables/cs-translation.cti
-rw-r--r-- root/root       632 2023-10-17 04:54 usr/share/liblouis/tables/cs.tbl
-rw-r--r-- root/root     13797 2023-10-17 04:54 usr/share/liblouis/tables/cy-cy-g1.utb
-rw-r--r-- root/root      4305 2023-10-17 04:54 usr/share/liblouis/tables/cy-cy-g2.ctb
-rw-r--r-- root/root       602 2023-10-17 04:54 usr/share/liblouis/tables/cy.tbl
-rw-r--r-- root/root     20626 2023-10-17 04:54 usr/share/liblouis/tables/da-dk-6miscChars.cti
-rw-r--r-- root/root      3880 2023-10-17 04:54 usr/share/liblouis/tables/da-dk-8miscChars.cti
-rw-r--r-- root/root     13527 2023-10-17 04:54 usr/share/liblouis/tables/da-dk-g08.ctb
-rw-r--r-- root/root      9406 2023-10-17 04:54 usr/share/liblouis/tables/da-dk-g16-lit.ctb
-rw-r--r-- root/root      8096 2023-10-17 04:54 usr/share/liblouis/tables/da-dk-g16.ctb
-rw-r--r-- root/root     25210 2023-10-17 04:54 usr/share/liblouis/tables/da-dk-g18.ctb
-rw-r--r-- root/root     21816 2023-10-17 04:54 usr/share/liblouis/tables/da-dk-g26-lit.ctb
-rw-r--r-- root/root     29298 2023-10-17 04:54 usr/share/liblouis/tables/da-dk-g26.ctb
-rw-r--r-- root/root     16070 2023-10-17 04:54 usr/share/liblouis/tables/da-dk-g26l-lit.ctb
-rw-r--r-- root/root     15148 2023-10-17 04:54 usr/share/liblouis/tables/da-dk-g26l.ctb
-rw-r--r-- root/root     62073 2023-10-17 04:54 usr/share/liblouis/tables/da-dk-g28.ctb
-rw-r--r-- root/root     50330 2023-10-17 04:54 usr/share/liblouis/tables/da-dk-g28l.ctb
-rw-r--r-- root/root     13225 2023-10-17 04:54 usr/share/liblouis/tables/da-dk-octobraille.dis
-rw-r--r-- root/root     17422 2023-10-17 04:54 usr/share/liblouis/tables/de-accents-detailed.cti
-rw-r--r-- root/root     17339 2023-10-17 04:54 usr/share/liblouis/tables/de-accents.cti
-rw-r--r-- root/root     16907 2023-10-17 04:54 usr/share/liblouis/tables/de-chardefs6.cti
-rw-r--r-- root/root     19998 2023-10-17 04:54 usr/share/liblouis/tables/de-chardefs8.cti
-rw-r--r-- root/root      1489 2023-10-17 04:54 usr/share/liblouis/tables/de-chess.ctb
-rw-r--r-- root/root     15147 2023-10-17 04:54 usr/share/liblouis/tables/de-comp6.utb
-rw-r--r-- root/root      9333 2023-10-17 04:54 usr/share/liblouis/tables/de-de-comp8.ctb
-rw-r--r-- root/root     14601 2023-10-17 04:54 usr/share/liblouis/tables/de-de.dis
-rw-r--r-- root/root      2264 2023-10-17 04:54 usr/share/liblouis/tables/de-eurobrl6.dis
-rw-r--r-- root/root      2091 2023-10-17 04:54 usr/share/liblouis/tables/de-eurobrl6u.dis
-rw-r--r-- root/root     26880 2023-10-17 04:54 usr/share/liblouis/tables/de-g0-core.uti
-rw-r--r-- root/root      3033 2023-10-17 04:54 usr/share/liblouis/tables/de-g0-detailed.utb
-rw-r--r-- root/root      1848 2023-10-17 04:54 usr/share/liblouis/tables/de-g0.utb
-rw-r--r-- root/root     36095 2023-10-17 04:54 usr/share/liblouis/tables/de-g1-core-patterns.dic
-rw-r--r-- root/root      2747 2023-10-17 04:54 usr/share/liblouis/tables/de-g1-core.cti
-rw-r--r-- root/root      2844 2023-10-17 04:54 usr/share/liblouis/tables/de-g1-detailed.ctb
-rw-r--r-- root/root      1788 2023-10-17 04:54 usr/share/liblouis/tables/de-g1.ctb
-rw-r--r-- root/root    192568 2023-10-17 04:54 usr/share/liblouis/tables/de-g2-core-patterns.dic
-rw-r--r-- root/root     34300 2023-10-17 04:54 usr/share/liblouis/tables/de-g2-core.cti
-rw-r--r-- root/root      2274 2023-10-17 04:54 usr/share/liblouis/tables/de-g2-detailed.ctb
-rw-r--r-- root/root      1866 2023-10-17 04:54 usr/share/liblouis/tables/de-g2.ctb
-rw-r--r-- root/root      9307 2023-10-17 04:54 usr/share/liblouis/tables/devanagari.cti
-rw-r--r-- root/root       918 2023-10-17 04:54 usr/share/liblouis/tables/digits6Dots.uti
-rw-r--r-- root/root      1065 2023-10-17 04:54 usr/share/liblouis/tables/digits6DotsPlusDot6.uti
-rw-r--r-- root/root       928 2023-10-17 04:54 usr/share/liblouis/tables/digits8Dots.uti
-rw-r--r-- root/root       905 2023-10-17 04:54 usr/share/liblouis/tables/dra.ctb
-rw-r--r-- root/root       688 2023-10-17 04:54 usr/share/liblouis/tables/dra.tbl
-rw-r--r-- root/root     30803 2023-10-17 04:54 usr/share/liblouis/tables/el.ctb
-rw-r--r-- root/root     19654 2023-10-17 04:54 usr/share/liblouis/tables/en-GB-g2.ctb
-rw-r--r-- root/root      8310 2023-10-17 04:54 usr/share/liblouis/tables/en-chardefs.cti
-rw-r--r-- root/root      1498 2023-10-17 04:54 usr/share/liblouis/tables/en-chess.ctb
-rw-r--r-- root/root      2282 2023-10-17 04:54 usr/share/liblouis/tables/en-gb-comp8.ctb
-rw-r--r-- root/root     14246 2023-10-17 04:54 usr/share/liblouis/tables/en-gb-g1.utb
-rw-r--r-- root/root      3425 2023-10-17 04:54 usr/share/liblouis/tables/en-in-g1.ctb
-rw-r--r-- root/root      7265 2023-10-17 04:54 usr/share/liblouis/tables/en-nabcc.utb
-rw-r--r-- root/root     27644 2023-10-17 04:54 usr/share/liblouis/tables/en-ueb-chardefs.uti
-rw-r--r-- root/root      5016 2023-10-17 04:54 usr/share/liblouis/tables/en-ueb-g1.ctb
-rw-r--r-- root/root    191768 2023-10-17 04:54 usr/share/liblouis/tables/en-ueb-g2.ctb
-rw-r--r-- root/root      2045 2023-10-17 04:54 usr/share/liblouis/tables/en-ueb-math.ctb
-rw-r--r-- root/root      2438 2023-10-17 04:54 usr/share/liblouis/tables/en-us-brf.dis
-rw-r--r-- root/root      4935 2023-10-17 04:54 usr/share/liblouis/tables/en-us-comp6.ctb
-rw-r--r-- root/root     26122 2023-10-17 04:54 usr/share/liblouis/tables/en-us-comp8-ext.utb
-rw-r--r-- root/root      1632 2023-10-17 04:54 usr/share/liblouis/tables/en-us-comp8.ctb
-rw-r--r-- root/root      2167 2023-10-17 04:54 usr/share/liblouis/tables/en-us-compbrl.uti
-rw-r--r-- root/root      1442 2023-10-17 04:54 usr/share/liblouis/tables/en-us-emphasis.uti
-rw-r--r-- root/root      4307 2023-10-17 04:54 usr/share/liblouis/tables/en-us-g1.ctb
-rw-r--r-- root/root     27930 2023-10-17 04:54 usr/share/liblouis/tables/en-us-g2.ctb
-rw-r--r-- root/root     27976 2023-10-17 04:54 usr/share/liblouis/tables/en-us-interline.ctb
-rw-r--r-- root/root     20448 2023-10-17 04:54 usr/share/liblouis/tables/en-us-mathtext.ctb
-rw-r--r-- root/root      8104 2023-10-17 04:54 usr/share/liblouis/tables/en_CA.ctb
-rw-r--r-- root/root       725 2023-10-17 04:54 usr/share/liblouis/tables/en_CA.tbl
-rw-r--r-- root/root       835 2023-10-17 04:54 usr/share/liblouis/tables/en_GB.tbl
-rw-r--r-- root/root       389 2023-10-17 04:54 usr/share/liblouis/tables/en_US-comp8-ext.tbl
-rw-r--r-- root/root       839 2023-10-17 04:54 usr/share/liblouis/tables/en_US.tbl
-rw-r--r-- root/root      2961 2023-10-17 04:54 usr/share/liblouis/tables/eo-g1-x-system.ctb
-rw-r--r-- root/root      2886 2023-10-17 04:54 usr/share/liblouis/tables/eo-g1.ctb
-rw-r--r-- root/root       669 2023-10-17 04:54 usr/share/liblouis/tables/eo.tbl
-rw-r--r-- root/root     14596 2023-10-17 04:54 usr/share/liblouis/tables/es-chardefs.cti
-rw-r--r-- root/root      1237 2023-10-17 04:54 usr/share/liblouis/tables/es-g1.ctb
-rw-r--r-- root/root     25676 2023-10-17 04:54 usr/share/liblouis/tables/es-g2.ctb
-rw-r--r-- root/root      7611 2023-10-17 04:54 usr/share/liblouis/tables/es-new.dis
-rw-r--r-- root/root      7605 2023-10-17 04:54 usr/share/liblouis/tables/es-old.dis
-rw-r--r-- root/root       605 2023-10-17 04:54 usr/share/liblouis/tables/es.tbl
-rw-r--r-- root/root      5036 2023-10-17 04:54 usr/share/liblouis/tables/et-g0.utb
-rw-r--r-- root/root      4105 2023-10-17 04:54 usr/share/liblouis/tables/et.ctb
-rw-r--r-- root/root       684 2023-10-17 04:54 usr/share/liblouis/tables/et.tbl
-rw-r--r-- root/root      7772 2023-10-17 04:54 usr/share/liblouis/tables/ethio-g1.ctb
-rw-r--r-- root/root      3046 2023-10-17 04:54 usr/share/liblouis/tables/eurodefs.cti
-rw-r--r-- root/root      5672 2023-10-17 04:54 usr/share/liblouis/tables/fa-ir-comp8.ctb
-rw-r--r-- root/root      6171 2023-10-17 04:54 usr/share/liblouis/tables/fa-ir-g1.utb
-rw-r--r-- root/root      8541 2023-10-17 04:54 usr/share/liblouis/tables/fi-fi-8dot.ctb
-rw-r--r-- root/root      8902 2023-10-17 04:54 usr/share/liblouis/tables/fi.utb
-rw-r--r-- root/root     18566 2023-10-17 04:54 usr/share/liblouis/tables/fr-bfu-comp6.utb
-rw-r--r-- root/root     10685 2023-10-17 04:54 usr/share/liblouis/tables/fr-bfu-comp68.cti
-rw-r--r-- root/root     16459 2023-10-17 04:54 usr/share/liblouis/tables/fr-bfu-comp8.utb
-rw-r--r-- root/root    144390 2023-10-17 04:54 usr/share/liblouis/tables/fr-bfu-g2.ctb
-rw-r--r-- root/root      3263 2023-10-17 04:54 usr/share/liblouis/tables/ga-g1.utb
-rw-r--r-- root/root      4786 2023-10-17 04:54 usr/share/liblouis/tables/ga-g2.ctb
-rw-r--r-- root/root      5289 2023-10-17 04:54 usr/share/liblouis/tables/gd.ctb
-rw-r--r-- root/root       698 2023-10-17 04:54 usr/share/liblouis/tables/gd.tbl
-rw-r--r-- root/root       677 2023-10-17 04:54 usr/share/liblouis/tables/gez.tbl
-rw-r--r-- root/root       944 2023-10-17 04:54 usr/share/liblouis/tables/gon.ctb
-rw-r--r-- root/root       546 2023-10-17 04:54 usr/share/liblouis/tables/gon.tbl
-rw-r--r-- root/root     15490 2023-10-17 04:54 usr/share/liblouis/tables/gr-pl-comp8.uti
-rw-r--r-- root/root      3473 2023-10-17 04:54 usr/share/liblouis/tables/grc-international-common.uti
-rw-r--r-- root/root     16304 2023-10-17 04:54 usr/share/liblouis/tables/grc-international-composed.uti
-rw-r--r-- root/root     16446 2023-10-17 04:54 usr/share/liblouis/tables/grc-international-decomposed.uti
-rw-r--r-- root/root      4722 2023-10-17 04:54 usr/share/liblouis/tables/grc-international-en.utb
-rw-r--r-- root/root      1217 2023-10-17 04:54 usr/share/liblouis/tables/gu-in-g1.utb
-rw-r--r-- root/root       566 2023-10-17 04:54 usr/share/liblouis/tables/gu.tbl
-rw-r--r-- root/root      9603 2023-10-17 04:54 usr/share/liblouis/tables/gujarati.cti
-rw-r--r-- root/root     17955 2023-10-17 04:54 usr/share/liblouis/tables/gurumuki.cti
-rw-r--r-- root/root      1583 2023-10-17 04:54 usr/share/liblouis/tables/haw-us-g1.ctb
-rw-r--r-- root/root     19302 2023-10-17 04:54 usr/share/liblouis/tables/he-IL-comp8.utb
-rw-r--r-- root/root     10789 2023-10-17 04:54 usr/share/liblouis/tables/he-IL.utb
-rw-r--r-- root/root      1216 2023-10-17 04:54 usr/share/liblouis/tables/hi-in-g1.utb
-rw-r--r-- root/root       560 2023-10-17 04:54 usr/share/liblouis/tables/hi.tbl
-rw-r--r-- root/root     16521 2023-10-17 04:54 usr/share/liblouis/tables/hr-chardefs.cti
-rw-r--r-- root/root       690 2023-10-17 04:54 usr/share/liblouis/tables/hr-comp8.tbl
-rw-r--r-- root/root     10517 2023-10-17 04:54 usr/share/liblouis/tables/hr-comp8.utb
-rw-r--r-- root/root      1443 2023-10-17 04:54 usr/share/liblouis/tables/hr-digits.uti
-rw-r--r-- root/root      1510 2023-10-17 04:54 usr/share/liblouis/tables/hr-g1.ctb
-rw-r--r-- root/root       148 2023-10-17 04:54 usr/share/liblouis/tables/hr-g1.tbl
-rw-r--r-- root/root      8470 2023-10-17 04:54 usr/share/liblouis/tables/hr-translation.cti
-rw-r--r-- root/root      1355 2023-10-17 04:54 usr/share/liblouis/tables/hu-backtranslate-correction.dis
-rw-r--r-- root/root     54443 2023-10-17 04:54 usr/share/liblouis/tables/hu-backtranslate-word-corrections.cti
-rw-r--r-- root/root     12369 2023-10-17 04:54 usr/share/liblouis/tables/hu-chardefs.cti
-rw-r--r-- root/root    128926 2023-10-17 04:54 usr/share/liblouis/tables/hu-exceptionwords.cti
-rw-r--r-- root/root      4803 2023-10-17 04:54 usr/share/liblouis/tables/hu-hu-comp8.ctb
-rw-r--r-- root/root      4866 2023-10-17 04:54 usr/share/liblouis/tables/hu-hu-g1.ctb
-rw-r--r-- root/root     15604 2023-10-17 04:54 usr/share/liblouis/tables/hu-hu-g1_braille_input.cti
-rw-r--r-- root/root     13500 2023-10-17 04:54 usr/share/liblouis/tables/hu-hu-g2.ctb
-rw-r--r-- root/root     42722 2023-10-17 04:54 usr/share/liblouis/tables/hu-hu-g2_exceptions.cti
-rw-r--r-- root/root       499 2023-10-17 04:54 usr/share/liblouis/tables/hu.tbl
-rw-r--r-- root/root      5426 2023-10-17 04:54 usr/share/liblouis/tables/hy.ctb
-rw-r--r-- root/root       684 2023-10-17 04:54 usr/share/liblouis/tables/hy.tbl
-rw-r--r-- root/root     61218 2023-10-17 04:54 usr/share/liblouis/tables/hyph_brl_da_dk.dic
-rw-r--r-- root/root     21743 2023-10-17 04:54 usr/share/liblouis/tables/hyph_cs_CZ.dic
-rw-r--r-- root/root     61398 2023-10-17 04:54 usr/share/liblouis/tables/hyph_da_DK.dic
-rw-r--r-- root/root     36801 2023-10-17 04:54 usr/share/liblouis/tables/hyph_de_DE.dic
-rw-r--r-- root/root     36467 2023-10-17 04:54 usr/share/liblouis/tables/hyph_en_US.dic
-rw-r--r-- root/root     10667 2023-10-17 04:54 usr/share/liblouis/tables/hyph_eo.dic
-rw-r--r-- root/root      4217 2023-10-17 04:54 usr/share/liblouis/tables/hyph_es_ES.dic
-rw-r--r-- root/root      7979 2023-10-17 04:54 usr/share/liblouis/tables/hyph_fr_FR.dic
-rw-r--r-- root/root    876104 2023-10-17 04:54 usr/share/liblouis/tables/hyph_hu_HU.dic
-rw-r--r-- root/root      2206 2023-10-17 04:54 usr/share/liblouis/tables/hyph_it_IT.dic
-rw-r--r-- root/root    186678 2023-10-17 04:54 usr/share/liblouis/tables/hyph_nb_NO.dic
-rw-r--r-- root/root     83525 2023-10-17 04:54 usr/share/liblouis/tables/hyph_nl_NL.dic
-rw-r--r-- root/root    186678 2023-10-17 04:54 usr/share/liblouis/tables/hyph_nn_NO.dic
-rw-r--r-- root/root     30551 2023-10-17 04:54 usr/share/liblouis/tables/hyph_pl_PL.dic
-rw-r--r-- root/root      1288 2023-10-17 04:54 usr/share/liblouis/tables/hyph_pt_PT.dic
-rw-r--r-- root/root     67536 2023-10-17 04:54 usr/share/liblouis/tables/hyph_ru.dic
-rw-r--r-- root/root     31259 2023-10-17 04:54 usr/share/liblouis/tables/hyph_sv_SE.dic
-rw-r--r-- root/root      7541 2023-10-17 04:54 usr/share/liblouis/tables/is-chardefs6.cti
-rw-r--r-- root/root     21242 2023-10-17 04:54 usr/share/liblouis/tables/is-chardefs8.cti
-rw-r--r-- root/root      5901 2023-10-17 04:54 usr/share/liblouis/tables/is.ctb
-rw-r--r-- root/root       571 2023-10-17 04:54 usr/share/liblouis/tables/is.tbl
-rw-r--r-- root/root      4875 2023-10-17 04:54 usr/share/liblouis/tables/it-it-comp6.utb
-rw-r--r-- root/root     28849 2023-10-17 04:54 usr/share/liblouis/tables/it-it-comp8.utb
-rw-r--r-- root/root       566 2023-10-17 04:54 usr/share/liblouis/tables/it.tbl
-rw-r--r-- root/root      8172 2023-10-17 04:54 usr/share/liblouis/tables/iu-ca-g1.ctb
-rw-r--r-- root/root    262876 2023-10-17 04:54 usr/share/liblouis/tables/ja-kantenji.utb
-rw-r--r-- root/root      1215 2023-10-17 04:54 usr/share/liblouis/tables/ka-in-g1.utb
-rw-r--r-- root/root      8711 2023-10-17 04:54 usr/share/liblouis/tables/kannada.cti
-rw-r--r-- root/root      1192 2023-10-17 04:54 usr/share/liblouis/tables/kh-in-g1.utb
-rw-r--r-- root/root       561 2023-10-17 04:54 usr/share/liblouis/tables/kha.tbl
-rw-r--r-- root/root      2594 2023-10-17 04:54 usr/share/liblouis/tables/kk.utb
-rw-r--r-- root/root      9221 2023-10-17 04:54 usr/share/liblouis/tables/km-g1.utb
-rw-r--r-- root/root      4777 2023-10-17 04:54 usr/share/liblouis/tables/kmr.tbl
-rw-r--r-- root/root       564 2023-10-17 04:54 usr/share/liblouis/tables/kn.tbl
-rw-r--r-- root/root      1779 2023-10-17 04:54 usr/share/liblouis/tables/ko-2006-g1.ctb
-rw-r--r-- root/root      1975 2023-10-17 04:54 usr/share/liblouis/tables/ko-2006-g2.ctb
-rw-r--r-- root/root      3959 2023-10-17 04:54 usr/share/liblouis/tables/ko-2006.cti
-rw-r--r-- root/root    382348 2023-10-17 04:54 usr/share/liblouis/tables/ko-chars.cti
-rw-r--r-- root/root     23681 2023-10-17 04:54 usr/share/liblouis/tables/ko-g1-rules.cti
-rw-r--r-- root/root      1694 2023-10-17 04:54 usr/share/liblouis/tables/ko-g1.ctb
-rw-r--r-- root/root    274776 2023-10-17 04:54 usr/share/liblouis/tables/ko-g2-rules.cti
-rw-r--r-- root/root      1896 2023-10-17 04:54 usr/share/liblouis/tables/ko-g2.ctb
-rw-r--r-- root/root      5600 2023-10-17 04:54 usr/share/liblouis/tables/ko.cti
-rw-r--r-- root/root       927 2023-10-17 04:54 usr/share/liblouis/tables/kok.ctb
-rw-r--r-- root/root       550 2023-10-17 04:54 usr/share/liblouis/tables/kok.tbl
-rw-r--r-- root/root       926 2023-10-17 04:54 usr/share/liblouis/tables/kru.ctb
-rw-r--r-- root/root       548 2023-10-17 04:54 usr/share/liblouis/tables/kru.tbl
-rw-r--r-- root/root      1219 2023-10-17 04:54 usr/share/liblouis/tables/ks-in-g1.utb
-rw-r--r-- root/root      1993 2023-10-17 04:54 usr/share/liblouis/tables/latinLetterDef6Dots.uti
-rw-r--r-- root/root      1788 2023-10-17 04:54 usr/share/liblouis/tables/latinLetterDef8Dots.uti
-rw-r--r-- root/root     10446 2023-10-17 04:54 usr/share/liblouis/tables/latinLowercase.uti
-rw-r--r-- root/root      1868 2023-10-17 04:54 usr/share/liblouis/tables/latinUppercaseComp6.uti
-rw-r--r-- root/root       957 2023-10-17 04:54 usr/share/liblouis/tables/litdigits6Dots.uti
-rw-r--r-- root/root       981 2023-10-17 04:54 usr/share/liblouis/tables/litdigits6DotsPlusDot6.uti
-rw-r--r-- root/root       926 2023-10-17 04:54 usr/share/liblouis/tables/loweredDigits6Dots.uti
-rw-r--r-- root/root       936 2023-10-17 04:54 usr/share/liblouis/tables/loweredDigits8Dots.uti
-rw-r--r-- root/root       168 2023-10-17 04:54 usr/share/liblouis/tables/lt-6dot.tbl
-rw-r--r-- root/root     11985 2023-10-17 04:54 usr/share/liblouis/tables/lt-6dot.utb
-rw-r--r-- root/root     17113 2023-10-17 04:54 usr/share/liblouis/tables/lt.ctb
-rw-r--r-- root/root       703 2023-10-17 04:54 usr/share/liblouis/tables/lt.tbl
-rw-r--r-- root/root       677 2023-10-17 04:54 usr/share/liblouis/tables/lv.tbl
-rw-r--r-- root/root     18739 2023-10-17 04:54 usr/share/liblouis/tables/malayalam.cti
-rw-r--r-- root/root      1800 2023-10-17 04:54 usr/share/liblouis/tables/mao-nz-g1.ctb
-rw-r--r-- root/root      1515 2023-10-17 04:54 usr/share/liblouis/tables/marburg_single_cell_defs.cti
-rw-r--r-- root/root     15548 2023-10-17 04:54 usr/share/liblouis/tables/marburg_unicode_defs.cti
-rw-r--r-- root/root      1219 2023-10-17 04:54 usr/share/liblouis/tables/ml-in-g1.utb
-rw-r--r-- root/root       678 2023-10-17 04:54 usr/share/liblouis/tables/ml.tbl
-rw-r--r-- root/root      3290 2023-10-17 04:54 usr/share/liblouis/tables/mn-MN-common.cti
-rw-r--r-- root/root      1947 2023-10-17 04:54 usr/share/liblouis/tables/mn-MN-g1.utb
-rw-r--r-- root/root      1943 2023-10-17 04:54 usr/share/liblouis/tables/mn-MN-g2.ctb
-rw-r--r-- root/root      1216 2023-10-17 04:54 usr/share/liblouis/tables/mn-in-g1.utb
-rw-r--r-- root/root       567 2023-10-17 04:54 usr/share/liblouis/tables/mni.tbl
-rw-r--r-- root/root      1218 2023-10-17 04:54 usr/share/liblouis/tables/mr-in-g1.utb
-rw-r--r-- root/root       564 2023-10-17 04:54 usr/share/liblouis/tables/mr.tbl
-rw-r--r-- root/root    145390 2023-10-17 04:54 usr/share/liblouis/tables/ms-my-g2.ctb
-rw-r--r-- root/root      4551 2023-10-17 04:54 usr/share/liblouis/tables/mt.ctb
-rw-r--r-- root/root       682 2023-10-17 04:54 usr/share/liblouis/tables/mt.tbl
-rw-r--r-- root/root       922 2023-10-17 04:54 usr/share/liblouis/tables/mun.ctb
-rw-r--r-- root/root       546 2023-10-17 04:54 usr/share/liblouis/tables/mun.tbl
-rw-r--r-- root/root       927 2023-10-17 04:54 usr/share/liblouis/tables/mwr.ctb
-rw-r--r-- root/root       550 2023-10-17 04:54 usr/share/liblouis/tables/mwr.tbl
-rw-r--r-- root/root     20233 2023-10-17 04:54 usr/share/liblouis/tables/my-g1.utb
-rw-r--r-- root/root    130324 2023-10-17 04:54 usr/share/liblouis/tables/my-g2.ctb
-rw-r--r-- root/root       892 2023-10-17 04:54 usr/share/liblouis/tables/ne.ctb
-rw-r--r-- root/root       562 2023-10-17 04:54 usr/share/liblouis/tables/ne.tbl
-rw-r--r-- root/root     16496 2023-10-17 04:54 usr/share/liblouis/tables/nemethdefs.cti
-rw-r--r-- root/root      1656 2023-10-17 04:54 usr/share/liblouis/tables/nl-BE.dis
-rw-r--r-- root/root     10984 2023-10-17 04:54 usr/share/liblouis/tables/nl-NL-g0.utb
-rw-r--r-- root/root     22079 2023-10-17 04:54 usr/share/liblouis/tables/nl-chardefs.uti
-rw-r--r-- root/root     10021 2023-10-17 04:54 usr/share/liblouis/tables/nl-comp8.utb
-rw-r--r-- root/root       714 2023-10-17 04:54 usr/share/liblouis/tables/nl.tbl
-rw-r--r-- root/root      2358 2023-10-17 04:54 usr/share/liblouis/tables/no-no-8dot-fallback-6dot-g0.utb
-rw-r--r-- root/root     20162 2023-10-17 04:54 usr/share/liblouis/tables/no-no-8dot.utb
-rw-r--r-- root/root      7819 2023-10-17 04:54 usr/share/liblouis/tables/no-no-braillo-047-01.dis
-rw-r--r-- root/root     12949 2023-10-17 04:54 usr/share/liblouis/tables/no-no-chardefs6.uti
-rw-r--r-- root/root     20932 2023-10-17 04:54 usr/share/liblouis/tables/no-no-comp8.ctb
-rw-r--r-- root/root      6711 2023-10-17 04:54 usr/share/liblouis/tables/no-no-g0.utb
-rw-r--r-- root/root      4132 2023-10-17 04:54 usr/share/liblouis/tables/no-no-g1.ctb
-rw-r--r-- root/root     13013 2023-10-17 04:54 usr/share/liblouis/tables/no-no-g2.ctb
-rw-r--r-- root/root     19130 2023-10-17 04:54 usr/share/liblouis/tables/no-no-g3.ctb
-rw-r--r-- root/root     13478 2023-10-17 04:54 usr/share/liblouis/tables/no-no-generic.ctb
-rw-r--r-- root/root     14173 2023-10-17 04:54 usr/share/liblouis/tables/no-no-generic.dis
-rw-r--r-- root/root     49092 2023-10-17 04:54 usr/share/liblouis/tables/no-no-latinLetterDef6Dots_diacritics.uti
-rw-r--r-- root/root     13644 2023-10-17 04:54 usr/share/liblouis/tables/no-no.dis
-rw-r--r-- root/root      1217 2023-10-17 04:54 usr/share/liblouis/tables/np-in-g1.utb
-rw-r--r-- root/root      1394 2023-10-17 04:54 usr/share/liblouis/tables/nso-za-g1.utb
-rw-r--r-- root/root      1391 2023-10-17 04:54 usr/share/liblouis/tables/nso-za-g2.ctb
-rw-r--r-- root/root      1211 2023-10-17 04:54 usr/share/liblouis/tables/or-in-g1.utb
-rw-r--r-- root/root       560 2023-10-17 04:54 usr/share/liblouis/tables/or.tbl
-rw-r--r-- root/root      9533 2023-10-17 04:54 usr/share/liblouis/tables/oriya.cti
-rw-r--r-- root/root       564 2023-10-17 04:54 usr/share/liblouis/tables/pa.tbl
-rw-r--r-- root/root       924 2023-10-17 04:54 usr/share/liblouis/tables/pi.ctb
-rw-r--r-- root/root       542 2023-10-17 04:54 usr/share/liblouis/tables/pi.tbl
-rw-r--r-- root/root     18337 2023-10-17 04:54 usr/share/liblouis/tables/pl-pl-comp8.ctb
-rw-r--r-- root/root       231 2023-10-17 04:54 usr/share/liblouis/tables/pl.tbl
-rw-r--r-- root/root      1834 2023-10-17 04:54 usr/share/liblouis/tables/printables.cti
-rw-r--r-- root/root      3685 2023-10-17 04:54 usr/share/liblouis/tables/pt-pt-comp8.ctb
-rw-r--r-- root/root      8367 2023-10-17 04:54 usr/share/liblouis/tables/pt-pt-g1.utb
-rw-r--r-- root/root     21560 2023-10-17 04:54 usr/share/liblouis/tables/pt-pt-g2.ctb
-rw-r--r-- root/root       612 2023-10-17 04:54 usr/share/liblouis/tables/pt.tbl
-rw-r--r-- root/root      1861 2023-10-17 04:54 usr/share/liblouis/tables/pu-in-g1.utb
-rw-r--r-- root/root      5008 2023-10-17 04:54 usr/share/liblouis/tables/ro.ctb
-rw-r--r-- root/root       684 2023-10-17 04:54 usr/share/liblouis/tables/ro.tbl
-rw-r--r-- root/root      2530 2023-10-17 04:54 usr/share/liblouis/tables/ru-brf.dis
-rw-r--r-- root/root      7310 2023-10-17 04:54 usr/share/liblouis/tables/ru-compbrl.ctb
-rw-r--r-- root/root      2832 2023-10-17 04:54 usr/share/liblouis/tables/ru-letters.dis
-rw-r--r-- root/root      4121 2023-10-17 04:54 usr/share/liblouis/tables/ru-litbrl-detailed.utb
-rw-r--r-- root/root     35469 2023-10-17 04:54 usr/share/liblouis/tables/ru-litbrl.ctb
-rw-r--r-- root/root     18580 2023-10-17 04:54 usr/share/liblouis/tables/ru-ru-g1.ctb
-rw-r--r-- root/root      3025 2023-10-17 04:54 usr/share/liblouis/tables/ru-unicode.dis
-rw-r--r-- root/root     35770 2023-10-17 04:54 usr/share/liblouis/tables/ru.ctb
-rw-r--r-- root/root      1219 2023-10-17 04:54 usr/share/liblouis/tables/sa-in-g1.utb
-rw-r--r-- root/root       566 2023-10-17 04:54 usr/share/liblouis/tables/sa.tbl
-rw-r--r-- root/root      2654 2023-10-17 04:54 usr/share/liblouis/tables/sah.utb
-rw-r--r-- root/root       562 2023-10-17 04:54 usr/share/liblouis/tables/sd.tbl
-rw-r--r-- root/root     10241 2023-10-17 04:54 usr/share/liblouis/tables/se-se.ctb
-rw-r--r-- root/root     14691 2023-10-17 04:54 usr/share/liblouis/tables/se-se.dis
-rw-r--r-- root/root      1217 2023-10-17 04:54 usr/share/liblouis/tables/si-in-g1.utb
-rw-r--r-- root/root     10964 2023-10-17 04:54 usr/share/liblouis/tables/sin.cti
-rw-r--r-- root/root      1355 2023-10-17 04:54 usr/share/liblouis/tables/sin.utb
-rw-r--r-- root/root     74817 2023-10-17 04:54 usr/share/liblouis/tables/sk-g1.ctb
-rw-r--r-- root/root      5935 2023-10-17 04:54 usr/share/liblouis/tables/sk-sk-g1.utb
-rw-r--r-- root/root      3048 2023-10-17 04:54 usr/share/liblouis/tables/sk-sk.utb
-rw-r--r-- root/root      8877 2023-10-17 04:54 usr/share/liblouis/tables/sl-si-comp8.ctb
-rw-r--r-- root/root     16221 2023-10-17 04:54 usr/share/liblouis/tables/sl-si-g1.utb
-rw-r--r-- root/root       643 2023-10-17 04:54 usr/share/liblouis/tables/sl.tbl
-rw-r--r-- root/root      2730 2023-10-17 04:54 usr/share/liblouis/tables/sot-za-g1.ctb
-rw-r--r-- root/root      6286 2023-10-17 04:54 usr/share/liblouis/tables/sot-za-g2.ctb
-rw-r--r-- root/root      2102 2023-10-17 04:54 usr/share/liblouis/tables/spaces.uti
-rw-r--r-- root/root      8741 2023-10-17 04:54 usr/share/liblouis/tables/sr-chardefs.cti
-rw-r--r-- root/root      3332 2023-10-17 04:54 usr/share/liblouis/tables/sr-g1.ctb
-rw-r--r-- root/root       665 2023-10-17 04:54 usr/share/liblouis/tables/sr.tbl
-rw-r--r-- root/root      9605 2023-10-17 04:54 usr/share/liblouis/tables/sv-1989.ctb
-rw-r--r-- root/root      7740 2023-10-17 04:54 usr/share/liblouis/tables/sv-1996.ctb
-rw-r--r-- root/root       564 2023-10-17 04:54 usr/share/liblouis/tables/sv.tbl
-rw-r--r-- root/root      5039 2023-10-17 04:54 usr/share/liblouis/tables/ta-ta-g1.ctb
-rw-r--r-- root/root       920 2023-10-17 04:54 usr/share/liblouis/tables/ta.ctb
-rw-r--r-- root/root       678 2023-10-17 04:54 usr/share/liblouis/tables/ta.tbl
-rw-r--r-- root/root      3218 2023-10-17 04:54 usr/share/liblouis/tables/tamil.cti
-rw-r--r-- root/root      1213 2023-10-17 04:54 usr/share/liblouis/tables/te-in-g1.utb
-rw-r--r-- root/root       562 2023-10-17 04:54 usr/share/liblouis/tables/te.tbl
-rw-r--r-- root/root      9977 2023-10-17 04:54 usr/share/liblouis/tables/telugu.cti
-rw-r--r-- root/root     21650 2023-10-17 04:54 usr/share/liblouis/tables/text_nabcc.dis
-rw-r--r-- root/root      2634 2023-10-17 04:54 usr/share/liblouis/tables/tr-g1.ctb
-rw-r--r-- root/root     13235 2023-10-17 04:54 usr/share/liblouis/tables/tr-g2.ctb
-rw-r--r-- root/root       590 2023-10-17 04:54 usr/share/liblouis/tables/tr-g2.tbl
-rw-r--r-- root/root      4681 2023-10-17 04:54 usr/share/liblouis/tables/tr.ctb
-rw-r--r-- root/root       682 2023-10-17 04:54 usr/share/liblouis/tables/tr.tbl
-rw-r--r-- root/root      1142 2023-10-17 04:54 usr/share/liblouis/tables/tsn-za-g1.ctb
-rw-r--r-- root/root      1139 2023-10-17 04:54 usr/share/liblouis/tables/tsn-za-g2.ctb
-rw-r--r-- root/root      2688 2023-10-17 04:54 usr/share/liblouis/tables/tt.utb
-rw-r--r-- root/root      1911 2023-10-17 04:54 usr/share/liblouis/tables/uk-comp.utb
-rw-r--r-- root/root      2202 2023-10-17 04:54 usr/share/liblouis/tables/uk.utb
-rw-r--r-- root/root      3234 2023-10-17 04:54 usr/share/liblouis/tables/ukchardefs.cti
-rw-r--r-- root/root      1532 2023-10-17 04:54 usr/share/liblouis/tables/ukmaths_single_cell_defs.cti
-rw-r--r-- root/root     15549 2023-10-17 04:54 usr/share/liblouis/tables/ukmaths_unicode_defs.cti
-rw-r--r-- root/root     14616 2023-10-17 04:54 usr/share/liblouis/tables/uni-text.dis
-rw-r--r-- root/root     24833 2023-10-17 04:54 usr/share/liblouis/tables/unicode-braille.utb
-rw-r--r-- root/root       902 2023-10-17 04:54 usr/share/liblouis/tables/unicode-without-blank.dis
-rw-r--r-- root/root      5974 2023-10-17 04:54 usr/share/liblouis/tables/unicode.dis
-rw-r--r-- root/root     12306 2023-10-17 04:54 usr/share/liblouis/tables/ur-pk-g1.utb
-rw-r--r-- root/root     52897 2023-10-17 04:54 usr/share/liblouis/tables/ur-pk-g2.ctb
-rw-r--r-- root/root      1562 2023-10-17 04:54 usr/share/liblouis/tables/us-table.dis
-rw-r--r-- root/root      3557 2023-10-17 04:54 usr/share/liblouis/tables/uz-g1.utb
-rw-r--r-- root/root      2712 2023-10-17 04:54 usr/share/liblouis/tables/ve-za-g1.utb
-rw-r--r-- root/root      4852 2023-10-17 04:54 usr/share/liblouis/tables/ve-za-g2.ctb
-rw-r--r-- root/root      2649 2023-10-17 04:54 usr/share/liblouis/tables/vi-charsdef.uti
-rw-r--r-- root/root      9186 2023-10-17 04:54 usr/share/liblouis/tables/vi-lettersdef.uti
-rw-r--r-- root/root     17617 2023-10-17 04:54 usr/share/liblouis/tables/vi-puncsdef.uti
-rw-r--r-- root/root     21581 2023-10-17 04:54 usr/share/liblouis/tables/vi-saigon-g1.ctb
-rw-r--r-- root/root      3120 2023-10-17 04:54 usr/share/liblouis/tables/vi-vn-g0.utb
-rw-r--r-- root/root     17635 2023-10-17 04:54 usr/share/liblouis/tables/vi-vn-g1.ctb
-rw-r--r-- root/root     22682 2023-10-17 04:54 usr/share/liblouis/tables/vi-vn-g2.ctb
-rw-r--r-- root/root     12141 2023-10-17 04:54 usr/share/liblouis/tables/vi.ctb
-rw-r--r-- root/root     18559 2023-10-17 04:54 usr/share/liblouis/tables/wiskunde-chardefs.cti
-rw-r--r-- root/root      3854 2023-10-17 04:54 usr/share/liblouis/tables/wordcx.dis
-rw-r--r-- root/root      2275 2023-10-17 04:54 usr/share/liblouis/tables/xh-za-g1.utb
-rw-r--r-- root/root      8893 2023-10-17 04:54 usr/share/liblouis/tables/xh-za-g2.ctb
-rw-r--r-- root/root   1263136 2023-10-17 04:54 usr/share/liblouis/tables/zh-chn.ctb
-rw-r--r-- root/root    264919 2023-10-17 04:54 usr/share/liblouis/tables/zh-hk.ctb
-rw-r--r-- root/root   1460904 2023-10-17 04:54 usr/share/liblouis/tables/zh-tw.ctb
-rw-r--r-- root/root       880 2023-10-17 04:54 usr/share/liblouis/tables/zh_CHN.tbl
-rw-r--r-- root/root       330 2023-10-17 04:54 usr/share/liblouis/tables/zh_HK.tbl
-rw-r--r-- root/root       457 2023-10-17 04:54 usr/share/liblouis/tables/zh_TW.tbl
-rw-r--r-- root/root    676057 2023-10-17 04:54 usr/share/liblouis/tables/zhcn-g1.ctb
-rw-r--r-- root/root    617473 2023-10-17 04:54 usr/share/liblouis/tables/zhcn-g2.ctb
-rw-r--r-- root/root      1069 2023-10-17 04:54 usr/share/liblouis/tables/zu-za-g1.utb
-rw-r--r-- root/root      1067 2023-10-17 04:54 usr/share/liblouis/tables/zu-za-g2.ctb


