++========================================
||
||   Package:  ./libovf-glib-0.1.0-x86_64-1_snuk.txz
||
++========================================
drwxr-xr-x root/root         0 2023-10-17 06:48 ./
drwxr-xr-x root/root         0 2023-10-17 06:48 install/
-rw-r--r-- root/root       769 2023-10-17 06:48 install/slack-desc
drwxr-xr-x root/root         0 2023-10-17 06:48 usr/
drwxr-xr-x root/root         0 2023-10-17 06:48 usr/doc/
drwxr-xr-x root/root         0 2023-10-17 06:48 usr/doc/libovf-glib-0.1.0/
-rw-r--r-- root/root        34 2022-07-17 13:24 usr/doc/libovf-glib-0.1.0/AUTHORS
-rw-r--r-- root/root     26521 2022-07-17 13:24 usr/doc/libovf-glib-0.1.0/COPYING
-rw-r--r-- root/root         0 2022-07-17 13:24 usr/doc/libovf-glib-0.1.0/NEWS
-rw-r--r-- root/root       103 2022-07-17 13:24 usr/doc/libovf-glib-0.1.0/README
-rw-r--r-- root/root      3325 2023-10-17 06:48 usr/doc/libovf-glib-0.1.0/libovf-glib.SlackBuild
drwxr-xr-x root/root         0 2023-10-17 06:48 usr/include/
drwxr-xr-x root/root         0 2023-10-17 06:48 usr/include/govf/
-rw-r--r-- root/root      1728 2022-07-17 13:24 usr/include/govf/govf-disk.h
-rw-r--r-- root/root      2664 2022-07-17 13:24 usr/include/govf/govf-package.h
-rw-r--r-- root/root       991 2022-07-17 13:24 usr/include/govf/govf.h
drwxr-xr-x root/root         0 2023-10-17 06:48 usr/lib64/
drwxr-xr-x root/root         0 2023-10-17 06:48 usr/lib64/girepository-1.0/
-rw-r--r-- root/root      2844 2023-10-17 06:48 usr/lib64/girepository-1.0/Govf-0.1.typelib
-rwxr-xr-x root/root     22960 2023-10-17 06:48 usr/lib64/libgovf-0.1.so
drwxr-xr-x root/root         0 2023-10-17 06:48 usr/lib64/pkgconfig/
-rw-r--r-- root/root       212 2023-10-17 06:48 usr/lib64/pkgconfig/govf-0.1.pc
drwxr-xr-x root/root         0 2023-10-17 06:48 usr/share/
drwxr-xr-x root/root         0 2023-10-17 06:48 usr/share/gir-1.0/
-rw-r--r-- root/root     22955 2023-10-17 06:48 usr/share/gir-1.0/Govf-0.1.gir
drwxr-xr-x root/root         0 2023-10-17 06:48 usr/share/vala/
drwxr-xr-x root/root         0 2023-10-17 06:48 usr/share/vala/vapi/
-rw-r--r-- root/root         8 2023-10-17 06:48 usr/share/vala/vapi/govf-0.1.deps
-rw-r--r-- root/root      1559 2023-10-17 06:48 usr/share/vala/vapi/govf-0.1.vapi


