++========================================
||
||   Package:  ./mesa-22.1.7-x86_64-1_snuk.txz
||
++========================================
drwxr-xr-x root/root         0 2023-10-16 13:38 ./
drwxr-xr-x root/root         0 2023-10-16 13:30 etc/
drwxr-xr-x root/root         0 2023-10-16 13:30 etc/OpenCL/
drwxr-xr-x root/root         0 2023-10-16 13:30 etc/OpenCL/vendors/
-rw-r--r-- root/root        19 2023-10-16 13:17 etc/OpenCL/vendors/mesa.icd
drwxr-xr-x root/root         0 2023-10-16 13:38 install/
-rw-r--r-- root/root      4557 2023-10-16 13:38 install/doinst.sh
-rw-r--r-- root/root       814 2023-10-16 13:38 install/slack-desc
drwxr-xr-x root/root         0 2023-10-16 13:37 usr/
drwxr-xr-x root/root         0 2023-10-16 13:38 usr/bin/
-rwxr-xr-x root/root     14584 2023-10-16 13:38 usr/bin/eglinfo
-rwxr-xr-x root/root     23032 2023-10-16 13:38 usr/bin/gears
-rwxr-xr-x root/root     14432 2023-10-16 13:38 usr/bin/glinfo
-rwxr-xr-x root/root     23048 2023-10-16 13:38 usr/bin/glthreads
-rwxr-xr-x root/root     23080 2023-10-16 13:38 usr/bin/glxcontexts
-rwxr-xr-x root/root     14544 2023-10-16 13:38 usr/bin/glxdemo
-rwxr-xr-x root/root     27272 2023-10-16 13:38 usr/bin/glxgears
-rwxr-xr-x root/root     31376 2023-10-16 13:38 usr/bin/glxgears_fbconfig
-rwxr-xr-x root/root     14664 2023-10-16 13:38 usr/bin/glxheads
-rwxr-xr-x root/root     51880 2023-10-16 13:38 usr/bin/glxinfo
-rwxr-xr-x root/root     18952 2023-10-16 13:38 usr/bin/glxpbdemo
-rwxr-xr-x root/root     14624 2023-10-16 13:38 usr/bin/glxpixmap
-r-xr-xr-x root/root      5807 2022-08-17 17:53 usr/bin/mesa-overlay-control.py
drwxr-xr-x root/root         0 2023-10-16 13:38 usr/doc/
drwxr-xr-x root/root         0 2023-10-16 13:38 usr/doc/mesa-22.1.7/
-rw-r--r-- root/root      3326 2022-06-08 19:13 usr/doc/mesa-22.1.7/CODEOWNERS
-rw-r--r-- root/root      2735 2022-06-08 19:13 usr/doc/mesa-22.1.7/README.UVD
-rw-r--r-- root/root      2679 2022-06-08 19:13 usr/doc/mesa-22.1.7/README.VCE
-rw-r--r-- root/root      1691 2022-06-08 19:13 usr/doc/mesa-22.1.7/README.rst
-rw-r--r-- root/root      4218 2022-06-08 19:13 usr/doc/mesa-22.1.7/license.rst
drwxr-xr-x root/root         0 2023-10-16 13:37 usr/doc/mesa-amber-21.3.9/
-rw-r--r-- root/root      3374 2022-06-08 19:13 usr/doc/mesa-amber-21.3.9/21.3.9.rst
-rw-r--r-- root/root      3326 2022-06-08 19:13 usr/doc/mesa-amber-21.3.9/CODEOWNERS
-rw-r--r-- root/root      2735 2022-06-08 19:13 usr/doc/mesa-amber-21.3.9/README.UVD
-rw-r--r-- root/root      2679 2022-06-08 19:13 usr/doc/mesa-amber-21.3.9/README.VCE
-rw-r--r-- root/root      1691 2022-06-08 19:13 usr/doc/mesa-amber-21.3.9/README.rst
-rw-r--r-- root/root      4218 2022-06-08 19:13 usr/doc/mesa-amber-21.3.9/license.rst
drwxr-xr-x root/root         0 2023-10-16 13:38 usr/doc/mesa-demos-8.5.0/
-rw-r--r-- root/root      3692 2022-05-30 12:54 usr/doc/mesa-demos-8.5.0/README.rst
drwxr-xr-x root/root         0 2023-10-16 13:30 usr/include/
drwxr-xr-x root/root         0 2023-10-16 13:30 usr/include/EGL/
-rw-r--r-- root/root      3192 2022-08-17 17:53 usr/include/EGL/eglextchromium.h
-rw-r--r-- root/root      2129 2022-08-17 17:53 usr/include/EGL/eglmesaext.h
drwxr-xr-x root/root         0 2023-10-16 13:30 usr/include/GL/
drwxr-xr-x root/root         0 2023-10-16 13:30 usr/include/GL/internal/
-rw-r--r-- root/root     79642 2022-08-17 17:53 usr/include/GL/internal/dri_interface.h
-rw-r--r-- root/root     10360 2022-08-17 17:53 usr/include/GL/osmesa.h
drwxr-xr-x root/root         0 2023-10-16 13:30 usr/include/d3dadapter/
-rw-r--r-- root/root      6386 2022-08-17 17:53 usr/include/d3dadapter/d3dadapter9.h
-rw-r--r-- root/root      2130 2022-08-17 17:53 usr/include/d3dadapter/drm.h
-rw-r--r-- root/root      9683 2022-08-17 17:53 usr/include/d3dadapter/present.h
-rw-r--r-- root/root     16920 2022-08-17 17:53 usr/include/gbm.h
-rw-r--r-- root/root      4070 2022-08-17 17:53 usr/include/xa_composite.h
-rw-r--r-- root/root      3490 2022-08-17 17:53 usr/include/xa_context.h
-rw-r--r-- root/root      7283 2023-10-16 13:17 usr/include/xa_tracker.h
drwxr-xr-x root/root         0 2023-10-16 13:38 usr/lib64/
drwxr-xr-x root/root         0 2023-10-16 13:38 usr/lib64/d3d/
-rwxr-xr-x root/root  17986016 2023-10-16 13:38 usr/lib64/d3d/d3dadapter9.so.1.0.0
drwxr-xr-x root/root         0 2023-10-16 13:38 usr/lib64/dri/
-rwxr-xr-x root/root  23613952 2023-10-16 13:38 usr/lib64/dri/crocus_dri.so
-rwxr-xr-x root/root  15356328 2023-10-16 13:38 usr/lib64/dri/i830_dri.so
-rwxr-xr-x root/root  15356328 2023-10-16 13:38 usr/lib64/dri/i915_dri.so
-rwxr-xr-x root/root  15356328 2023-10-16 13:38 usr/lib64/dri/i965_dri.so
hrwxr-xr-x root/root         0 2023-10-16 13:38 usr/lib64/dri/iris_dri.so link to usr/lib64/dri/crocus_dri.so
hrwxr-xr-x root/root         0 2023-10-16 13:38 usr/lib64/dri/kms_swrast_dri.so link to usr/lib64/dri/crocus_dri.so
hrwxr-xr-x root/root         0 2023-10-16 13:38 usr/lib64/dri/nouveau_dri.so link to usr/lib64/dri/crocus_dri.so
-rwxr-xr-x root/root  11120840 2023-10-16 13:38 usr/lib64/dri/nouveau_drv_video.so
-rwxr-xr-x root/root  15356328 2023-10-16 13:38 usr/lib64/dri/nouveau_vieux_dri.so
-rwxr-xr-x root/root  15356328 2023-10-16 13:38 usr/lib64/dri/r200_dri.so
hrwxr-xr-x root/root         0 2023-10-16 13:38 usr/lib64/dri/r300_dri.so link to usr/lib64/dri/crocus_dri.so
hrwxr-xr-x root/root         0 2023-10-16 13:38 usr/lib64/dri/r600_dri.so link to usr/lib64/dri/crocus_dri.so
hrwxr-xr-x root/root         0 2023-10-16 13:38 usr/lib64/dri/r600_drv_video.so link to usr/lib64/dri/nouveau_drv_video.so
-rwxr-xr-x root/root  15356328 2023-10-16 13:38 usr/lib64/dri/radeon_dri.so
hrwxr-xr-x root/root         0 2023-10-16 13:38 usr/lib64/dri/radeonsi_dri.so link to usr/lib64/dri/crocus_dri.so
hrwxr-xr-x root/root         0 2023-10-16 13:38 usr/lib64/dri/radeonsi_drv_video.so link to usr/lib64/dri/nouveau_drv_video.so
hrwxr-xr-x root/root         0 2023-10-16 13:38 usr/lib64/dri/swrast_dri.so link to usr/lib64/dri/crocus_dri.so
hrwxr-xr-x root/root         0 2023-10-16 13:38 usr/lib64/dri/virtio_gpu_dri.so link to usr/lib64/dri/crocus_dri.so
hrwxr-xr-x root/root         0 2023-10-16 13:38 usr/lib64/dri/vmwgfx_dri.so link to usr/lib64/dri/crocus_dri.so
hrwxr-xr-x root/root         0 2023-10-16 13:38 usr/lib64/dri/zink_dri.so link to usr/lib64/dri/crocus_dri.so
drwxr-xr-x root/root         0 2023-10-16 13:38 usr/lib64/gallium-pipe/
-rwxr-xr-x root/root   7508608 2023-10-16 13:38 usr/lib64/gallium-pipe/pipe_crocus.so
-rwxr-xr-x root/root   7586504 2023-10-16 13:38 usr/lib64/gallium-pipe/pipe_iris.so
-rwxr-xr-x root/root   6353504 2023-10-16 13:38 usr/lib64/gallium-pipe/pipe_nouveau.so
-rwxr-xr-x root/root   4875488 2023-10-16 13:38 usr/lib64/gallium-pipe/pipe_r300.so
-rwxr-xr-x root/root   5457952 2023-10-16 13:38 usr/lib64/gallium-pipe/pipe_r600.so
-rwxr-xr-x root/root   6738784 2023-10-16 13:38 usr/lib64/gallium-pipe/pipe_radeonsi.so
-rwxr-xr-x root/root   4998240 2023-10-16 13:38 usr/lib64/gallium-pipe/pipe_swrast.so
-rwxr-xr-x root/root   4885376 2023-10-16 13:38 usr/lib64/gallium-pipe/pipe_vmwgfx.so
-rwxr-xr-x root/root    275824 2023-10-16 13:38 usr/lib64/libEGL_mesa.so.0.0.0
-rwxr-xr-x root/root    459472 2023-10-16 13:38 usr/lib64/libGLX_mesa.so.0.0.0
-rwxr-xr-x root/root   1601736 2023-10-16 13:38 usr/lib64/libMesaOpenCL.so.1.0.0
-rwxr-xr-x root/root  11266128 2023-10-16 13:38 usr/lib64/libOSMesa.so.8.0.0
-rwxr-xr-x root/root    223328 2023-10-16 13:38 usr/lib64/libVkLayer_INTEL_nullhw.so
-rwxr-xr-x root/root     47720 2023-10-16 13:38 usr/lib64/libVkLayer_MESA_device_select.so
-rwxr-xr-x root/root    740280 2023-10-16 13:38 usr/lib64/libVkLayer_MESA_overlay.so
-rwxr-xr-x root/root   8212424 2023-10-16 13:38 usr/lib64/libXvMCnouveau.so.1.0.0
hrwxr-xr-x root/root         0 2023-10-16 13:38 usr/lib64/libXvMCr600.so.1.0.0 link to usr/lib64/libXvMCnouveau.so.1.0.0
-rwxr-xr-x root/root     60424 2023-10-16 13:38 usr/lib64/libgbm.so.1.0.0
-rwxr-xr-x root/root    231624 2023-10-16 13:38 usr/lib64/libglapi.so.0.0.0
-rwxr-xr-x root/root   8259640 2023-10-16 13:38 usr/lib64/libvulkan_intel.so
-rwxr-xr-x root/root   6167560 2023-10-16 13:38 usr/lib64/libvulkan_lvp.so
-rwxr-xr-x root/root   6973872 2023-10-16 13:38 usr/lib64/libvulkan_radeon.so
-rwxr-xr-x root/root   6810504 2023-10-16 13:38 usr/lib64/libxatracker.so.2.5.0
drwxr-xr-x root/root         0 2023-10-16 13:30 usr/lib64/pkgconfig/
-rw-r--r-- root/root       193 2023-10-16 13:17 usr/lib64/pkgconfig/d3d.pc
-rw-r--r-- root/root       203 2023-10-16 13:17 usr/lib64/pkgconfig/dri.pc
-rw-r--r-- root/root       220 2023-10-16 13:17 usr/lib64/pkgconfig/gbm.pc
-rw-r--r-- root/root       233 2023-10-16 13:17 usr/lib64/pkgconfig/osmesa.pc
-rw-r--r-- root/root       199 2023-10-16 13:17 usr/lib64/pkgconfig/xatracker.pc
drwxr-xr-x root/root         0 2023-10-16 13:38 usr/lib64/vdpau/
-rwxr-xr-x root/root  11432328 2023-10-16 13:38 usr/lib64/vdpau/libvdpau_nouveau.so.1.0.0
hrwxr-xr-x root/root         0 2023-10-16 13:38 usr/lib64/vdpau/libvdpau_r300.so.1.0.0 link to usr/lib64/vdpau/libvdpau_nouveau.so.1.0.0
hrwxr-xr-x root/root         0 2023-10-16 13:38 usr/lib64/vdpau/libvdpau_r600.so.1.0.0 link to usr/lib64/vdpau/libvdpau_nouveau.so.1.0.0
hrwxr-xr-x root/root         0 2023-10-16 13:38 usr/lib64/vdpau/libvdpau_radeonsi.so.1.0.0 link to usr/lib64/vdpau/libvdpau_nouveau.so.1.0.0
drwxr-xr-x root/root         0 2023-10-16 13:30 usr/share/
drwxr-xr-x root/root         0 2023-10-16 13:30 usr/share/drirc.d/
-rw-r--r-- root/root     46951 2022-08-17 17:53 usr/share/drirc.d/00-mesa-defaults.conf
-rw-r--r-- root/root      7317 2022-08-17 17:53 usr/share/drirc.d/00-radv-defaults.conf
drwxr-xr-x root/root         0 2023-10-16 13:30 usr/share/glvnd/
drwxr-xr-x root/root         0 2023-10-16 13:30 usr/share/glvnd/egl_vendor.d/
-rw-r--r-- root/root       105 2023-10-16 13:17 usr/share/glvnd/egl_vendor.d/50_mesa.json
drwxr-xr-x root/root         0 2023-10-16 13:30 usr/share/vulkan/
drwxr-xr-x root/root         0 2023-10-16 13:30 usr/share/vulkan/explicit_layer.d/
-rw-r--r-- root/root       295 2022-08-17 17:53 usr/share/vulkan/explicit_layer.d/VkLayer_INTEL_nullhw.json
-rw-r--r-- root/root       301 2022-08-17 17:53 usr/share/vulkan/explicit_layer.d/VkLayer_MESA_overlay.json
drwxr-xr-x root/root         0 2023-10-16 13:30 usr/share/vulkan/icd.d/
-rw-r--r-- root/root       148 2023-10-16 13:21 usr/share/vulkan/icd.d/intel_icd.x86_64.json
-rw-r--r-- root/root       146 2023-10-16 13:30 usr/share/vulkan/icd.d/lvp_icd.x86_64.json
-rw-r--r-- root/root       149 2023-10-16 13:22 usr/share/vulkan/icd.d/radeon_icd.x86_64.json
drwxr-xr-x root/root         0 2023-10-16 13:30 usr/share/vulkan/implicit_layer.d/
-rw-r--r-- root/root       473 2022-08-17 17:53 usr/share/vulkan/implicit_layer.d/VkLayer_MESA_device_select.json


