++========================================
||
||   Package:  ./pangomm-2.46.3-x86_64-1_snuk.txz
||
++========================================
drwxr-xr-x root/root         0 2023-10-16 15:21 ./
drwxr-xr-x root/root         0 2023-10-16 15:21 install/
-rw-r--r-- root/root       225 2023-10-16 15:21 install/doinst.sh
-rw-r--r-- root/root       673 2023-10-16 15:21 install/slack-desc
drwxr-xr-x root/root         0 2023-10-16 15:21 usr/
drwxr-xr-x root/root         0 2023-10-16 15:21 usr/doc/
drwxr-xr-x root/root         0 2023-10-16 15:21 usr/doc/pangomm-2.46.3/
-rw-r--r-- root/root       667 2022-09-21 15:48 usr/doc/pangomm-2.46.3/AUTHORS
-rw-r--r-- root/root     26532 2022-09-21 15:48 usr/doc/pangomm-2.46.3/COPYING
-rw-r--r-- root/root     17987 2022-09-21 15:48 usr/doc/pangomm-2.46.3/COPYING.tools
-rw-r--r-- root/root     34573 2022-09-21 15:52 usr/doc/pangomm-2.46.3/ChangeLog
-rwxr-xr-x root/root      8631 2022-09-21 15:48 usr/doc/pangomm-2.46.3/NEWS
-rw-r--r-- root/root      2715 2022-09-21 15:48 usr/doc/pangomm-2.46.3/README.SUN
-rw-r--r-- root/root      2470 2022-09-21 15:48 usr/doc/pangomm-2.46.3/README.md
-rw-r--r-- root/root      7138 2022-09-21 15:48 usr/doc/pangomm-2.46.3/README.win32
drwxr-xr-x root/root         0 2023-10-16 15:21 usr/include/
drwxr-xr-x root/root         0 2023-10-16 15:21 usr/include/pangomm-1.4/
drwxr-xr-x root/root         0 2023-10-16 15:21 usr/include/pangomm-1.4/pangomm/
-rw-r--r-- root/root      2745 2022-09-21 15:48 usr/include/pangomm-1.4/pangomm.h
-rw-r--r-- root/root     33427 2022-09-21 15:52 usr/include/pangomm-1.4/pangomm/attributes.h
-rw-r--r-- root/root      4631 2022-09-21 15:52 usr/include/pangomm-1.4/pangomm/attriter.h
-rw-r--r-- root/root      7384 2022-09-21 15:52 usr/include/pangomm-1.4/pangomm/attrlist.h
-rw-r--r-- root/root      6513 2022-09-21 15:52 usr/include/pangomm-1.4/pangomm/cairofontmap.h
-rw-r--r-- root/root      5114 2022-09-21 15:52 usr/include/pangomm-1.4/pangomm/color.h
-rw-r--r-- root/root     20549 2022-09-21 15:52 usr/include/pangomm-1.4/pangomm/context.h
-rw-r--r-- root/root      6499 2022-09-21 15:52 usr/include/pangomm-1.4/pangomm/coverage.h
-rw-r--r-- root/root      8997 2022-09-21 15:52 usr/include/pangomm-1.4/pangomm/font.h
-rw-r--r-- root/root     24340 2022-09-21 15:52 usr/include/pangomm-1.4/pangomm/fontdescription.h
-rw-r--r-- root/root      5394 2022-09-21 15:52 usr/include/pangomm-1.4/pangomm/fontface.h
-rw-r--r-- root/root      7137 2022-09-21 15:52 usr/include/pangomm-1.4/pangomm/fontfamily.h
-rw-r--r-- root/root      6240 2022-09-21 15:52 usr/include/pangomm-1.4/pangomm/fontmap.h
-rw-r--r-- root/root      6406 2022-09-21 15:52 usr/include/pangomm-1.4/pangomm/fontmetrics.h
-rw-r--r-- root/root      4517 2022-09-21 15:52 usr/include/pangomm-1.4/pangomm/fontset.h
-rw-r--r-- root/root      6223 2022-09-21 15:52 usr/include/pangomm-1.4/pangomm/glyph.h
-rw-r--r-- root/root     10844 2022-09-21 15:52 usr/include/pangomm-1.4/pangomm/glyphstring.h
-rw-r--r-- root/root      1176 2022-09-21 15:48 usr/include/pangomm-1.4/pangomm/init.h
-rw-r--r-- root/root     11514 2022-09-21 15:52 usr/include/pangomm-1.4/pangomm/item.h
-rw-r--r-- root/root     16102 2022-09-21 15:52 usr/include/pangomm-1.4/pangomm/language.h
-rw-r--r-- root/root     37551 2022-09-21 15:52 usr/include/pangomm-1.4/pangomm/layout.h
-rw-r--r-- root/root     10837 2022-09-21 15:52 usr/include/pangomm-1.4/pangomm/layoutiter.h
-rw-r--r-- root/root      9817 2022-09-21 15:52 usr/include/pangomm-1.4/pangomm/layoutline.h
-rw-r--r-- root/root      6005 2022-09-21 15:52 usr/include/pangomm-1.4/pangomm/layoutrun.h
drwxr-xr-x root/root         0 2023-10-16 15:21 usr/include/pangomm-1.4/pangomm/private/
-rw-r--r-- root/root       153 2022-09-21 15:52 usr/include/pangomm-1.4/pangomm/private/attributes_p.h
-rw-r--r-- root/root       147 2022-09-21 15:52 usr/include/pangomm-1.4/pangomm/private/attriter_p.h
-rw-r--r-- root/root       147 2022-09-21 15:52 usr/include/pangomm-1.4/pangomm/private/attrlist_p.h
-rw-r--r-- root/root      1041 2022-09-21 15:52 usr/include/pangomm-1.4/pangomm/private/cairofontmap_p.h
-rw-r--r-- root/root       138 2022-09-21 15:52 usr/include/pangomm-1.4/pangomm/private/color_p.h
-rw-r--r-- root/root      1073 2022-09-21 15:52 usr/include/pangomm-1.4/pangomm/private/context_p.h
-rw-r--r-- root/root       147 2022-09-21 15:52 usr/include/pangomm-1.4/pangomm/private/coverage_p.h
-rw-r--r-- root/root      1049 2022-09-21 15:52 usr/include/pangomm-1.4/pangomm/private/font_p.h
-rw-r--r-- root/root       168 2022-09-21 15:52 usr/include/pangomm-1.4/pangomm/private/fontdescription_p.h
-rw-r--r-- root/root      1081 2022-09-21 15:52 usr/include/pangomm-1.4/pangomm/private/fontface_p.h
-rw-r--r-- root/root      1097 2022-09-21 15:52 usr/include/pangomm-1.4/pangomm/private/fontfamily_p.h
-rw-r--r-- root/root      1073 2022-09-21 15:52 usr/include/pangomm-1.4/pangomm/private/fontmap_p.h
-rw-r--r-- root/root       156 2022-09-21 15:52 usr/include/pangomm-1.4/pangomm/private/fontmetrics_p.h
-rw-r--r-- root/root      1073 2022-09-21 15:52 usr/include/pangomm-1.4/pangomm/private/fontset_p.h
-rw-r--r-- root/root       138 2022-09-21 15:52 usr/include/pangomm-1.4/pangomm/private/glyph_p.h
-rw-r--r-- root/root       156 2022-09-21 15:52 usr/include/pangomm-1.4/pangomm/private/glyphstring_p.h
-rw-r--r-- root/root       135 2022-09-21 15:52 usr/include/pangomm-1.4/pangomm/private/item_p.h
-rw-r--r-- root/root       147 2022-09-21 15:52 usr/include/pangomm-1.4/pangomm/private/language_p.h
-rw-r--r-- root/root      1065 2022-09-21 15:52 usr/include/pangomm-1.4/pangomm/private/layout_p.h
-rw-r--r-- root/root       153 2022-09-21 15:52 usr/include/pangomm-1.4/pangomm/private/layoutiter_p.h
-rw-r--r-- root/root       153 2022-09-21 15:52 usr/include/pangomm-1.4/pangomm/private/layoutline_p.h
-rw-r--r-- root/root       150 2022-09-21 15:52 usr/include/pangomm-1.4/pangomm/private/layoutrun_p.h
-rw-r--r-- root/root       150 2022-09-21 15:52 usr/include/pangomm-1.4/pangomm/private/rectangle_p.h
-rw-r--r-- root/root      1081 2022-09-21 15:52 usr/include/pangomm-1.4/pangomm/private/renderer_p.h
-rw-r--r-- root/root       147 2022-09-21 15:52 usr/include/pangomm-1.4/pangomm/private/tabarray_p.h
-rw-r--r-- root/root      5560 2022-09-21 15:52 usr/include/pangomm-1.4/pangomm/rectangle.h
-rw-r--r-- root/root     14874 2022-09-21 15:52 usr/include/pangomm-1.4/pangomm/renderer.h
-rw-r--r-- root/root      5390 2022-09-21 15:52 usr/include/pangomm-1.4/pangomm/tabarray.h
-rw-r--r-- root/root       954 2022-09-21 15:48 usr/include/pangomm-1.4/pangomm/types.h
-rw-r--r-- root/root      1054 2022-09-21 15:48 usr/include/pangomm-1.4/pangomm/wrap_init.h
drwxr-xr-x root/root         0 2023-10-16 15:21 usr/lib64/
-rwxr-xr-x root/root    211128 2023-10-16 15:21 usr/lib64/libpangomm-1.4.so.1.0.30
drwxr-xr-x root/root         0 2023-10-16 15:21 usr/lib64/pangomm-1.4/
drwxr-xr-x root/root         0 2023-10-16 15:21 usr/lib64/pangomm-1.4/include/
-rw-r--r-- root/root      1140 2023-10-16 15:21 usr/lib64/pangomm-1.4/include/pangommconfig.h
drwxr-xr-x root/root         0 2023-10-16 15:21 usr/lib64/pangomm-1.4/proc/
drwxr-xr-x root/root         0 2023-10-16 15:21 usr/lib64/pangomm-1.4/proc/m4/
-rw-r--r-- root/root       247 2022-09-21 15:48 usr/lib64/pangomm-1.4/proc/m4/convert.m4
-rw-r--r-- root/root      9356 2022-09-21 15:48 usr/lib64/pangomm-1.4/proc/m4/convert_pango.m4
-rw-r--r-- root/root       136 2022-09-21 15:48 usr/lib64/pangomm-1.4/proc/m4/convert_pangomm.m4
drwxr-xr-x root/root         0 2023-10-16 15:21 usr/lib64/pkgconfig/
-rw-r--r-- root/root       632 2023-10-16 15:21 usr/lib64/pkgconfig/pangomm-1.4.pc


