++========================================
||
||   Package:  ./phodav-3.0-x86_64-1_snuk.txz
||
++========================================
drwxr-xr-x root/root         0 2023-10-16 15:18 ./
drwxr-xr-x root/root         0 2023-10-16 15:18 install/
-rw-r--r-- root/root       218 2023-10-16 15:18 install/doinst.sh
-rw-r--r-- root/root       940 2023-10-16 15:18 install/slack-desc
drwxr-xr-x root/root         0 2023-10-16 15:18 lib/
drwxr-xr-x root/root         0 2023-10-16 15:18 lib/udev/
drwxr-xr-x root/root         0 2023-10-16 15:18 lib/udev/rules.d/
-rw-r--r-- root/root       146 2022-07-01 11:34 lib/udev/rules.d/70-spice-webdavd.rules
drwxr-xr-x root/root         0 2023-10-16 15:18 usr/
drwxr-xr-x root/root         0 2023-10-16 15:18 usr/bin/
-rwxr-xr-x root/root     18832 2023-10-16 15:18 usr/bin/chezdav
drwxr-xr-x root/root         0 2023-10-16 15:18 usr/doc/
drwxr-xr-x root/root         0 2023-10-16 15:18 usr/doc/phodav-3.0/
-rw-r--r-- root/root     26530 2022-07-01 11:34 usr/doc/phodav-3.0/COPYING
-rw-r--r-- root/root      2482 2022-07-01 11:34 usr/doc/phodav-3.0/NEWS
-rw-r--r-- root/root       887 2022-07-01 11:34 usr/doc/phodav-3.0/README.md
-rw-r--r-- root/root        94 2022-07-01 11:34 usr/doc/phodav-3.0/TODO
-rw-r--r-- root/root      3363 2023-10-16 15:18 usr/doc/phodav-3.0/phodav.SlackBuild
drwxr-xr-x root/root         0 2023-10-16 15:18 usr/include/
drwxr-xr-x root/root         0 2023-10-16 15:18 usr/include/libphodav-3.0/
drwxr-xr-x root/root         0 2023-10-16 15:18 usr/include/libphodav-3.0/libphodav/
-rw-r--r-- root/root      1816 2022-07-01 11:34 usr/include/libphodav-3.0/libphodav/phodav-server.h
-rw-r--r-- root/root      2052 2022-07-01 11:34 usr/include/libphodav-3.0/libphodav/phodav-virtual-dir.h
-rw-r--r-- root/root       845 2022-07-01 11:34 usr/include/libphodav-3.0/libphodav/phodav.h
drwxr-xr-x root/root         0 2023-10-16 15:18 usr/lib64/
-rwxr-xr-x root/root     73280 2023-10-16 15:18 usr/lib64/libphodav-3.0.so.0.0.0
drwxr-xr-x root/root         0 2023-10-16 15:18 usr/lib64/pkgconfig/
-rw-r--r-- root/root       295 2023-10-16 15:18 usr/lib64/pkgconfig/libphodav-3.0.pc
drwxr-xr-x root/root         0 2023-10-16 15:18 usr/man/
drwxr-xr-x root/root         0 2023-10-16 15:18 usr/man/man1/
-rw-r--r-- root/root      1353 2023-10-16 15:18 usr/man/man1/chezdav.1.gz
drwxr-xr-x root/root         0 2023-10-16 15:18 usr/sbin/
-rwxr-xr-x root/root     23240 2023-10-16 15:18 usr/sbin/spice-webdavd
drwxr-xr-x root/root         0 2023-10-16 15:18 usr/share/
drwxr-xr-x root/root         0 2023-10-16 15:18 usr/share/gtk-doc/
drwxr-xr-x root/root         0 2023-10-16 15:18 usr/share/gtk-doc/html/
drwxr-xr-x root/root         0 2023-10-16 15:18 usr/share/gtk-doc/html/phodav-3.0/
-rw-r--r-- root/root     14040 2023-10-16 15:18 usr/share/gtk-doc/html/phodav-3.0/PhodavServer.html
-rw-r--r-- root/root     21228 2023-10-16 15:18 usr/share/gtk-doc/html/phodav-3.0/PhodavVirtualDir.html
-rw-r--r-- root/root      3157 2023-10-16 15:18 usr/share/gtk-doc/html/phodav-3.0/annotation-glossary.html
-rw-r--r-- root/root      3829 2023-10-16 15:18 usr/share/gtk-doc/html/phodav-3.0/api-2.5.html
-rw-r--r-- root/root      5014 2023-10-16 15:18 usr/share/gtk-doc/html/phodav-3.0/api-index-full.html
-rw-r--r-- root/root      1916 2023-10-16 15:18 usr/share/gtk-doc/html/phodav-3.0/ch01.html
-rw-r--r-- root/root       256 2023-10-16 15:18 usr/share/gtk-doc/html/phodav-3.0/home.png
-rw-r--r-- root/root      2023 2023-10-16 15:18 usr/share/gtk-doc/html/phodav-3.0/index.html
-rw-r--r-- root/root       395 2023-10-16 15:18 usr/share/gtk-doc/html/phodav-3.0/left-insensitive.png
-rw-r--r-- root/root       262 2023-10-16 15:18 usr/share/gtk-doc/html/phodav-3.0/left.png
-rw-r--r-- root/root      2280 2023-10-16 15:18 usr/share/gtk-doc/html/phodav-3.0/object-tree.html
-rw-r--r-- root/root      2380 2023-10-16 15:18 usr/share/gtk-doc/html/phodav-3.0/phodav-3.0.devhelp2
-rw-r--r-- root/root       373 2023-10-16 15:18 usr/share/gtk-doc/html/phodav-3.0/right-insensitive.png
-rw-r--r-- root/root       261 2023-10-16 15:18 usr/share/gtk-doc/html/phodav-3.0/right.png
-rw-r--r-- root/root     12017 2023-10-16 15:18 usr/share/gtk-doc/html/phodav-3.0/style.css
-rw-r--r-- root/root       374 2023-10-16 15:18 usr/share/gtk-doc/html/phodav-3.0/up-insensitive.png
-rw-r--r-- root/root       260 2023-10-16 15:18 usr/share/gtk-doc/html/phodav-3.0/up.png
drwxr-xr-x root/root         0 2023-10-16 15:18 usr/share/locale/
drwxr-xr-x root/root         0 2023-10-16 15:18 usr/share/locale/bs/
drwxr-xr-x root/root         0 2023-10-16 15:18 usr/share/locale/bs/LC_MESSAGES/
-rw-r--r-- root/root      1128 2023-10-16 15:18 usr/share/locale/bs/LC_MESSAGES/phodav-3.0.mo
drwxr-xr-x root/root         0 2023-10-16 15:18 usr/share/locale/cs/
drwxr-xr-x root/root         0 2023-10-16 15:18 usr/share/locale/cs/LC_MESSAGES/
-rw-r--r-- root/root      1890 2023-10-16 15:18 usr/share/locale/cs/LC_MESSAGES/phodav-3.0.mo
drwxr-xr-x root/root         0 2023-10-16 15:18 usr/share/locale/da/
drwxr-xr-x root/root         0 2023-10-16 15:18 usr/share/locale/da/LC_MESSAGES/
-rw-r--r-- root/root      1804 2023-10-16 15:18 usr/share/locale/da/LC_MESSAGES/phodav-3.0.mo
drwxr-xr-x root/root         0 2023-10-16 15:18 usr/share/locale/de/
drwxr-xr-x root/root         0 2023-10-16 15:18 usr/share/locale/de/LC_MESSAGES/
-rw-r--r-- root/root      1846 2023-10-16 15:18 usr/share/locale/de/LC_MESSAGES/phodav-3.0.mo
drwxr-xr-x root/root         0 2023-10-16 15:18 usr/share/locale/el/
drwxr-xr-x root/root         0 2023-10-16 15:18 usr/share/locale/el/LC_MESSAGES/
-rw-r--r-- root/root      1291 2023-10-16 15:18 usr/share/locale/el/LC_MESSAGES/phodav-3.0.mo
drwxr-xr-x root/root         0 2023-10-16 15:18 usr/share/locale/es/
drwxr-xr-x root/root         0 2023-10-16 15:18 usr/share/locale/es/LC_MESSAGES/
-rw-r--r-- root/root      1838 2023-10-16 15:18 usr/share/locale/es/LC_MESSAGES/phodav-3.0.mo
drwxr-xr-x root/root         0 2023-10-16 15:18 usr/share/locale/eu/
drwxr-xr-x root/root         0 2023-10-16 15:18 usr/share/locale/eu/LC_MESSAGES/
-rw-r--r-- root/root      1883 2023-10-16 15:18 usr/share/locale/eu/LC_MESSAGES/phodav-3.0.mo
drwxr-xr-x root/root         0 2023-10-16 15:18 usr/share/locale/fi/
drwxr-xr-x root/root         0 2023-10-16 15:18 usr/share/locale/fi/LC_MESSAGES/
-rw-r--r-- root/root      1782 2023-10-16 15:18 usr/share/locale/fi/LC_MESSAGES/phodav-3.0.mo
drwxr-xr-x root/root         0 2023-10-16 15:18 usr/share/locale/fur/
drwxr-xr-x root/root         0 2023-10-16 15:18 usr/share/locale/fur/LC_MESSAGES/
-rw-r--r-- root/root      1691 2023-10-16 15:18 usr/share/locale/fur/LC_MESSAGES/phodav-3.0.mo
drwxr-xr-x root/root         0 2023-10-16 15:18 usr/share/locale/hr/
drwxr-xr-x root/root         0 2023-10-16 15:18 usr/share/locale/hr/LC_MESSAGES/
-rw-r--r-- root/root      1851 2023-10-16 15:18 usr/share/locale/hr/LC_MESSAGES/phodav-3.0.mo
drwxr-xr-x root/root         0 2023-10-16 15:18 usr/share/locale/hu/
drwxr-xr-x root/root         0 2023-10-16 15:18 usr/share/locale/hu/LC_MESSAGES/
-rw-r--r-- root/root      1905 2023-10-16 15:18 usr/share/locale/hu/LC_MESSAGES/phodav-3.0.mo
drwxr-xr-x root/root         0 2023-10-16 15:18 usr/share/locale/id/
drwxr-xr-x root/root         0 2023-10-16 15:18 usr/share/locale/id/LC_MESSAGES/
-rw-r--r-- root/root      1686 2023-10-16 15:18 usr/share/locale/id/LC_MESSAGES/phodav-3.0.mo
drwxr-xr-x root/root         0 2023-10-16 15:18 usr/share/locale/nl/
drwxr-xr-x root/root         0 2023-10-16 15:18 usr/share/locale/nl/LC_MESSAGES/
-rw-r--r-- root/root      1818 2023-10-16 15:18 usr/share/locale/nl/LC_MESSAGES/phodav-3.0.mo
drwxr-xr-x root/root         0 2023-10-16 15:18 usr/share/locale/pl/
drwxr-xr-x root/root         0 2023-10-16 15:18 usr/share/locale/pl/LC_MESSAGES/
-rw-r--r-- root/root      2038 2023-10-16 15:18 usr/share/locale/pl/LC_MESSAGES/phodav-3.0.mo
drwxr-xr-x root/root         0 2023-10-16 15:18 usr/share/locale/pt/
drwxr-xr-x root/root         0 2023-10-16 15:18 usr/share/locale/pt/LC_MESSAGES/
-rw-r--r-- root/root      1073 2023-10-16 15:18 usr/share/locale/pt/LC_MESSAGES/phodav-3.0.mo
drwxr-xr-x root/root         0 2023-10-16 15:18 usr/share/locale/pt_BR/
drwxr-xr-x root/root         0 2023-10-16 15:18 usr/share/locale/pt_BR/LC_MESSAGES/
-rw-r--r-- root/root      1830 2023-10-16 15:18 usr/share/locale/pt_BR/LC_MESSAGES/phodav-3.0.mo
drwxr-xr-x root/root         0 2023-10-16 15:18 usr/share/locale/ro/
drwxr-xr-x root/root         0 2023-10-16 15:18 usr/share/locale/ro/LC_MESSAGES/
-rw-r--r-- root/root      1826 2023-10-16 15:18 usr/share/locale/ro/LC_MESSAGES/phodav-3.0.mo
drwxr-xr-x root/root         0 2023-10-16 15:18 usr/share/locale/sl/
drwxr-xr-x root/root         0 2023-10-16 15:18 usr/share/locale/sl/LC_MESSAGES/
-rw-r--r-- root/root      1906 2023-10-16 15:18 usr/share/locale/sl/LC_MESSAGES/phodav-3.0.mo
drwxr-xr-x root/root         0 2023-10-16 15:18 usr/share/locale/sr/
drwxr-xr-x root/root         0 2023-10-16 15:18 usr/share/locale/sr/LC_MESSAGES/
-rw-r--r-- root/root      2411 2023-10-16 15:18 usr/share/locale/sr/LC_MESSAGES/phodav-3.0.mo
drwxr-xr-x root/root         0 2023-10-16 15:18 usr/share/locale/sr@latin/
drwxr-xr-x root/root         0 2023-10-16 15:18 usr/share/locale/sr@latin/LC_MESSAGES/
-rw-r--r-- root/root      1912 2023-10-16 15:18 usr/share/locale/sr@latin/LC_MESSAGES/phodav-3.0.mo
drwxr-xr-x root/root         0 2023-10-16 15:18 usr/share/locale/sv/
drwxr-xr-x root/root         0 2023-10-16 15:18 usr/share/locale/sv/LC_MESSAGES/
-rw-r--r-- root/root      1887 2023-10-16 15:18 usr/share/locale/sv/LC_MESSAGES/phodav-3.0.mo
drwxr-xr-x root/root         0 2023-10-16 15:18 usr/share/locale/tr/
drwxr-xr-x root/root         0 2023-10-16 15:18 usr/share/locale/tr/LC_MESSAGES/
-rw-r--r-- root/root      1760 2023-10-16 15:18 usr/share/locale/tr/LC_MESSAGES/phodav-3.0.mo
drwxr-xr-x root/root         0 2023-10-16 15:18 usr/share/locale/uk/
drwxr-xr-x root/root         0 2023-10-16 15:18 usr/share/locale/uk/LC_MESSAGES/
-rw-r--r-- root/root      2516 2023-10-16 15:18 usr/share/locale/uk/LC_MESSAGES/phodav-3.0.mo
drwxr-xr-x root/root         0 2023-10-16 15:18 usr/share/locale/zh_CN/
drwxr-xr-x root/root         0 2023-10-16 15:18 usr/share/locale/zh_CN/LC_MESSAGES/
-rw-r--r-- root/root      1757 2023-10-16 15:18 usr/share/locale/zh_CN/LC_MESSAGES/phodav-3.0.mo


