++========================================
||
||   Package:  ./poppler-22.06.0-x86_64-1_snuk.txz
||
++========================================
drwxr-xr-x root/root         0 2023-10-16 11:58 ./
drwxr-xr-x root/root         0 2023-10-16 11:58 install/
-rw-r--r-- root/root      1011 2023-10-16 11:58 install/doinst.sh
-rw-r--r-- root/root       988 2023-10-16 11:58 install/slack-desc
drwxr-xr-x root/root         0 2023-10-16 11:58 usr/
drwxr-xr-x root/root         0 2023-10-16 11:58 usr/bin/
-rwxr-xr-x root/root     18808 2023-10-16 11:58 usr/bin/pdfattach
-rwxr-xr-x root/root     23040 2023-10-16 11:58 usr/bin/pdffonts
-rwxr-xr-x root/root     43744 2023-10-16 11:58 usr/bin/pdfimages
-rwxr-xr-x root/root     60384 2023-10-16 11:58 usr/bin/pdfinfo
-rwxr-xr-x root/root     18784 2023-10-16 11:58 usr/bin/pdfseparate
-rwxr-xr-x root/root     35896 2023-10-16 11:58 usr/bin/pdfsig
-rwxr-xr-x root/root    152128 2023-10-16 11:58 usr/bin/pdftocairo
-rwxr-xr-x root/root    109552 2023-10-16 11:58 usr/bin/pdftohtml
-rwxr-xr-x root/root     31264 2023-10-16 11:58 usr/bin/pdftoppm
-rwxr-xr-x root/root     31272 2023-10-16 11:58 usr/bin/pdftops
-rwxr-xr-x root/root     47912 2023-10-16 11:58 usr/bin/pdftotext
-rwxr-xr-x root/root     31296 2023-10-16 11:58 usr/bin/pdfunite
drwxr-xr-x root/root         0 2023-10-16 11:58 usr/doc/
drwxr-xr-x root/root         0 2023-10-16 11:58 usr/doc/poppler-22.06.0/
-rw-r--r-- root/root       145 2022-06-01 16:00 usr/doc/poppler-22.06.0/AUTHORS
-rw-r--r-- root/root     17987 2022-06-01 16:00 usr/doc/poppler-22.06.0/COPYING
-rw-r--r-- root/root     35147 2022-06-01 16:00 usr/doc/poppler-22.06.0/COPYING3
-rw-r--r-- root/root     31471 2022-06-01 16:09 usr/doc/poppler-22.06.0/ChangeLog
-rw-r--r-- root/root      2613 2022-06-01 16:00 usr/doc/poppler-22.06.0/INSTALL
-rw-r--r-- root/root    149688 2022-06-01 16:00 usr/doc/poppler-22.06.0/NEWS
-rw-r--r-- root/root     15147 2022-06-01 16:00 usr/doc/poppler-22.06.0/README-XPDF
-rw-r--r-- root/root      2192 2022-06-01 16:00 usr/doc/poppler-22.06.0/README.contributors
-rw-r--r-- root/root      4702 2022-06-01 16:00 usr/doc/poppler-22.06.0/README.md
drwxr-xr-x root/root         0 2023-10-16 11:58 usr/include/
drwxr-xr-x root/root         0 2023-10-16 11:58 usr/include/poppler/
-rw-r--r-- root/root     59982 2022-06-01 16:00 usr/include/poppler/Annot.h
-rw-r--r-- root/root      2170 2022-06-01 16:00 usr/include/poppler/AnnotStampImageHelper.h
-rw-r--r-- root/root      2694 2022-06-01 16:00 usr/include/poppler/Array.h
-rw-r--r-- root/root      2384 2022-06-01 16:00 usr/include/poppler/BBoxOutputDev.h
-rw-r--r-- root/root      4686 2022-06-01 16:00 usr/include/poppler/CMap.h
-rw-r--r-- root/root      4211 2022-06-01 16:00 usr/include/poppler/CachedFile.h
-rw-r--r-- root/root      4667 2022-06-01 16:00 usr/include/poppler/CairoFontEngine.h
-rw-r--r-- root/root     20393 2022-06-01 16:00 usr/include/poppler/CairoOutputDev.h
-rw-r--r-- root/root      2535 2022-06-01 16:00 usr/include/poppler/CairoRescaleBox.h
-rw-r--r-- root/root     10674 2022-06-01 16:00 usr/include/poppler/Catalog.h
-rw-r--r-- root/root      3389 2022-06-01 16:00 usr/include/poppler/CertificateInfo.h
-rw-r--r-- root/root      5235 2022-06-01 16:00 usr/include/poppler/CharCodeToUnicode.h
-rw-r--r-- root/root       526 2022-06-01 16:00 usr/include/poppler/CharTypes.h
-rw-r--r-- root/root       932 2022-06-01 16:00 usr/include/poppler/CurlCachedFile.h
-rw-r--r-- root/root      1082 2022-06-01 16:00 usr/include/poppler/CurlPDFDocBuilder.h
-rw-r--r-- root/root      1562 2022-06-01 16:00 usr/include/poppler/DateInfo.h
-rw-r--r-- root/root      5229 2022-06-01 16:00 usr/include/poppler/Decrypt.h
-rw-r--r-- root/root      4807 2022-06-01 16:00 usr/include/poppler/Dict.h
-rw-r--r-- root/root      2287 2022-06-01 16:00 usr/include/poppler/Error.h
-rw-r--r-- root/root      1994 2022-06-01 16:00 usr/include/poppler/ErrorCodes.h
-rw-r--r-- root/root      1244 2022-06-01 16:00 usr/include/poppler/FDPDFDocBuilder.h
-rw-r--r-- root/root       871 2022-06-01 16:00 usr/include/poppler/FILECacheLoader.h
-rw-r--r-- root/root      2463 2022-06-01 16:00 usr/include/poppler/FileSpec.h
-rw-r--r-- root/root       564 2022-06-01 16:00 usr/include/poppler/FontEncodingTables.h
-rw-r--r-- root/root      3049 2022-06-01 16:00 usr/include/poppler/FontInfo.h
-rw-r--r-- root/root     28029 2022-06-01 16:00 usr/include/poppler/Form.h
-rw-r--r-- root/root      8298 2022-06-01 16:00 usr/include/poppler/Function.h
-rw-r--r-- root/root     14233 2022-06-01 16:00 usr/include/poppler/Gfx.h
-rw-r--r-- root/root     15850 2022-06-01 16:00 usr/include/poppler/GfxFont.h
-rw-r--r-- root/root     65473 2022-06-01 16:00 usr/include/poppler/GfxState.h
-rw-r--r-- root/root      2615 2022-06-01 16:00 usr/include/poppler/GfxState_helpers.h
-rw-r--r-- root/root      8614 2022-06-01 16:00 usr/include/poppler/GlobalParams.h
-rw-r--r-- root/root      2412 2022-06-01 16:00 usr/include/poppler/Hints.h
-rw-r--r-- root/root      3970 2022-06-01 16:00 usr/include/poppler/JArithmeticDecoder.h
-rw-r--r-- root/root      6244 2022-06-01 16:00 usr/include/poppler/JBIG2Stream.h
-rw-r--r-- root/root      1552 2022-06-01 16:00 usr/include/poppler/JPEG2000Stream.h
-rw-r--r-- root/root      1796 2022-06-01 16:00 usr/include/poppler/JSInfo.h
-rw-r--r-- root/root      3589 2022-06-01 16:00 usr/include/poppler/Lexer.h
-rw-r--r-- root/root      1117 2022-06-01 16:00 usr/include/poppler/Linearization.h
-rw-r--r-- root/root     16927 2022-06-01 16:00 usr/include/poppler/Link.h
-rw-r--r-- root/root      1088 2022-06-01 16:00 usr/include/poppler/LocalPDFDocBuilder.h
-rw-r--r-- root/root      3567 2022-06-01 16:00 usr/include/poppler/MarkedContentOutputDev.h
-rw-r--r-- root/root      3437 2022-06-01 16:00 usr/include/poppler/Movie.h
-rw-r--r-- root/root      1356 2022-06-01 16:00 usr/include/poppler/NameToCharCode.h
-rw-r--r-- root/root    393493 2022-06-01 16:00 usr/include/poppler/NameToUnicodeTable.h
-rw-r--r-- root/root     21866 2022-06-01 16:00 usr/include/poppler/Object.h
-rw-r--r-- root/root      3161 2022-06-01 16:00 usr/include/poppler/OptionalContent.h
-rw-r--r-- root/root      3819 2022-06-01 16:00 usr/include/poppler/Outline.h
-rw-r--r-- root/root     18440 2022-06-01 16:00 usr/include/poppler/OutputDev.h
-rw-r--r-- root/root     20171 2022-06-01 16:00 usr/include/poppler/PDFDoc.h
-rw-r--r-- root/root      1558 2022-06-01 16:00 usr/include/poppler/PDFDocBuilder.h
-rw-r--r-- root/root      1205 2022-06-01 16:00 usr/include/poppler/PDFDocEncoding.h
-rw-r--r-- root/root      2001 2022-06-01 16:00 usr/include/poppler/PDFDocFactory.h
-rw-r--r-- root/root     25748 2022-06-01 16:00 usr/include/poppler/PSOutputDev.h
-rw-r--r-- root/root      1269 2022-06-01 16:00 usr/include/poppler/PSTokenizer.h
-rw-r--r-- root/root     10844 2022-06-01 16:00 usr/include/poppler/Page.h
-rw-r--r-- root/root      3060 2022-06-01 16:00 usr/include/poppler/PageTransition.h
-rw-r--r-- root/root      2673 2022-06-01 16:00 usr/include/poppler/Parser.h
-rw-r--r-- root/root      1774 2022-06-01 16:00 usr/include/poppler/PopplerCache.h
-rw-r--r-- root/root      6356 2022-06-01 16:00 usr/include/poppler/PreScanOutputDev.h
-rw-r--r-- root/root       996 2022-06-01 16:00 usr/include/poppler/ProfileData.h
-rw-r--r-- root/root      4500 2022-06-01 16:00 usr/include/poppler/Rendition.h
-rw-r--r-- root/root      4852 2022-06-01 16:00 usr/include/poppler/SecurityHandler.h
-rw-r--r-- root/root      2412 2022-06-01 16:00 usr/include/poppler/Sound.h
-rw-r--r-- root/root     16846 2022-06-01 16:00 usr/include/poppler/SplashOutputDev.h
-rw-r--r-- root/root     24043 2022-06-01 16:00 usr/include/poppler/Stream-CCITT.h
-rw-r--r-- root/root     48361 2022-06-01 16:00 usr/include/poppler/Stream.h
-rw-r--r-- root/root     11747 2022-06-01 16:00 usr/include/poppler/StructElement.h
-rw-r--r-- root/root      2519 2022-06-01 16:00 usr/include/poppler/StructTreeRoot.h
-rw-r--r-- root/root     34446 2022-06-01 16:00 usr/include/poppler/TextOutputDev.h
-rw-r--r-- root/root      5405 2022-06-01 16:00 usr/include/poppler/UTF.h
-rw-r--r-- root/root    107117 2022-06-01 16:00 usr/include/poppler/UnicodeCClassTables.h
-rw-r--r-- root/root     40811 2022-06-01 16:00 usr/include/poppler/UnicodeCompTables.h
-rw-r--r-- root/root    265927 2022-06-01 16:00 usr/include/poppler/UnicodeDecompTables.h
-rw-r--r-- root/root      3848 2022-06-01 16:00 usr/include/poppler/UnicodeMap.h
-rw-r--r-- root/root      1148 2022-06-01 16:00 usr/include/poppler/UnicodeMapFuncs.h
-rw-r--r-- root/root     12268 2022-06-01 16:00 usr/include/poppler/UnicodeMapTables.h
-rw-r--r-- root/root      1632 2022-06-01 16:00 usr/include/poppler/UnicodeTypeTable.h
-rw-r--r-- root/root      2486 2022-06-01 16:00 usr/include/poppler/ViewerPreferences.h
-rw-r--r-- root/root     12303 2022-06-01 16:00 usr/include/poppler/XRef.h
drwxr-xr-x root/root         0 2023-10-16 11:58 usr/include/poppler/cpp/
-rw-r--r-- root/root      1765 2022-06-01 16:00 usr/include/poppler/cpp/poppler-destination.h
-rw-r--r-- root/root      4763 2022-06-01 16:00 usr/include/poppler/cpp/poppler-document.h
-rw-r--r-- root/root      1643 2022-06-01 16:00 usr/include/poppler/cpp/poppler-embedded-file.h
-rw-r--r-- root/root      2150 2022-06-01 16:00 usr/include/poppler/cpp/poppler-font-private.h
-rw-r--r-- root/root      2214 2022-06-01 16:00 usr/include/poppler/cpp/poppler-font.h
-rw-r--r-- root/root      3379 2022-06-01 16:00 usr/include/poppler/cpp/poppler-global.h
-rw-r--r-- root/root      1922 2022-06-01 16:00 usr/include/poppler/cpp/poppler-image.h
-rw-r--r-- root/root      2103 2022-06-01 16:00 usr/include/poppler/cpp/poppler-page-renderer.h
-rw-r--r-- root/root      1949 2022-06-01 16:00 usr/include/poppler/cpp/poppler-page-transition.h
-rw-r--r-- root/root      5966 2022-06-01 16:00 usr/include/poppler/cpp/poppler-page.h
-rw-r--r-- root/root      1872 2022-06-01 16:00 usr/include/poppler/cpp/poppler-rectangle.h
-rw-r--r-- root/root      1607 2022-06-01 16:00 usr/include/poppler/cpp/poppler-toc.h
-rw-r--r-- root/root      1208 2023-10-16 11:54 usr/include/poppler/cpp/poppler-version.h
-rw-r--r-- root/root      1127 2023-10-16 11:54 usr/include/poppler/cpp/poppler_cpp_export.h
drwxr-xr-x root/root         0 2023-10-16 11:58 usr/include/poppler/fofi/
-rw-r--r-- root/root      2113 2022-06-01 16:00 usr/include/poppler/fofi/FoFiBase.h
-rw-r--r-- root/root      1569 2022-06-01 16:00 usr/include/poppler/fofi/FoFiEncodings.h
-rw-r--r-- root/root      1748 2022-06-01 16:00 usr/include/poppler/fofi/FoFiIdentifier.h
-rw-r--r-- root/root      8497 2022-06-01 16:00 usr/include/poppler/fofi/FoFiTrueType.h
-rw-r--r-- root/root      2050 2022-06-01 16:00 usr/include/poppler/fofi/FoFiType1.h
-rw-r--r-- root/root      8866 2022-06-01 16:00 usr/include/poppler/fofi/FoFiType1C.h
drwxr-xr-x root/root         0 2023-10-16 11:58 usr/include/poppler/glib/
-rw-r--r-- root/root     12195 2022-06-01 16:00 usr/include/poppler/glib/poppler-action.h
-rw-r--r-- root/root     14021 2022-06-01 16:00 usr/include/poppler/glib/poppler-annot.h
-rw-r--r-- root/root      4592 2022-06-01 16:00 usr/include/poppler/glib/poppler-attachment.h
-rw-r--r-- root/root      1040 2022-06-01 16:00 usr/include/poppler/glib/poppler-date.h
-rw-r--r-- root/root     21732 2022-06-01 16:00 usr/include/poppler/glib/poppler-document.h
-rw-r--r-- root/root      9017 2023-10-16 11:55 usr/include/poppler/glib/poppler-enums.h
-rw-r--r-- root/root      2697 2023-10-16 11:54 usr/include/poppler/glib/poppler-features.h
-rw-r--r-- root/root     10111 2022-06-01 16:00 usr/include/poppler/glib/poppler-form-field.h
-rw-r--r-- root/root      1713 2022-06-01 16:00 usr/include/poppler/glib/poppler-layer.h
-rw-r--r-- root/root      1111 2023-10-16 11:54 usr/include/poppler/glib/poppler-macros.h
-rw-r--r-- root/root      3114 2022-06-01 16:00 usr/include/poppler/glib/poppler-media.h
-rw-r--r-- root/root      3061 2022-06-01 16:00 usr/include/poppler/glib/poppler-movie.h
-rw-r--r-- root/root     14387 2022-06-01 16:00 usr/include/poppler/glib/poppler-page.h
-rw-r--r-- root/root     16878 2022-06-01 16:00 usr/include/poppler/glib/poppler-structure-element.h
-rw-r--r-- root/root      9589 2022-06-01 16:00 usr/include/poppler/glib/poppler.h
drwxr-xr-x root/root         0 2023-10-16 11:58 usr/include/poppler/goo/
-rw-r--r-- root/root      3544 2022-06-01 16:00 usr/include/poppler/goo/GooCheckedOps.h
-rw-r--r-- root/root       556 2022-06-01 16:00 usr/include/poppler/goo/GooLikely.h
-rw-r--r-- root/root     10300 2022-06-01 16:00 usr/include/poppler/goo/GooString.h
-rw-r--r-- root/root      1412 2022-06-01 16:00 usr/include/poppler/goo/GooTimer.h
-rw-r--r-- root/root      1154 2022-06-01 16:00 usr/include/poppler/goo/ImgWriter.h
-rw-r--r-- root/root      1917 2022-06-01 16:00 usr/include/poppler/goo/JpegWriter.h
-rw-r--r-- root/root      1705 2022-06-01 16:00 usr/include/poppler/goo/PNGWriter.h
-rw-r--r-- root/root      1801 2022-06-01 16:00 usr/include/poppler/goo/TiffWriter.h
-rw-r--r-- root/root      2779 2022-06-01 16:00 usr/include/poppler/goo/gdir.h
-rw-r--r-- root/root      4798 2022-06-01 16:00 usr/include/poppler/goo/gfile.h
-rw-r--r-- root/root      4825 2022-06-01 16:00 usr/include/poppler/goo/gmem.h
-rw-r--r-- root/root       441 2022-06-01 16:00 usr/include/poppler/goo/grandom.h
-rw-r--r-- root/root      1505 2022-06-01 16:00 usr/include/poppler/goo/gstrtod.h
-rw-r--r-- root/root      4424 2023-10-16 11:54 usr/include/poppler/poppler-config.h
-rw-r--r-- root/root      1215 2023-10-16 11:54 usr/include/poppler/poppler_private_export.h
drwxr-xr-x root/root         0 2023-10-16 11:58 usr/include/poppler/qt5/
-rw-r--r-- root/root     42001 2022-06-01 16:00 usr/include/poppler/qt5/poppler-annotation.h
-rw-r--r-- root/root      1127 2023-10-16 11:54 usr/include/poppler/qt5/poppler-export.h
-rw-r--r-- root/root     21468 2022-06-01 16:00 usr/include/poppler/qt5/poppler-form.h
-rw-r--r-- root/root     17472 2022-06-01 16:00 usr/include/poppler/qt5/poppler-link.h
-rw-r--r-- root/root      2379 2022-06-01 16:00 usr/include/poppler/qt5/poppler-media.h
-rw-r--r-- root/root      2666 2022-06-01 16:00 usr/include/poppler/qt5/poppler-optcontent.h
-rw-r--r-- root/root      4535 2022-06-01 16:00 usr/include/poppler/qt5/poppler-page-transition.h
-rw-r--r-- root/root     71445 2022-06-01 16:00 usr/include/poppler/qt5/poppler-qt5.h
-rw-r--r-- root/root      1871 2023-10-16 11:54 usr/include/poppler/qt5/poppler-version.h
drwxr-xr-x root/root         0 2023-10-16 11:58 usr/include/poppler/splash/
-rw-r--r-- root/root     16400 2022-06-01 16:00 usr/include/poppler/splash/Splash.h
-rw-r--r-- root/root      5261 2022-06-01 16:00 usr/include/poppler/splash/SplashBitmap.h
-rw-r--r-- root/root      4341 2022-06-01 16:00 usr/include/poppler/splash/SplashClip.h
-rw-r--r-- root/root      1479 2022-06-01 16:00 usr/include/poppler/splash/SplashErrorCodes.h
-rw-r--r-- root/root      2350 2022-06-01 16:00 usr/include/poppler/splash/SplashFTFont.h
-rw-r--r-- root/root      2681 2022-06-01 16:00 usr/include/poppler/splash/SplashFTFontEngine.h
-rw-r--r-- root/root      2329 2022-06-01 16:00 usr/include/poppler/splash/SplashFTFontFile.h
-rw-r--r-- root/root      4448 2022-06-01 16:00 usr/include/poppler/splash/SplashFont.h
-rw-r--r-- root/root      3400 2022-06-01 16:00 usr/include/poppler/splash/SplashFontEngine.h
-rw-r--r-- root/root      2562 2022-06-01 16:00 usr/include/poppler/splash/SplashFontFile.h
-rw-r--r-- root/root      1292 2022-06-01 16:00 usr/include/poppler/splash/SplashFontFileID.h
-rw-r--r-- root/root       690 2022-06-01 16:00 usr/include/poppler/splash/SplashGlyphBitmap.h
-rw-r--r-- root/root      6319 2022-06-01 16:00 usr/include/poppler/splash/SplashMath.h
-rw-r--r-- root/root      4359 2022-06-01 16:00 usr/include/poppler/splash/SplashPath.h
-rw-r--r-- root/root      3390 2022-06-01 16:00 usr/include/poppler/splash/SplashPattern.h
-rw-r--r-- root/root      2742 2022-06-01 16:00 usr/include/poppler/splash/SplashScreen.h
-rw-r--r-- root/root      4409 2022-06-01 16:00 usr/include/poppler/splash/SplashState.h
-rw-r--r-- root/root      6938 2022-06-01 16:00 usr/include/poppler/splash/SplashTypes.h
-rw-r--r-- root/root      3707 2022-06-01 16:00 usr/include/poppler/splash/SplashXPath.h
-rw-r--r-- root/root      4277 2022-06-01 16:00 usr/include/poppler/splash/SplashXPathScanner.h
drwxr-xr-x root/root         0 2023-10-16 11:58 usr/lib64/
drwxr-xr-x root/root         0 2023-10-16 11:58 usr/lib64/girepository-1.0/
-rw-r--r-- root/root     72644 2023-10-16 11:56 usr/lib64/girepository-1.0/Poppler-0.18.typelib
-rwxr-xr-x root/root    109992 2023-10-16 11:58 usr/lib64/libpoppler-cpp.so.0.10.0
-rwxr-xr-x root/root    441672 2023-10-16 11:58 usr/lib64/libpoppler-glib.so.8.23.0
-rwxr-xr-x root/root    571032 2023-10-16 11:58 usr/lib64/libpoppler-qt5.so.1.31.0
-rwxr-xr-x root/root   3751424 2023-10-16 11:58 usr/lib64/libpoppler.so.122.0.0
drwxr-xr-x root/root         0 2023-10-16 11:58 usr/lib64/pkgconfig/
-rw-r--r-- root/root       265 2023-10-16 11:54 usr/lib64/pkgconfig/poppler-cpp.pc
-rw-r--r-- root/root       300 2023-10-16 11:54 usr/lib64/pkgconfig/poppler-glib.pc
-rw-r--r-- root/root       244 2023-10-16 11:54 usr/lib64/pkgconfig/poppler-qt5.pc
-rw-r--r-- root/root       182 2023-10-16 11:54 usr/lib64/pkgconfig/poppler.pc
drwxr-xr-x root/root         0 2023-10-16 11:58 usr/man/
drwxr-xr-x root/root         0 2023-10-16 11:58 usr/man/man1/
-rw-r--r-- root/root       571 2022-06-01 16:00 usr/man/man1/pdfattach.1.gz
-rw-r--r-- root/root      1079 2022-06-01 16:00 usr/man/man1/pdffonts.1.gz
-rw-r--r-- root/root      2424 2022-06-01 16:00 usr/man/man1/pdfimages.1.gz
-rw-r--r-- root/root      1681 2022-06-01 16:00 usr/man/man1/pdfinfo.1.gz
-rw-r--r-- root/root       744 2022-06-01 16:00 usr/man/man1/pdfseparate.1.gz
-rw-r--r-- root/root      1701 2022-06-01 16:00 usr/man/man1/pdfsig.1.gz
-rw-r--r-- root/root      3928 2022-06-01 16:00 usr/man/man1/pdftocairo.1.gz
-rw-r--r-- root/root      1345 2022-06-01 16:00 usr/man/man1/pdftohtml.1.gz
-rw-r--r-- root/root      2343 2022-06-01 16:00 usr/man/man1/pdftoppm.1.gz
-rw-r--r-- root/root      3127 2022-06-01 16:00 usr/man/man1/pdftops.1.gz
-rw-r--r-- root/root      1700 2022-06-01 16:00 usr/man/man1/pdftotext.1.gz
-rw-r--r-- root/root       586 2022-06-01 16:00 usr/man/man1/pdfunite.1.gz
drwxr-xr-x root/root         0 2023-10-16 11:58 usr/share/
drwxr-xr-x root/root         0 2023-10-16 11:58 usr/share/gir-1.0/
-rw-r--r-- root/root    654122 2023-10-16 11:56 usr/share/gir-1.0/Poppler-0.18.gir
drwxr-xr-x root/root         0 2023-10-16 11:58 usr/share/gtk-doc/
drwxr-xr-x root/root         0 2023-10-16 11:58 usr/share/gtk-doc/html/
drwxr-xr-x root/root         0 2023-10-16 11:58 usr/share/gtk-doc/html/poppler/
-rw-r--r-- root/root     54631 2023-10-16 11:57 usr/share/gtk-doc/html/poppler/PopplerAction.html
-rw-r--r-- root/root     34377 2023-10-16 11:57 usr/share/gtk-doc/html/poppler/PopplerAttachment.html
-rw-r--r-- root/root    270617 2023-10-16 11:57 usr/share/gtk-doc/html/poppler/PopplerDocument.html
-rw-r--r-- root/root    108934 2023-10-16 11:57 usr/share/gtk-doc/html/poppler/PopplerFormField.html
-rw-r--r-- root/root    193604 2023-10-16 11:57 usr/share/gtk-doc/html/poppler/PopplerStructureElement.html
-rw-r--r-- root/root      4756 2023-10-16 11:57 usr/share/gtk-doc/html/poppler/annotation-glossary.html
-rw-r--r-- root/root      7896 2023-10-16 11:57 usr/share/gtk-doc/html/poppler/api-index-0-12.html
-rw-r--r-- root/root      7402 2023-10-16 11:57 usr/share/gtk-doc/html/poppler/api-index-0-14.html
-rw-r--r-- root/root     12024 2023-10-16 11:57 usr/share/gtk-doc/html/poppler/api-index-0-16.html
-rw-r--r-- root/root      4842 2023-10-16 11:57 usr/share/gtk-doc/html/poppler/api-index-0-18.html
-rw-r--r-- root/root      2365 2023-10-16 11:57 usr/share/gtk-doc/html/poppler/api-index-0-20.html
-rw-r--r-- root/root      3868 2023-10-16 11:57 usr/share/gtk-doc/html/poppler/api-index-0-22.html
-rw-r--r-- root/root     33043 2023-10-16 11:57 usr/share/gtk-doc/html/poppler/api-index-0-26.html
-rw-r--r-- root/root      2115 2023-10-16 11:57 usr/share/gtk-doc/html/poppler/api-index-0-33.html
-rw-r--r-- root/root      3985 2023-10-16 11:57 usr/share/gtk-doc/html/poppler/api-index-0-46.html
-rw-r--r-- root/root      2310 2023-10-16 11:57 usr/share/gtk-doc/html/poppler/api-index-0-54.html
-rw-r--r-- root/root      3790 2023-10-16 11:57 usr/share/gtk-doc/html/poppler/api-index-0-70.html
-rw-r--r-- root/root      2516 2023-10-16 11:57 usr/share/gtk-doc/html/poppler/api-index-0-72.html
-rw-r--r-- root/root      3545 2023-10-16 11:57 usr/share/gtk-doc/html/poppler/api-index-0-73.html
-rw-r--r-- root/root      2075 2023-10-16 11:57 usr/share/gtk-doc/html/poppler/api-index-0-78.html
-rw-r--r-- root/root      5603 2023-10-16 11:57 usr/share/gtk-doc/html/poppler/api-index-0-80.html
-rw-r--r-- root/root      2066 2023-10-16 11:57 usr/share/gtk-doc/html/poppler/api-index-0-82.html
-rw-r--r-- root/root      2097 2023-10-16 11:57 usr/share/gtk-doc/html/poppler/api-index-0-88.html
-rw-r--r-- root/root      2052 2023-10-16 11:57 usr/share/gtk-doc/html/poppler/api-index-0-89.html
-rw-r--r-- root/root      2737 2023-10-16 11:57 usr/share/gtk-doc/html/poppler/api-index-0-90.html
-rw-r--r-- root/root      2646 2023-10-16 11:57 usr/share/gtk-doc/html/poppler/api-index-20-04-0.html
-rw-r--r-- root/root      5449 2023-10-16 11:57 usr/share/gtk-doc/html/poppler/api-index-20-09-0.html
-rw-r--r-- root/root      2440 2023-10-16 11:57 usr/share/gtk-doc/html/poppler/api-index-21-05-0.html
-rw-r--r-- root/root      8135 2023-10-16 11:57 usr/share/gtk-doc/html/poppler/api-index-21-12-0.html
-rw-r--r-- root/root    151989 2023-10-16 11:57 usr/share/gtk-doc/html/poppler/api-index-full.html
-rw-r--r-- root/root      3975 2023-10-16 11:57 usr/share/gtk-doc/html/poppler/ch01.html
-rw-r--r-- root/root       256 2023-10-16 11:57 usr/share/gtk-doc/html/poppler/home.png
-rw-r--r-- root/root      5984 2023-10-16 11:57 usr/share/gtk-doc/html/poppler/index.html
-rw-r--r-- root/root       395 2023-10-16 11:57 usr/share/gtk-doc/html/poppler/left-insensitive.png
-rw-r--r-- root/root       262 2023-10-16 11:57 usr/share/gtk-doc/html/poppler/left.png
-rw-r--r-- root/root      6104 2023-10-16 11:57 usr/share/gtk-doc/html/poppler/poppler-Error-handling.html
-rw-r--r-- root/root     10982 2023-10-16 11:57 usr/share/gtk-doc/html/poppler/poppler-PDF-Utility-functions.html
-rw-r--r-- root/root    157273 2023-10-16 11:57 usr/share/gtk-doc/html/poppler/poppler-Poppler-Annotation.html
-rw-r--r-- root/root      9846 2023-10-16 11:57 usr/share/gtk-doc/html/poppler/poppler-Poppler-Color.html
-rw-r--r-- root/root     11338 2023-10-16 11:57 usr/share/gtk-doc/html/poppler/poppler-Poppler-Features.html
-rw-r--r-- root/root     14369 2023-10-16 11:57 usr/share/gtk-doc/html/poppler/poppler-Poppler-Layer.html
-rw-r--r-- root/root     31072 2023-10-16 11:57 usr/share/gtk-doc/html/poppler/poppler-Poppler-Media.html
-rw-r--r-- root/root     26742 2023-10-16 11:57 usr/share/gtk-doc/html/poppler/poppler-Poppler-Movie.html
-rw-r--r-- root/root    195622 2023-10-16 11:57 usr/share/gtk-doc/html/poppler/poppler-Poppler-Page.html
-rw-r--r-- root/root     19102 2023-10-16 11:57 usr/share/gtk-doc/html/poppler/poppler-Poppler-Text-Span.html
-rw-r--r-- root/root    137157 2023-10-16 11:57 usr/share/gtk-doc/html/poppler/poppler.devhelp2
-rw-r--r-- root/root       373 2023-10-16 11:57 usr/share/gtk-doc/html/poppler/right-insensitive.png
-rw-r--r-- root/root       261 2023-10-16 11:57 usr/share/gtk-doc/html/poppler/right.png
-rw-r--r-- root/root     12017 2023-10-16 11:57 usr/share/gtk-doc/html/poppler/style.css
-rw-r--r-- root/root       374 2023-10-16 11:57 usr/share/gtk-doc/html/poppler/up-insensitive.png
-rw-r--r-- root/root       260 2023-10-16 11:57 usr/share/gtk-doc/html/poppler/up.png


