++========================================
||
||   Package:  ./python3-babel-2.10.1-x86_64-1_snuk.txz
||
++========================================
drwxr-xr-x root/root         0 2023-10-16 13:57 ./
drwxr-xr-x root/root         0 2023-10-16 13:57 install/
-rw-r--r-- root/root      1063 2023-10-16 13:57 install/slack-desc
drwxr-xr-x root/root         0 2023-10-16 13:57 usr/
drwxr-xr-x root/root         0 2023-10-16 13:57 usr/bin/
-rwxr-xr-x root/root       955 2023-10-16 13:57 usr/bin/pybabel
drwxr-xr-x root/root         0 2023-10-16 13:57 usr/doc/
drwxr-xr-x root/root         0 2023-10-16 13:57 usr/doc/python3-babel-2.10.1/
-rw-r--r-- root/root      2643 2022-04-20 19:08 usr/doc/python3-babel-2.10.1/AUTHORS
-rw-r--r-- root/root     34603 2022-04-20 19:08 usr/doc/python3-babel-2.10.1/CHANGES.rst
-rw-r--r-- root/root      1299 2022-04-20 19:08 usr/doc/python3-babel-2.10.1/CONTRIBUTING.md
-rw-r--r-- root/root      1451 2022-04-20 19:08 usr/doc/python3-babel-2.10.1/LICENSE
-rw-r--r-- root/root       829 2022-04-20 19:08 usr/doc/python3-babel-2.10.1/README.rst
-rw-r--r-- root/root      3492 2023-10-16 13:57 usr/doc/python3-babel-2.10.1/python3-babel.SlackBuild
drwxr-xr-x root/root         0 2023-10-16 13:57 usr/lib64/
drwxr-xr-x root/root         0 2023-10-16 13:57 usr/lib64/python3.9/
drwxr-xr-x root/root         0 2023-10-16 13:57 usr/lib64/python3.9/site-packages/
drwxr-xr-x root/root         0 2023-10-16 13:57 usr/lib64/python3.9/site-packages/Babel-2.10.1-py3.9.egg-info/
-rw-r--r-- root/root      1302 2023-10-16 13:57 usr/lib64/python3.9/site-packages/Babel-2.10.1-py3.9.egg-info/PKG-INFO
-rw-r--r-- root/root     25996 2023-10-16 13:57 usr/lib64/python3.9/site-packages/Babel-2.10.1-py3.9.egg-info/SOURCES.txt
-rw-r--r-- root/root         1 2023-10-16 13:57 usr/lib64/python3.9/site-packages/Babel-2.10.1-py3.9.egg-info/dependency_links.txt
-rw-r--r-- root/root       764 2023-10-16 13:57 usr/lib64/python3.9/site-packages/Babel-2.10.1-py3.9.egg-info/entry_points.txt
-rw-r--r-- root/root         1 2023-10-16 13:57 usr/lib64/python3.9/site-packages/Babel-2.10.1-py3.9.egg-info/not-zip-safe
-rw-r--r-- root/root        13 2023-10-16 13:57 usr/lib64/python3.9/site-packages/Babel-2.10.1-py3.9.egg-info/requires.txt
-rw-r--r-- root/root         6 2023-10-16 13:57 usr/lib64/python3.9/site-packages/Babel-2.10.1-py3.9.egg-info/top_level.txt
drwxr-xr-x root/root         0 2023-10-16 13:57 usr/lib64/python3.9/site-packages/babel/
-rw-r--r-- root/root       715 2022-04-20 19:08 usr/lib64/python3.9/site-packages/babel/__init__.py
drwxr-xr-x root/root         0 2023-10-16 13:57 usr/lib64/python3.9/site-packages/babel/__pycache__/
-rw-r--r-- root/root       898 2023-10-16 13:57 usr/lib64/python3.9/site-packages/babel/__pycache__/__init__.cpython-39.pyc
-rw-r--r-- root/root     35599 2023-10-16 13:57 usr/lib64/python3.9/site-packages/babel/__pycache__/core.cpython-39.pyc
-rw-r--r-- root/root     56930 2023-10-16 13:57 usr/lib64/python3.9/site-packages/babel/__pycache__/dates.cpython-39.pyc
-rw-r--r-- root/root      3117 2023-10-16 13:57 usr/lib64/python3.9/site-packages/babel/__pycache__/languages.cpython-39.pyc
-rw-r--r-- root/root      2673 2023-10-16 13:57 usr/lib64/python3.9/site-packages/babel/__pycache__/lists.cpython-39.pyc
-rw-r--r-- root/root      7963 2023-10-16 13:57 usr/lib64/python3.9/site-packages/babel/__pycache__/localedata.cpython-39.pyc
-rw-r--r-- root/root     32129 2023-10-16 13:57 usr/lib64/python3.9/site-packages/babel/__pycache__/numbers.cpython-39.pyc
-rw-r--r-- root/root     22590 2023-10-16 13:57 usr/lib64/python3.9/site-packages/babel/__pycache__/plural.cpython-39.pyc
-rw-r--r-- root/root     23063 2023-10-16 13:57 usr/lib64/python3.9/site-packages/babel/__pycache__/support.cpython-39.pyc
-rw-r--r-- root/root      8455 2023-10-16 13:57 usr/lib64/python3.9/site-packages/babel/__pycache__/units.cpython-39.pyc
-rw-r--r-- root/root      7160 2023-10-16 13:57 usr/lib64/python3.9/site-packages/babel/__pycache__/util.cpython-39.pyc
-rw-r--r-- root/root     37076 2022-04-20 19:08 usr/lib64/python3.9/site-packages/babel/core.py
-rw-r--r-- root/root     69078 2022-04-20 19:08 usr/lib64/python3.9/site-packages/babel/dates.py
-rw-r--r-- root/root    258639 2023-10-16 13:57 usr/lib64/python3.9/site-packages/babel/global.dat
-rw-r--r-- root/root      2743 2022-04-20 19:08 usr/lib64/python3.9/site-packages/babel/languages.py
-rw-r--r-- root/root      2719 2022-04-20 19:08 usr/lib64/python3.9/site-packages/babel/lists.py
drwxr-xr-x root/root         0 2023-10-16 13:57 usr/lib64/python3.9/site-packages/babel/locale-data/
-rw-r--r-- root/root    185811 2023-10-16 13:57 usr/lib64/python3.9/site-packages/babel/locale-data/af.dat
-rw-r--r-- root/root      1407 2023-10-16 13:57 usr/lib64/python3.9/site-packages/babel/locale-data/af_NA.dat
-rw-r--r-- root/root       608 2023-10-16 13:57 usr/lib64/python3.9/site-packages/babel/locale-data/af_ZA.dat
-rw-r--r-- root/root     17339 2023-10-16 13:57 usr/lib64/python3.9/site-packages/babel/locale-data/agq.dat
-rw-r--r-- root/root       609 2023-10-16 13:57 usr/lib64/python3.9/site-packages/babel/locale-data/agq_CM.dat
-rw-r--r-- root/root     15859 2023-10-16 13:57 usr/lib64/python3.9/site-packages/babel/locale-data/ak.dat
-rw-r--r-- root/root       589 2023-10-16 13:57 usr/lib64/python3.9/site-packages/babel/locale-data/ak_GH.dat
-rw-r--r-- root/root    213636 2023-10-16 13:57 usr/lib64/python3.9/site-packages/babel/locale-data/am.dat
-rw-r--r-- root/root       608 2023-10-16 13:57 usr/lib64/python3.9/site-packages/babel/locale-data/am_ET.dat
-rw-r--r-- root/root    367738 2023-10-16 13:57 usr/lib64/python3.9/site-packages/babel/locale-data/ar.dat
-rw-r--r-- root/root      1680 2023-10-16 13:57 usr/lib64/python3.9/site-packages/babel/locale-data/ar_001.dat
-rw-r--r-- root/root       995 2023-10-16 13:57 usr/lib64/python3.9/site-packages/babel/locale-data/ar_AE.dat
-rw-r--r-- root/root       651 2023-10-16 13:57 usr/lib64/python3.9/site-packages/babel/locale-data/ar_BH.dat
-rw-r--r-- root/root       629 2023-10-16 13:57 usr/lib64/python3.9/site-packages/babel/locale-data/ar_DJ.dat
-rw-r--r-- root/root      1713 2023-10-16 13:57 usr/lib64/python3.9/site-packages/babel/locale-data/ar_DZ.dat
-rw-r--r-- root/root       688 2023-10-16 13:57 usr/lib64/python3.9/site-packages/babel/locale-data/ar_EG.dat
-rw-r--r-- root/root       589 2023-10-16 13:57 usr/lib64/python3.9/site-packages/babel/locale-data/ar_EH.dat
-rw-r--r-- root/root       610 2023-10-16 13:57 usr/lib64/python3.9/site-packages/babel/locale-data/ar_ER.dat
-rw-r--r-- root/root      1195 2023-10-16 13:57 usr/lib64/python3.9/site-packages/babel/locale-data/ar_IL.dat
-rw-r--r-- root/root      2336 2023-10-16 13:57 usr/lib64/python3.9/site-packages/babel/locale-data/ar_IQ.dat
-rw-r--r-- root/root      2335 2023-10-16 13:57 usr/lib64/python3.9/site-packages/babel/locale-data/ar_JO.dat
-rw-r--r-- root/root      1161 2023-10-16 13:57 usr/lib64/python3.9/site-packages/babel/locale-data/ar_KM.dat
-rw-r--r-- root/root       651 2023-10-16 13:57 usr/lib64/python3.9/site-packages/babel/locale-data/ar_KW.dat
-rw-r--r-- root/root      2336 2023-10-16 13:57 usr/lib64/python3.9/site-packages/babel/locale-data/ar_LB.dat
-rw-r--r-- root/root      1648 2023-10-16 13:57 usr/lib64/python3.9/site-packages/babel/locale-data/ar_LY.dat
-rw-r--r-- root/root      2007 2023-10-16 13:57 usr/lib64/python3.9/site-packages/babel/locale-data/ar_MA.dat
-rw-r--r-- root/root      2173 2023-10-16 13:57 usr/lib64/python3.9/site-packages/babel/locale-data/ar_MR.dat
-rw-r--r-- root/root       651 2023-10-16 13:57 usr/lib64/python3.9/site-packages/babel/locale-data/ar_OM.dat
-rw-r--r-- root/root      2273 2023-10-16 13:57 usr/lib64/python3.9/site-packages/babel/locale-data/ar_PS.dat
-rw-r--r-- root/root       651 2023-10-16 13:57 usr/lib64/python3.9/site-packages/babel/locale-data/ar_QA.dat
-rw-r--r-- root/root     30629 2023-10-16 13:57 usr/lib64/python3.9/site-packages/babel/locale-data/ar_SA.dat
-rw-r--r-- root/root       651 2023-10-16 13:57 usr/lib64/python3.9/site-packages/babel/locale-data/ar_SD.dat
-rw-r--r-- root/root       608 2023-10-16 13:57 usr/lib64/python3.9/site-packages/babel/locale-data/ar_SO.dat
-rw-r--r-- root/root       631 2023-10-16 13:57 usr/lib64/python3.9/site-packages/babel/locale-data/ar_SS.dat
-rw-r--r-- root/root      2335 2023-10-16 13:57 usr/lib64/python3.9/site-packages/babel/locale-data/ar_SY.dat
-rw-r--r-- root/root       589 2023-10-16 13:57 usr/lib64/python3.9/site-packages/babel/locale-data/ar_TD.dat
-rw-r--r-- root/root      1651 2023-10-16 13:57 usr/lib64/python3.9/site-packages/babel/locale-data/ar_TN.dat
-rw-r--r-- root/root       651 2023-10-16 13:57 usr/lib64/python3.9/site-packages/babel/locale-data/ar_YE.dat
-rw-r--r-- root/root    243570 2023-10-16 13:57 usr/lib64/python3.9/site-packages/babel/locale-data/as.dat
-rw-r--r-- root/root       631 2023-10-16 13:57 usr/lib64/python3.9/site-packages/babel/locale-data/as_IN.dat
-rw-r--r-- root/root     16187 2023-10-16 13:57 usr/lib64/python3.9/site-packages/babel/locale-data/asa.dat
-rw-r--r-- root/root       590 2023-10-16 13:57 usr/lib64/python3.9/site-packages/babel/locale-data/asa_TZ.dat
-rw-r--r-- root/root    209631 2023-10-16 13:57 usr/lib64/python3.9/site-packages/babel/locale-data/ast.dat
-rw-r--r-- root/root       627 2023-10-16 13:57 usr/lib64/python3.9/site-packages/babel/locale-data/ast_ES.dat
-rw-r--r-- root/root    205256 2023-10-16 13:57 usr/lib64/python3.9/site-packages/babel/locale-data/az.dat
-rw-r--r-- root/root     38851 2023-10-16 13:57 usr/lib64/python3.9/site-packages/babel/locale-data/az_Cyrl.dat
-rw-r--r-- root/root       608 2023-10-16 13:57 usr/lib64/python3.9/site-packages/babel/locale-data/az_Cyrl_AZ.dat
-rw-r--r-- root/root      2225 2023-10-16 13:57 usr/lib64/python3.9/site-packages/babel/locale-data/az_Latn.dat
-rw-r--r-- root/root       608 2023-10-16 13:57 usr/lib64/python3.9/site-packages/babel/locale-data/az_Latn_AZ.dat
-rw-r--r-- root/root     17128 2023-10-16 13:57 usr/lib64/python3.9/site-packages/babel/locale-data/bas.dat
-rw-r--r-- root/root       609 2023-10-16 13:57 usr/lib64/python3.9/site-packages/babel/locale-data/bas_CM.dat
-rw-r--r-- root/root    284341 2023-10-16 13:57 usr/lib64/python3.9/site-packages/babel/locale-data/be.dat
-rw-r--r-- root/root       608 2023-10-16 13:57 usr/lib64/python3.9/site-packages/babel/locale-data/be_BY.dat
-rw-r--r-- root/root    101318 2023-10-16 13:57 usr/lib64/python3.9/site-packages/babel/locale-data/be_TARASK.dat
-rw-r--r-- root/root      6534 2023-10-16 13:57 usr/lib64/python3.9/site-packages/babel/locale-data/bem.dat
-rw-r--r-- root/root       590 2023-10-16 13:57 usr/lib64/python3.9/site-packages/babel/locale-data/bem_ZM.dat
-rw-r--r-- root/root     16977 2023-10-16 13:57 usr/lib64/python3.9/site-packages/babel/locale-data/bez.dat
-rw-r--r-- root/root       590 2023-10-16 13:57 usr/lib64/python3.9/site-packages/babel/locale-data/bez_TZ.dat
-rw-r--r-- root/root    242571 2023-10-16 13:57 usr/lib64/python3.9/site-packages/babel/locale-data/bg.dat
-rw-r--r-- root/root       626 2023-10-16 13:57 usr/lib64/python3.9/site-packages/babel/locale-data/bg_BG.dat
-rw-r--r-- root/root     15886 2023-10-16 13:57 usr/lib64/python3.9/site-packages/babel/locale-data/bm.dat
-rw-r--r-- root/root       589 2023-10-16 13:57 usr/lib64/python3.9/site-packages/babel/locale-data/bm_ML.dat
-rw-r--r-- root/root    274379 2023-10-16 13:57 usr/lib64/python3.9/site-packages/babel/locale-data/bn.dat
-rw-r--r-- root/root       608 2023-10-16 13:57 usr/lib64/python3.9/site-packages/babel/locale-data/bn_BD.dat
-rw-r--r-- root/root       866 2023-10-16 13:57 usr/lib64/python3.9/site-packages/babel/locale-data/bn_IN.dat
-rw-r--r-- root/root     22501 2023-10-16 13:57 usr/lib64/python3.9/site-packages/babel/locale-data/bo.dat
-rw-r--r-- root/root       608 2023-10-16 13:57 usr/lib64/python3.9/site-packages/babel/locale-data/bo_CN.dat
-rw-r--r-- root/root      1280 2023-10-16 13:57 usr/lib64/python3.9/site-packages/babel/locale-data/bo_IN.dat
-rw-r--r-- root/root    302713 2023-10-16 13:57 usr/lib64/python3.9/site-packages/babel/locale-data/br.dat
-rw-r--r-- root/root       626 2023-10-16 13:57 usr/lib64/python3.9/site-packages/babel/locale-data/br_FR.dat
-rw-r--r-- root/root    130167 2023-10-16 13:57 usr/lib64/python3.9/site-packages/babel/locale-data/brx.dat
-rw-r--r-- root/root       632 2023-10-16 13:57 usr/lib64/python3.9/site-packages/babel/locale-data/brx_IN.dat
-rw-r--r-- root/root    251678 2023-10-16 13:57 usr/lib64/python3.9/site-packages/babel/locale-data/bs.dat
-rw-r--r-- root/root    213655 2023-10-16 13:57 usr/lib64/python3.9/site-packages/babel/locale-data/bs_Cyrl.dat
-rw-r--r-- root/root       608 2023-10-16 13:57 usr/lib64/python3.9/site-packages/babel/locale-data/bs_Cyrl_BA.dat
-rw-r--r-- root/root      1957 2023-10-16 13:57 usr/lib64/python3.9/site-packages/babel/locale-data/bs_Latn.dat
-rw-r--r-- root/root       608 2023-10-16 13:57 usr/lib64/python3.9/site-packages/babel/locale-data/bs_Latn_BA.dat
-rw-r--r-- root/root    217192 2023-10-16 13:57 usr/lib64/python3.9/site-packages/babel/locale-data/ca.dat
-rw-r--r-- root/root       626 2023-10-16 13:57 usr/lib64/python3.9/site-packages/babel/locale-data/ca_AD.dat
-rw-r--r-- root/root       626 2023-10-16 13:57 usr/lib64/python3.9/site-packages/babel/locale-data/ca_ES.dat
-rw-r--r-- root/root      3644 2023-10-16 13:57 usr/lib64/python3.9/site-packages/babel/locale-data/ca_ES_VALENCIA.dat
-rw-r--r-- root/root       645 2023-10-16 13:57 usr/lib64/python3.9/site-packages/babel/locale-data/ca_FR.dat
-rw-r--r-- root/root       626 2023-10-16 13:57 usr/lib64/python3.9/site-packages/babel/locale-data/ca_IT.dat
-rw-r--r-- root/root    275621 2023-10-16 13:57 usr/lib64/python3.9/site-packages/babel/locale-data/ccp.dat
-rw-r--r-- root/root       609 2023-10-16 13:57 usr/lib64/python3.9/site-packages/babel/locale-data/ccp_BD.dat
-rw-r--r-- root/root       632 2023-10-16 13:57 usr/lib64/python3.9/site-packages/babel/locale-data/ccp_IN.dat
-rw-r--r-- root/root    138733 2023-10-16 13:57 usr/lib64/python3.9/site-packages/babel/locale-data/ce.dat
-rw-r--r-- root/root       626 2023-10-16 13:57 usr/lib64/python3.9/site-packages/babel/locale-data/ce_RU.dat
-rw-r--r-- root/root    106354 2023-10-16 13:57 usr/lib64/python3.9/site-packages/babel/locale-data/ceb.dat
-rw-r--r-- root/root       609 2023-10-16 13:57 usr/lib64/python3.9/site-packages/babel/locale-data/ceb_PH.dat
-rw-r--r-- root/root     16228 2023-10-16 13:57 usr/lib64/python3.9/site-packages/babel/locale-data/cgg.dat
-rw-r--r-- root/root       613 2023-10-16 13:57 usr/lib64/python3.9/site-packages/babel/locale-data/cgg_UG.dat
-rw-r--r-- root/root    219692 2023-10-16 13:57 usr/lib64/python3.9/site-packages/babel/locale-data/chr.dat
-rw-r--r-- root/root       627 2023-10-16 13:57 usr/lib64/python3.9/site-packages/babel/locale-data/chr_US.dat
-rw-r--r-- root/root     41738 2023-10-16 13:57 usr/lib64/python3.9/site-packages/babel/locale-data/ckb.dat
-rw-r--r-- root/root       652 2023-10-16 13:57 usr/lib64/python3.9/site-packages/babel/locale-data/ckb_IQ.dat
-rw-r--r-- root/root      1204 2023-10-16 13:57 usr/lib64/python3.9/site-packages/babel/locale-data/ckb_IR.dat
-rw-r--r-- root/root    317513 2023-10-16 13:57 usr/lib64/python3.9/site-packages/babel/locale-data/cs.dat
-rw-r--r-- root/root       626 2023-10-16 13:57 usr/lib64/python3.9/site-packages/babel/locale-data/cs_CZ.dat
-rw-r--r-- root/root    331351 2023-10-16 13:57 usr/lib64/python3.9/site-packages/babel/locale-data/cy.dat
-rw-r--r-- root/root       626 2023-10-16 13:57 usr/lib64/python3.9/site-packages/babel/locale-data/cy_GB.dat
-rw-r--r-- root/root    208168 2023-10-16 13:57 usr/lib64/python3.9/site-packages/babel/locale-data/da.dat
-rw-r--r-- root/root       626 2023-10-16 13:57 usr/lib64/python3.9/site-packages/babel/locale-data/da_DK.dat
-rw-r--r-- root/root       589 2023-10-16 13:57 usr/lib64/python3.9/site-packages/babel/locale-data/da_GL.dat
-rw-r--r-- root/root     16271 2023-10-16 13:57 usr/lib64/python3.9/site-packages/babel/locale-data/dav.dat
-rw-r--r-- root/root       609 2023-10-16 13:57 usr/lib64/python3.9/site-packages/babel/locale-data/dav_KE.dat
-rw-r--r-- root/root    217315 2023-10-16 13:57 usr/lib64/python3.9/site-packages/babel/locale-data/de.dat
-rw-r--r-- root/root      2563 2023-10-16 13:57 usr/lib64/python3.9/site-packages/babel/locale-data/de_AT.dat
-rw-r--r-- root/root       626 2023-10-16 13:57 usr/lib64/python3.9/site-packages/babel/locale-data/de_BE.dat
-rw-r--r-- root/root      4131 2023-10-16 13:57 usr/lib64/python3.9/site-packages/babel/locale-data/de_CH.dat
-rw-r--r-- root/root       626 2023-10-16 13:57 usr/lib64/python3.9/site-packages/babel/locale-data/de_DE.dat
-rw-r--r-- root/root      1619 2023-10-16 13:57 usr/lib64/python3.9/site-packages/babel/locale-data/de_IT.dat
-rw-r--r-- root/root      1321 2023-10-16 13:57 usr/lib64/python3.9/site-packages/babel/locale-data/de_LI.dat
-rw-r--r-- root/root      1036 2023-10-16 13:57 usr/lib64/python3.9/site-packages/babel/locale-data/de_LU.dat
-rw-r--r-- root/root     16192 2023-10-16 13:57 usr/lib64/python3.9/site-packages/babel/locale-data/dje.dat
-rw-r--r-- root/root       590 2023-10-16 13:57 usr/lib64/python3.9/site-packages/babel/locale-data/dje_NE.dat
-rw-r--r-- root/root     24280 2023-10-16 13:57 usr/lib64/python3.9/site-packages/babel/locale-data/doi.dat
-rw-r--r-- root/root       632 2023-10-16 13:57 usr/lib64/python3.9/site-packages/babel/locale-data/doi_IN.dat
-rw-r--r-- root/root    222482 2023-10-16 13:57 usr/lib64/python3.9/site-packages/babel/locale-data/dsb.dat
-rw-r--r-- root/root       627 2023-10-16 13:57 usr/lib64/python3.9/site-packages/babel/locale-data/dsb_DE.dat
-rw-r--r-- root/root      5355 2023-10-16 13:57 usr/lib64/python3.9/site-packages/babel/locale-data/dua.dat
-rw-r--r-- root/root       609 2023-10-16 13:57 usr/lib64/python3.9/site-packages/babel/locale-data/dua_CM.dat
-rw-r--r-- root/root     10541 2023-10-16 13:57 usr/lib64/python3.9/site-packages/babel/locale-data/dyo.dat
-rw-r--r-- root/root       590 2023-10-16 13:57 usr/lib64/python3.9/site-packages/babel/locale-data/dyo_SN.dat
-rw-r--r-- root/root     89908 2023-10-16 13:57 usr/lib64/python3.9/site-packages/babel/locale-data/dz.dat
-rw-r--r-- root/root       608 2023-10-16 13:57 usr/lib64/python3.9/site-packages/babel/locale-data/dz_BT.dat
-rw-r--r-- root/root     16243 2023-10-16 13:57 usr/lib64/python3.9/site-packages/babel/locale-data/ebu.dat
-rw-r--r-- root/root       609 2023-10-16 13:57 usr/lib64/python3.9/site-packages/babel/locale-data/ebu_KE.dat
-rw-r--r-- root/root    142505 2023-10-16 13:57 usr/lib64/python3.9/site-packages/babel/locale-data/ee.dat
-rw-r--r-- root/root       589 2023-10-16 13:57 usr/lib64/python3.9/site-packages/babel/locale-data/ee_GH.dat
-rw-r--r-- root/root      1141 2023-10-16 13:57 usr/lib64/python3.9/site-packages/babel/locale-data/ee_TG.dat
-rw-r--r-- root/root    257434 2023-10-16 13:57 usr/lib64/python3.9/site-packages/babel/locale-data/el.dat
-rw-r--r-- root/root       608 2023-10-16 13:57 usr/lib64/python3.9/site-packages/babel/locale-data/el_CY.dat
-rw-r--r-- root/root       626 2023-10-16 13:57 usr/lib64/python3.9/site-packages/babel/locale-data/el_GR.dat
-rw-r--r-- root/root    200988 2023-10-16 13:57 usr/lib64/python3.9/site-packages/babel/locale-data/en.dat
-rw-r--r-- root/root     31070 2023-10-16 13:57 usr/lib64/python3.9/site-packages/babel/locale-data/en_001.dat
-rw-r--r-- root/root      1765 2023-10-16 13:57 usr/lib64/python3.9/site-packages/babel/locale-data/en_150.dat
-rw-r--r-- root/root      4062 2023-10-16 13:57 usr/lib64/python3.9/site-packages/babel/locale-data/en_AE.dat
-rw-r--r-- root/root       627 2023-10-16 13:57 usr/lib64/python3.9/site-packages/babel/locale-data/en_AG.dat
-rw-r--r-- root/root      1179 2023-10-16 13:57 usr/lib64/python3.9/site-packages/babel/locale-data/en_AI.dat
-rw-r--r-- root/root       608 2023-10-16 13:57 usr/lib64/python3.9/site-packages/babel/locale-data/en_AS.dat
-rw-r--r-- root/root      1200 2023-10-16 13:57 usr/lib64/python3.9/site-packages/babel/locale-data/en_AT.dat
-rw-r--r-- root/root     27896 2023-10-16 13:57 usr/lib64/python3.9/site-packages/babel/locale-data/en_AU.dat
-rw-r--r-- root/root       608 2023-10-16 13:57 usr/lib64/python3.9/site-packages/babel/locale-data/en_BB.dat
-rw-r--r-- root/root      1493 2023-10-16 13:57 usr/lib64/python3.9/site-packages/babel/locale-data/en_BE.dat
-rw-r--r-- root/root      1162 2023-10-16 13:57 usr/lib64/python3.9/site-packages/babel/locale-data/en_BI.dat
-rw-r--r-- root/root       627 2023-10-16 13:57 usr/lib64/python3.9/site-packages/babel/locale-data/en_BM.dat
-rw-r--r-- root/root       811 2023-10-16 13:57 usr/lib64/python3.9/site-packages/babel/locale-data/en_BS.dat
-rw-r--r-- root/root      2771 2023-10-16 13:57 usr/lib64/python3.9/site-packages/babel/locale-data/en_BW.dat
-rw-r--r-- root/root      2950 2023-10-16 13:57 usr/lib64/python3.9/site-packages/babel/locale-data/en_BZ.dat
-rw-r--r-- root/root     39322 2023-10-16 13:57 usr/lib64/python3.9/site-packages/babel/locale-data/en_CA.dat
-rw-r--r-- root/root      1160 2023-10-16 13:57 usr/lib64/python3.9/site-packages/babel/locale-data/en_CC.dat
-rw-r--r-- root/root      1100 2023-10-16 13:57 usr/lib64/python3.9/site-packages/babel/locale-data/en_CH.dat
-rw-r--r-- root/root      1160 2023-10-16 13:57 usr/lib64/python3.9/site-packages/babel/locale-data/en_CK.dat
-rw-r--r-- root/root      1410 2023-10-16 13:57 usr/lib64/python3.9/site-packages/babel/locale-data/en_CM.dat
-rw-r--r-- root/root      1160 2023-10-16 13:57 usr/lib64/python3.9/site-packages/babel/locale-data/en_CX.dat
-rw-r--r-- root/root       608 2023-10-16 13:57 usr/lib64/python3.9/site-packages/babel/locale-data/en_CY.dat
-rw-r--r-- root/root       952 2023-10-16 13:57 usr/lib64/python3.9/site-packages/babel/locale-data/en_DE.dat
-rw-r--r-- root/root      1141 2023-10-16 13:57 usr/lib64/python3.9/site-packages/babel/locale-data/en_DG.dat
-rw-r--r-- root/root      2350 2023-10-16 13:57 usr/lib64/python3.9/site-packages/babel/locale-data/en_DK.dat
-rw-r--r-- root/root       627 2023-10-16 13:57 usr/lib64/python3.9/site-packages/babel/locale-data/en_DM.dat
-rw-r--r-- root/root       860 2023-10-16 13:57 usr/lib64/python3.9/site-packages/babel/locale-data/en_ER.dat
-rw-r--r-- root/root      2282 2023-10-16 13:57 usr/lib64/python3.9/site-packages/babel/locale-data/en_FI.dat
-rw-r--r-- root/root       645 2023-10-16 13:57 usr/lib64/python3.9/site-packages/babel/locale-data/en_FJ.dat
-rw-r--r-- root/root      1183 2023-10-16 13:57 usr/lib64/python3.9/site-packages/babel/locale-data/en_FK.dat
-rw-r--r-- root/root       589 2023-10-16 13:57 usr/lib64/python3.9/site-packages/babel/locale-data/en_FM.dat
-rw-r--r-- root/root     26056 2023-10-16 13:57 usr/lib64/python3.9/site-packages/babel/locale-data/en_GB.dat
-rw-r--r-- root/root       608 2023-10-16 13:57 usr/lib64/python3.9/site-packages/babel/locale-data/en_GD.dat
-rw-r--r-- root/root      1246 2023-10-16 13:57 usr/lib64/python3.9/site-packages/babel/locale-data/en_GG.dat
-rw-r--r-- root/root       862 2023-10-16 13:57 usr/lib64/python3.9/site-packages/babel/locale-data/en_GH.dat
-rw-r--r-- root/root      1201 2023-10-16 13:57 usr/lib64/python3.9/site-packages/babel/locale-data/en_GI.dat
-rw-r--r-- root/root       858 2023-10-16 13:57 usr/lib64/python3.9/site-packages/babel/locale-data/en_GM.dat
-rw-r--r-- root/root       688 2023-10-16 13:57 usr/lib64/python3.9/site-packages/babel/locale-data/en_GU.dat
-rw-r--r-- root/root       667 2023-10-16 13:57 usr/lib64/python3.9/site-packages/babel/locale-data/en_GY.dat
-rw-r--r-- root/root      2008 2023-10-16 13:57 usr/lib64/python3.9/site-packages/babel/locale-data/en_HK.dat
-rw-r--r-- root/root      2043 2023-10-16 13:57 usr/lib64/python3.9/site-packages/babel/locale-data/en_IE.dat
-rw-r--r-- root/root      1397 2023-10-16 13:57 usr/lib64/python3.9/site-packages/babel/locale-data/en_IL.dat
-rw-r--r-- root/root      1246 2023-10-16 13:57 usr/lib64/python3.9/site-packages/babel/locale-data/en_IM.dat
-rw-r--r-- root/root      7090 2023-10-16 13:57 usr/lib64/python3.9/site-packages/babel/locale-data/en_IN.dat
-rw-r--r-- root/root      1141 2023-10-16 13:57 usr/lib64/python3.9/site-packages/babel/locale-data/en_IO.dat
-rw-r--r-- root/root      1246 2023-10-16 13:57 usr/lib64/python3.9/site-packages/babel/locale-data/en_JE.dat
-rw-r--r-- root/root      1599 2023-10-16 13:57 usr/lib64/python3.9/site-packages/babel/locale-data/en_JM.dat
-rw-r--r-- root/root      1431 2023-10-16 13:57 usr/lib64/python3.9/site-packages/babel/locale-data/en_KE.dat
-rw-r--r-- root/root       608 2023-10-16 13:57 usr/lib64/python3.9/site-packages/babel/locale-data/en_KI.dat
-rw-r--r-- root/root       608 2023-10-16 13:57 usr/lib64/python3.9/site-packages/babel/locale-data/en_KN.dat
-rw-r--r-- root/root       792 2023-10-16 13:57 usr/lib64/python3.9/site-packages/babel/locale-data/en_KY.dat
-rw-r--r-- root/root       608 2023-10-16 13:57 usr/lib64/python3.9/site-packages/babel/locale-data/en_LC.dat
-rw-r--r-- root/root       858 2023-10-16 13:57 usr/lib64/python3.9/site-packages/babel/locale-data/en_LR.dat
-rw-r--r-- root/root       858 2023-10-16 13:57 usr/lib64/python3.9/site-packages/babel/locale-data/en_LS.dat
-rw-r--r-- root/root      1411 2023-10-16 13:57 usr/lib64/python3.9/site-packages/babel/locale-data/en_MG.dat
-rw-r--r-- root/root      1341 2023-10-16 13:57 usr/lib64/python3.9/site-packages/babel/locale-data/en_MH.dat
-rw-r--r-- root/root       803 2023-10-16 13:57 usr/lib64/python3.9/site-packages/babel/locale-data/en_MO.dat
-rw-r--r-- root/root      1322 2023-10-16 13:57 usr/lib64/python3.9/site-packages/babel/locale-data/en_MP.dat
-rw-r--r-- root/root      1160 2023-10-16 13:57 usr/lib64/python3.9/site-packages/babel/locale-data/en_MS.dat
-rw-r--r-- root/root      1927 2023-10-16 13:57 usr/lib64/python3.9/site-packages/babel/locale-data/en_MT.dat
-rw-r--r-- root/root      1411 2023-10-16 13:57 usr/lib64/python3.9/site-packages/babel/locale-data/en_MU.dat
-rw-r--r-- root/root      1954 2023-10-16 13:57 usr/lib64/python3.9/site-packages/babel/locale-data/en_MV.dat
-rw-r--r-- root/root       859 2023-10-16 13:57 usr/lib64/python3.9/site-packages/babel/locale-data/en_MW.dat
-rw-r--r-- root/root       689 2023-10-16 13:57 usr/lib64/python3.9/site-packages/babel/locale-data/en_MY.dat
-rw-r--r-- root/root       858 2023-10-16 13:57 usr/lib64/python3.9/site-packages/babel/locale-data/en_NA.dat
-rw-r--r-- root/root      1160 2023-10-16 13:57 usr/lib64/python3.9/site-packages/babel/locale-data/en_NF.dat
-rw-r--r-- root/root      1412 2023-10-16 13:57 usr/lib64/python3.9/site-packages/babel/locale-data/en_NG.dat
-rw-r--r-- root/root      1097 2023-10-16 13:57 usr/lib64/python3.9/site-packages/babel/locale-data/en_NL.dat
-rw-r--r-- root/root      1160 2023-10-16 13:57 usr/lib64/python3.9/site-packages/babel/locale-data/en_NR.dat
-rw-r--r-- root/root      1160 2023-10-16 13:57 usr/lib64/python3.9/site-packages/babel/locale-data/en_NU.dat
-rw-r--r-- root/root      2211 2023-10-16 13:57 usr/lib64/python3.9/site-packages/babel/locale-data/en_NZ.dat
-rw-r--r-- root/root       608 2023-10-16 13:57 usr/lib64/python3.9/site-packages/babel/locale-data/en_PG.dat
-rw-r--r-- root/root       629 2023-10-16 13:57 usr/lib64/python3.9/site-packages/babel/locale-data/en_PH.dat
-rw-r--r-- root/root      1959 2023-10-16 13:57 usr/lib64/python3.9/site-packages/babel/locale-data/en_PK.dat
-rw-r--r-- root/root      1160 2023-10-16 13:57 usr/lib64/python3.9/site-packages/babel/locale-data/en_PN.dat
-rw-r--r-- root/root       608 2023-10-16 13:57 usr/lib64/python3.9/site-packages/babel/locale-data/en_PR.dat
-rw-r--r-- root/root       773 2023-10-16 13:57 usr/lib64/python3.9/site-packages/babel/locale-data/en_PW.dat
-rw-r--r-- root/root      1411 2023-10-16 13:57 usr/lib64/python3.9/site-packages/babel/locale-data/en_RW.dat
-rw-r--r-- root/root       608 2023-10-16 13:57 usr/lib64/python3.9/site-packages/babel/locale-data/en_SB.dat
-rw-r--r-- root/root      1161 2023-10-16 13:57 usr/lib64/python3.9/site-packages/babel/locale-data/en_SC.dat
-rw-r--r-- root/root       901 2023-10-16 13:57 usr/lib64/python3.9/site-packages/babel/locale-data/en_SD.dat
-rw-r--r-- root/root      1427 2023-10-16 13:57 usr/lib64/python3.9/site-packages/babel/locale-data/en_SE.dat
-rw-r--r-- root/root      2017 2023-10-16 13:57 usr/lib64/python3.9/site-packages/babel/locale-data/en_SG.dat
-rw-r--r-- root/root      1183 2023-10-16 13:57 usr/lib64/python3.9/site-packages/babel/locale-data/en_SH.dat
-rw-r--r-- root/root       968 2023-10-16 13:57 usr/lib64/python3.9/site-packages/babel/locale-data/en_SI.dat
-rw-r--r-- root/root       859 2023-10-16 13:57 usr/lib64/python3.9/site-packages/babel/locale-data/en_SL.dat
-rw-r--r-- root/root       881 2023-10-16 13:57 usr/lib64/python3.9/site-packages/babel/locale-data/en_SS.dat
-rw-r--r-- root/root      1163 2023-10-16 13:57 usr/lib64/python3.9/site-packages/babel/locale-data/en_SX.dat
-rw-r--r-- root/root       858 2023-10-16 13:57 usr/lib64/python3.9/site-packages/babel/locale-data/en_SZ.dat
-rw-r--r-- root/root       589 2023-10-16 13:57 usr/lib64/python3.9/site-packages/babel/locale-data/en_TC.dat
-rw-r--r-- root/root      1160 2023-10-16 13:57 usr/lib64/python3.9/site-packages/babel/locale-data/en_TK.dat
-rw-r--r-- root/root       609 2023-10-16 13:57 usr/lib64/python3.9/site-packages/babel/locale-data/en_TO.dat
-rw-r--r-- root/root       627 2023-10-16 13:57 usr/lib64/python3.9/site-packages/babel/locale-data/en_TT.dat
-rw-r--r-- root/root      1160 2023-10-16 13:57 usr/lib64/python3.9/site-packages/babel/locale-data/en_TV.dat
-rw-r--r-- root/root      1412 2023-10-16 13:57 usr/lib64/python3.9/site-packages/babel/locale-data/en_TZ.dat
-rw-r--r-- root/root      1435 2023-10-16 13:57 usr/lib64/python3.9/site-packages/babel/locale-data/en_UG.dat
-rw-r--r-- root/root       626 2023-10-16 13:57 usr/lib64/python3.9/site-packages/babel/locale-data/en_UM.dat
-rw-r--r-- root/root       626 2023-10-16 13:57 usr/lib64/python3.9/site-packages/babel/locale-data/en_US.dat
-rw-r--r-- root/root      1204 2023-10-16 13:57 usr/lib64/python3.9/site-packages/babel/locale-data/en_US_POSIX.dat
-rw-r--r-- root/root       608 2023-10-16 13:57 usr/lib64/python3.9/site-packages/babel/locale-data/en_VC.dat
-rw-r--r-- root/root       589 2023-10-16 13:57 usr/lib64/python3.9/site-packages/babel/locale-data/en_VG.dat
-rw-r--r-- root/root       626 2023-10-16 13:57 usr/lib64/python3.9/site-packages/babel/locale-data/en_VI.dat
-rw-r--r-- root/root       609 2023-10-16 13:57 usr/lib64/python3.9/site-packages/babel/locale-data/en_VU.dat
-rw-r--r-- root/root       629 2023-10-16 13:57 usr/lib64/python3.9/site-packages/babel/locale-data/en_WS.dat
-rw-r--r-- root/root      3269 2023-10-16 13:57 usr/lib64/python3.9/site-packages/babel/locale-data/en_ZA.dat
-rw-r--r-- root/root       858 2023-10-16 13:57 usr/lib64/python3.9/site-packages/babel/locale-data/en_ZM.dat
-rw-r--r-- root/root      3199 2023-10-16 13:57 usr/lib64/python3.9/site-packages/babel/locale-data/en_ZW.dat
-rw-r--r-- root/root     40689 2023-10-16 13:57 usr/lib64/python3.9/site-packages/babel/locale-data/eo.dat
-rw-r--r-- root/root       823 2023-10-16 13:57 usr/lib64/python3.9/site-packages/babel/locale-data/eo_001.dat
-rw-r--r-- root/root    216824 2023-10-16 13:57 usr/lib64/python3.9/site-packages/babel/locale-data/es.dat
-rw-r--r-- root/root     24995 2023-10-16 13:57 usr/lib64/python3.9/site-packages/babel/locale-data/es_419.dat
-rw-r--r-- root/root      8314 2023-10-16 13:57 usr/lib64/python3.9/site-packages/babel/locale-data/es_AR.dat
-rw-r--r-- root/root      1571 2023-10-16 13:57 usr/lib64/python3.9/site-packages/babel/locale-data/es_BO.dat
-rw-r--r-- root/root       628 2023-10-16 13:57 usr/lib64/python3.9/site-packages/babel/locale-data/es_BR.dat
-rw-r--r-- root/root       627 2023-10-16 13:57 usr/lib64/python3.9/site-packages/babel/locale-data/es_BZ.dat
-rw-r--r-- root/root      4877 2023-10-16 13:57 usr/lib64/python3.9/site-packages/babel/locale-data/es_CL.dat
-rw-r--r-- root/root      8369 2023-10-16 13:57 usr/lib64/python3.9/site-packages/babel/locale-data/es_CO.dat
-rw-r--r-- root/root      1195 2023-10-16 13:57 usr/lib64/python3.9/site-packages/babel/locale-data/es_CR.dat
-rw-r--r-- root/root       629 2023-10-16 13:57 usr/lib64/python3.9/site-packages/babel/locale-data/es_CU.dat
-rw-r--r-- root/root      3777 2023-10-16 13:57 usr/lib64/python3.9/site-packages/babel/locale-data/es_DO.dat
-rw-r--r-- root/root       589 2023-10-16 13:57 usr/lib64/python3.9/site-packages/babel/locale-data/es_EA.dat
-rw-r--r-- root/root      2947 2023-10-16 13:57 usr/lib64/python3.9/site-packages/babel/locale-data/es_EC.dat
-rw-r--r-- root/root       626 2023-10-16 13:57 usr/lib64/python3.9/site-packages/babel/locale-data/es_ES.dat
-rw-r--r-- root/root       872 2023-10-16 13:57 usr/lib64/python3.9/site-packages/babel/locale-data/es_GQ.dat
-rw-r--r-- root/root      4577 2023-10-16 13:57 usr/lib64/python3.9/site-packages/babel/locale-data/es_GT.dat
-rw-r--r-- root/root      3128 2023-10-16 13:57 usr/lib64/python3.9/site-packages/babel/locale-data/es_HN.dat
-rw-r--r-- root/root       589 2023-10-16 13:57 usr/lib64/python3.9/site-packages/babel/locale-data/es_IC.dat
-rw-r--r-- root/root     22541 2023-10-16 13:57 usr/lib64/python3.9/site-packages/babel/locale-data/es_MX.dat
-rw-r--r-- root/root      1149 2023-10-16 13:57 usr/lib64/python3.9/site-packages/babel/locale-data/es_NI.dat
-rw-r--r-- root/root      3434 2023-10-16 13:57 usr/lib64/python3.9/site-packages/babel/locale-data/es_PA.dat
-rw-r--r-- root/root      4467 2023-10-16 13:57 usr/lib64/python3.9/site-packages/babel/locale-data/es_PE.dat
-rw-r--r-- root/root      1205 2023-10-16 13:57 usr/lib64/python3.9/site-packages/babel/locale-data/es_PH.dat
-rw-r--r-- root/root      3417 2023-10-16 13:57 usr/lib64/python3.9/site-packages/babel/locale-data/es_PR.dat
-rw-r--r-- root/root      5110 2023-10-16 13:57 usr/lib64/python3.9/site-packages/babel/locale-data/es_PY.dat
-rw-r--r-- root/root       878 2023-10-16 13:57 usr/lib64/python3.9/site-packages/babel/locale-data/es_SV.dat
-rw-r--r-- root/root     20830 2023-10-16 13:57 usr/lib64/python3.9/site-packages/babel/locale-data/es_US.dat
-rw-r--r-- root/root      2243 2023-10-16 13:57 usr/lib64/python3.9/site-packages/babel/locale-data/es_UY.dat
-rw-r--r-- root/root      3316 2023-10-16 13:57 usr/lib64/python3.9/site-packages/babel/locale-data/es_VE.dat
-rw-r--r-- root/root    208997 2023-10-16 13:57 usr/lib64/python3.9/site-packages/babel/locale-data/et.dat
-rw-r--r-- root/root       626 2023-10-16 13:57 usr/lib64/python3.9/site-packages/babel/locale-data/et_EE.dat
-rw-r--r-- root/root    214960 2023-10-16 13:57 usr/lib64/python3.9/site-packages/babel/locale-data/eu.dat
-rw-r--r-- root/root       626 2023-10-16 13:57 usr/lib64/python3.9/site-packages/babel/locale-data/eu_ES.dat
-rw-r--r-- root/root     17595 2023-10-16 13:57 usr/lib64/python3.9/site-packages/babel/locale-data/ewo.dat
-rw-r--r-- root/root       609 2023-10-16 13:57 usr/lib64/python3.9/site-packages/babel/locale-data/ewo_CM.dat
-rw-r--r-- root/root    230032 2023-10-16 13:57 usr/lib64/python3.9/site-packages/babel/locale-data/fa.dat
-rw-r--r-- root/root     11215 2023-10-16 13:57 usr/lib64/python3.9/site-packages/babel/locale-data/fa_AF.dat
-rw-r--r-- root/root       651 2023-10-16 13:57 usr/lib64/python3.9/site-packages/babel/locale-data/fa_IR.dat
-rw-r--r-- root/root     16084 2023-10-16 13:57 usr/lib64/python3.9/site-packages/babel/locale-data/ff.dat
-rw-r--r-- root/root    250486 2023-10-16 13:57 usr/lib64/python3.9/site-packages/babel/locale-data/ff_Adlm.dat
-rw-r--r-- root/root       610 2023-10-16 13:57 usr/lib64/python3.9/site-packages/babel/locale-data/ff_Adlm_BF.dat
-rw-r--r-- root/root       629 2023-10-16 13:57 usr/lib64/python3.9/site-packages/babel/locale-data/ff_Adlm_CM.dat
-rw-r--r-- root/root      1209 2023-10-16 13:57 usr/lib64/python3.9/site-packages/babel/locale-data/ff_Adlm_GH.dat
-rw-r--r-- root/root      1205 2023-10-16 13:57 usr/lib64/python3.9/site-packages/babel/locale-data/ff_Adlm_GM.dat
-rw-r--r-- root/root       589 2023-10-16 13:57 usr/lib64/python3.9/site-packages/babel/locale-data/ff_Adlm_GN.dat
-rw-r--r-- root/root       610 2023-10-16 13:57 usr/lib64/python3.9/site-packages/babel/locale-data/ff_Adlm_GW.dat
-rw-r--r-- root/root      1205 2023-10-16 13:57 usr/lib64/python3.9/site-packages/babel/locale-data/ff_Adlm_LR.dat
-rw-r--r-- root/root      1206 2023-10-16 13:57 usr/lib64/python3.9/site-packages/babel/locale-data/ff_Adlm_MR.dat
-rw-r--r-- root/root       610 2023-10-16 13:57 usr/lib64/python3.9/site-packages/babel/locale-data/ff_Adlm_NE.dat
-rw-r--r-- root/root       631 2023-10-16 13:57 usr/lib64/python3.9/site-packages/babel/locale-data/ff_Adlm_NG.dat
-rw-r--r-- root/root      1206 2023-10-16 13:57 usr/lib64/python3.9/site-packages/babel/locale-data/ff_Adlm_SL.dat
-rw-r--r-- root/root       610 2023-10-16 13:57 usr/lib64/python3.9/site-packages/babel/locale-data/ff_Adlm_SN.dat
-rw-r--r-- root/root       839 2023-10-16 13:57 usr/lib64/python3.9/site-packages/babel/locale-data/ff_Latn.dat
-rw-r--r-- root/root       589 2023-10-16 13:57 usr/lib64/python3.9/site-packages/babel/locale-data/ff_Latn_BF.dat
-rw-r--r-- root/root       608 2023-10-16 13:57 usr/lib64/python3.9/site-packages/babel/locale-data/ff_Latn_CM.dat
-rw-r--r-- root/root      1188 2023-10-16 13:57 usr/lib64/python3.9/site-packages/babel/locale-data/ff_Latn_GH.dat
-rw-r--r-- root/root      1184 2023-10-16 13:57 usr/lib64/python3.9/site-packages/babel/locale-data/ff_Latn_GM.dat
-rw-r--r-- root/root       609 2023-10-16 13:57 usr/lib64/python3.9/site-packages/babel/locale-data/ff_Latn_GN.dat
-rw-r--r-- root/root       589 2023-10-16 13:57 usr/lib64/python3.9/site-packages/babel/locale-data/ff_Latn_GW.dat
-rw-r--r-- root/root      1184 2023-10-16 13:57 usr/lib64/python3.9/site-packages/babel/locale-data/ff_Latn_LR.dat
-rw-r--r-- root/root      1185 2023-10-16 13:57 usr/lib64/python3.9/site-packages/babel/locale-data/ff_Latn_MR.dat
-rw-r--r-- root/root       589 2023-10-16 13:57 usr/lib64/python3.9/site-packages/babel/locale-data/ff_Latn_NE.dat
-rw-r--r-- root/root       610 2023-10-16 13:57 usr/lib64/python3.9/site-packages/babel/locale-data/ff_Latn_NG.dat
-rw-r--r-- root/root      1185 2023-10-16 13:57 usr/lib64/python3.9/site-packages/babel/locale-data/ff_Latn_SL.dat
-rw-r--r-- root/root       589 2023-10-16 13:57 usr/lib64/python3.9/site-packages/babel/locale-data/ff_Latn_SN.dat
-rw-r--r-- root/root    237922 2023-10-16 13:57 usr/lib64/python3.9/site-packages/babel/locale-data/fi.dat
-rw-r--r-- root/root       626 2023-10-16 13:57 usr/lib64/python3.9/site-packages/babel/locale-data/fi_FI.dat
-rw-r--r-- root/root    187530 2023-10-16 13:57 usr/lib64/python3.9/site-packages/babel/locale-data/fil.dat
-rw-r--r-- root/root       609 2023-10-16 13:57 usr/lib64/python3.9/site-packages/babel/locale-data/fil_PH.dat
-rw-r--r-- root/root    171293 2023-10-16 13:57 usr/lib64/python3.9/site-packages/babel/locale-data/fo.dat
-rw-r--r-- root/root       647 2023-10-16 13:57 usr/lib64/python3.9/site-packages/babel/locale-data/fo_DK.dat
-rw-r--r-- root/root       626 2023-10-16 13:57 usr/lib64/python3.9/site-packages/babel/locale-data/fo_FO.dat
-rw-r--r-- root/root    235096 2023-10-16 13:57 usr/lib64/python3.9/site-packages/babel/locale-data/fr.dat
-rw-r--r-- root/root      1231 2023-10-16 13:57 usr/lib64/python3.9/site-packages/babel/locale-data/fr_BE.dat
-rw-r--r-- root/root       589 2023-10-16 13:57 usr/lib64/python3.9/site-packages/babel/locale-data/fr_BF.dat
-rw-r--r-- root/root       610 2023-10-16 13:57 usr/lib64/python3.9/site-packages/babel/locale-data/fr_BI.dat
-rw-r--r-- root/root       589 2023-10-16 13:57 usr/lib64/python3.9/site-packages/babel/locale-data/fr_BJ.dat
-rw-r--r-- root/root       589 2023-10-16 13:57 usr/lib64/python3.9/site-packages/babel/locale-data/fr_BL.dat
-rw-r--r-- root/root     69369 2023-10-16 13:57 usr/lib64/python3.9/site-packages/babel/locale-data/fr_CA.dat
-rw-r--r-- root/root      1106 2023-10-16 13:57 usr/lib64/python3.9/site-packages/babel/locale-data/fr_CD.dat
-rw-r--r-- root/root       589 2023-10-16 13:57 usr/lib64/python3.9/site-packages/babel/locale-data/fr_CF.dat
-rw-r--r-- root/root       589 2023-10-16 13:57 usr/lib64/python3.9/site-packages/babel/locale-data/fr_CG.dat
-rw-r--r-- root/root      2970 2023-10-16 13:57 usr/lib64/python3.9/site-packages/babel/locale-data/fr_CH.dat
-rw-r--r-- root/root       589 2023-10-16 13:57 usr/lib64/python3.9/site-packages/babel/locale-data/fr_CI.dat
-rw-r--r-- root/root      2083 2023-10-16 13:57 usr/lib64/python3.9/site-packages/babel/locale-data/fr_CM.dat
-rw-r--r-- root/root      1205 2023-10-16 13:57 usr/lib64/python3.9/site-packages/babel/locale-data/fr_DJ.dat
-rw-r--r-- root/root      1247 2023-10-16 13:57 usr/lib64/python3.9/site-packages/babel/locale-data/fr_DZ.dat
-rw-r--r-- root/root       626 2023-10-16 13:57 usr/lib64/python3.9/site-packages/babel/locale-data/fr_FR.dat
-rw-r--r-- root/root       589 2023-10-16 13:57 usr/lib64/python3.9/site-packages/babel/locale-data/fr_GA.dat
-rw-r--r-- root/root       692 2023-10-16 13:57 usr/lib64/python3.9/site-packages/babel/locale-data/fr_GF.dat
-rw-r--r-- root/root       609 2023-10-16 13:57 usr/lib64/python3.9/site-packages/babel/locale-data/fr_GN.dat
-rw-r--r-- root/root       626 2023-10-16 13:57 usr/lib64/python3.9/site-packages/babel/locale-data/fr_GP.dat
-rw-r--r-- root/root       589 2023-10-16 13:57 usr/lib64/python3.9/site-packages/babel/locale-data/fr_GQ.dat
-rw-r--r-- root/root      1873 2023-10-16 13:57 usr/lib64/python3.9/site-packages/babel/locale-data/fr_HT.dat
-rw-r--r-- root/root       609 2023-10-16 13:57 usr/lib64/python3.9/site-packages/babel/locale-data/fr_KM.dat
-rw-r--r-- root/root       687 2023-10-16 13:57 usr/lib64/python3.9/site-packages/babel/locale-data/fr_LU.dat
-rw-r--r-- root/root      1277 2023-10-16 13:57 usr/lib64/python3.9/site-packages/babel/locale-data/fr_MA.dat
-rw-r--r-- root/root       626 2023-10-16 13:57 usr/lib64/python3.9/site-packages/babel/locale-data/fr_MC.dat
-rw-r--r-- root/root       589 2023-10-16 13:57 usr/lib64/python3.9/site-packages/babel/locale-data/fr_MF.dat
-rw-r--r-- root/root       609 2023-10-16 13:57 usr/lib64/python3.9/site-packages/babel/locale-data/fr_MG.dat
-rw-r--r-- root/root      1126 2023-10-16 13:57 usr/lib64/python3.9/site-packages/babel/locale-data/fr_ML.dat
-rw-r--r-- root/root       626 2023-10-16 13:57 usr/lib64/python3.9/site-packages/babel/locale-data/fr_MQ.dat
-rw-r--r-- root/root      1185 2023-10-16 13:57 usr/lib64/python3.9/site-packages/babel/locale-data/fr_MR.dat
-rw-r--r-- root/root       609 2023-10-16 13:57 usr/lib64/python3.9/site-packages/babel/locale-data/fr_MU.dat
-rw-r--r-- root/root       589 2023-10-16 13:57 usr/lib64/python3.9/site-packages/babel/locale-data/fr_NC.dat
-rw-r--r-- root/root       589 2023-10-16 13:57 usr/lib64/python3.9/site-packages/babel/locale-data/fr_NE.dat
-rw-r--r-- root/root       589 2023-10-16 13:57 usr/lib64/python3.9/site-packages/babel/locale-data/fr_PF.dat
-rw-r--r-- root/root       589 2023-10-16 13:57 usr/lib64/python3.9/site-packages/babel/locale-data/fr_PM.dat
-rw-r--r-- root/root      1142 2023-10-16 13:57 usr/lib64/python3.9/site-packages/babel/locale-data/fr_RE.dat
-rw-r--r-- root/root       609 2023-10-16 13:57 usr/lib64/python3.9/site-packages/babel/locale-data/fr_RW.dat
-rw-r--r-- root/root       609 2023-10-16 13:57 usr/lib64/python3.9/site-packages/babel/locale-data/fr_SC.dat
-rw-r--r-- root/root      1277 2023-10-16 13:57 usr/lib64/python3.9/site-packages/babel/locale-data/fr_SN.dat
-rw-r--r-- root/root      1247 2023-10-16 13:57 usr/lib64/python3.9/site-packages/babel/locale-data/fr_SY.dat
-rw-r--r-- root/root      1165 2023-10-16 13:57 usr/lib64/python3.9/site-packages/babel/locale-data/fr_TD.dat
-rw-r--r-- root/root       589 2023-10-16 13:57 usr/lib64/python3.9/site-packages/babel/locale-data/fr_TG.dat
-rw-r--r-- root/root      1185 2023-10-16 13:57 usr/lib64/python3.9/site-packages/babel/locale-data/fr_TN.dat
-rw-r--r-- root/root      1185 2023-10-16 13:57 usr/lib64/python3.9/site-packages/babel/locale-data/fr_VU.dat
-rw-r--r-- root/root       589 2023-10-16 13:57 usr/lib64/python3.9/site-packages/babel/locale-data/fr_WF.dat
-rw-r--r-- root/root       589 2023-10-16 13:57 usr/lib64/python3.9/site-packages/babel/locale-data/fr_YT.dat
-rw-r--r-- root/root     35027 2023-10-16 13:57 usr/lib64/python3.9/site-packages/babel/locale-data/fur.dat
-rw-r--r-- root/root       627 2023-10-16 13:57 usr/lib64/python3.9/site-packages/babel/locale-data/fur_IT.dat
-rw-r--r-- root/root    110193 2023-10-16 13:57 usr/lib64/python3.9/site-packages/babel/locale-data/fy.dat
-rw-r--r-- root/root       626 2023-10-16 13:57 usr/lib64/python3.9/site-packages/babel/locale-data/fy_NL.dat
-rw-r--r-- root/root    325106 2023-10-16 13:57 usr/lib64/python3.9/site-packages/babel/locale-data/ga.dat
-rw-r--r-- root/root       626 2023-10-16 13:57 usr/lib64/python3.9/site-packages/babel/locale-data/ga_GB.dat
-rw-r--r-- root/root       626 2023-10-16 13:57 usr/lib64/python3.9/site-packages/babel/locale-data/ga_IE.dat
-rw-r--r-- root/root    312281 2023-10-16 13:57 usr/lib64/python3.9/site-packages/babel/locale-data/gd.dat
-rw-r--r-- root/root       626 2023-10-16 13:57 usr/lib64/python3.9/site-packages/babel/locale-data/gd_GB.dat
-rw-r--r-- root/root    187425 2023-10-16 13:57 usr/lib64/python3.9/site-packages/babel/locale-data/gl.dat
-rw-r--r-- root/root       626 2023-10-16 13:57 usr/lib64/python3.9/site-packages/babel/locale-data/gl_ES.dat
-rw-r--r-- root/root    108021 2023-10-16 13:57 usr/lib64/python3.9/site-packages/babel/locale-data/gsw.dat
-rw-r--r-- root/root       627 2023-10-16 13:57 usr/lib64/python3.9/site-packages/babel/locale-data/gsw_CH.dat
-rw-r--r-- root/root       627 2023-10-16 13:57 usr/lib64/python3.9/site-packages/babel/locale-data/gsw_FR.dat
-rw-r--r-- root/root       627 2023-10-16 13:57 usr/lib64/python3.9/site-packages/babel/locale-data/gsw_LI.dat
-rw-r--r-- root/root    256736 2023-10-16 13:57 usr/lib64/python3.9/site-packages/babel/locale-data/gu.dat
-rw-r--r-- root/root       631 2023-10-16 13:57 usr/lib64/python3.9/site-packages/babel/locale-data/gu_IN.dat
-rw-r--r-- root/root     16016 2023-10-16 13:57 usr/lib64/python3.9/site-packages/babel/locale-data/guz.dat
-rw-r--r-- root/root       609 2023-10-16 13:57 usr/lib64/python3.9/site-packages/babel/locale-data/guz_KE.dat
-rw-r--r-- root/root      4146 2023-10-16 13:57 usr/lib64/python3.9/site-packages/babel/locale-data/gv.dat
-rw-r--r-- root/root       607 2023-10-16 13:57 usr/lib64/python3.9/site-packages/babel/locale-data/gv_IM.dat
-rw-r--r-- root/root    147964 2023-10-16 13:57 usr/lib64/python3.9/site-packages/babel/locale-data/ha.dat
-rw-r--r-- root/root      1188 2023-10-16 13:57 usr/lib64/python3.9/site-packages/babel/locale-data/ha_GH.dat
-rw-r--r-- root/root      1260 2023-10-16 13:57 usr/lib64/python3.9/site-packages/babel/locale-data/ha_NE.dat
-rw-r--r-- root/root       589 2023-10-16 13:57 usr/lib64/python3.9/site-packages/babel/locale-data/ha_NG.dat
-rw-r--r-- root/root     16106 2023-10-16 13:57 usr/lib64/python3.9/site-packages/babel/locale-data/haw.dat
-rw-r--r-- root/root       627 2023-10-16 13:57 usr/lib64/python3.9/site-packages/babel/locale-data/haw_US.dat
-rw-r--r-- root/root    290199 2023-10-16 13:57 usr/lib64/python3.9/site-packages/babel/locale-data/he.dat
-rw-r--r-- root/root       651 2023-10-16 13:57 usr/lib64/python3.9/site-packages/babel/locale-data/he_IL.dat
-rw-r--r-- root/root    260340 2023-10-16 13:57 usr/lib64/python3.9/site-packages/babel/locale-data/hi.dat
-rw-r--r-- root/root       631 2023-10-16 13:57 usr/lib64/python3.9/site-packages/babel/locale-data/hi_IN.dat
-rw-r--r-- root/root     43044 2023-10-16 13:57 usr/lib64/python3.9/site-packages/babel/locale-data/hi_Latn.dat
-rw-r--r-- root/root       631 2023-10-16 13:57 usr/lib64/python3.9/site-packages/babel/locale-data/hi_Latn_IN.dat
-rw-r--r-- root/root    256869 2023-10-16 13:57 usr/lib64/python3.9/site-packages/babel/locale-data/hr.dat
-rw-r--r-- root/root      1161 2023-10-16 13:57 usr/lib64/python3.9/site-packages/babel/locale-data/hr_BA.dat
-rw-r--r-- root/root       608 2023-10-16 13:57 usr/lib64/python3.9/site-packages/babel/locale-data/hr_HR.dat
-rw-r--r-- root/root    223531 2023-10-16 13:57 usr/lib64/python3.9/site-packages/babel/locale-data/hsb.dat
-rw-r--r-- root/root       627 2023-10-16 13:57 usr/lib64/python3.9/site-packages/babel/locale-data/hsb_DE.dat
-rw-r--r-- root/root    201130 2023-10-16 13:57 usr/lib64/python3.9/site-packages/babel/locale-data/hu.dat
-rw-r--r-- root/root       626 2023-10-16 13:57 usr/lib64/python3.9/site-packages/babel/locale-data/hu_HU.dat
-rw-r--r-- root/root    225278 2023-10-16 13:57 usr/lib64/python3.9/site-packages/babel/locale-data/hy.dat
-rw-r--r-- root/root       608 2023-10-16 13:57 usr/lib64/python3.9/site-packages/babel/locale-data/hy_AM.dat
-rw-r--r-- root/root    122671 2023-10-16 13:57 usr/lib64/python3.9/site-packages/babel/locale-data/ia.dat
-rw-r--r-- root/root       914 2023-10-16 13:57 usr/lib64/python3.9/site-packages/babel/locale-data/ia_001.dat
-rw-r--r-- root/root    173996 2023-10-16 13:57 usr/lib64/python3.9/site-packages/babel/locale-data/id.dat
-rw-r--r-- root/root       608 2023-10-16 13:57 usr/lib64/python3.9/site-packages/babel/locale-data/id_ID.dat
-rw-r--r-- root/root     59881 2023-10-16 13:57 usr/lib64/python3.9/site-packages/babel/locale-data/ig.dat
-rw-r--r-- root/root       589 2023-10-16 13:57 usr/lib64/python3.9/site-packages/babel/locale-data/ig_NG.dat
-rw-r--r-- root/root     12576 2023-10-16 13:57 usr/lib64/python3.9/site-packages/babel/locale-data/ii.dat
-rw-r--r-- root/root       608 2023-10-16 13:57 usr/lib64/python3.9/site-packages/babel/locale-data/ii_CN.dat
-rw-r--r-- root/root    195772 2023-10-16 13:57 usr/lib64/python3.9/site-packages/babel/locale-data/is.dat
-rw-r--r-- root/root       626 2023-10-16 13:57 usr/lib64/python3.9/site-packages/babel/locale-data/is_IS.dat
-rw-r--r-- root/root    204981 2023-10-16 13:57 usr/lib64/python3.9/site-packages/babel/locale-data/it.dat
-rw-r--r-- root/root      2776 2023-10-16 13:57 usr/lib64/python3.9/site-packages/babel/locale-data/it_CH.dat
-rw-r--r-- root/root       626 2023-10-16 13:57 usr/lib64/python3.9/site-packages/babel/locale-data/it_IT.dat
-rw-r--r-- root/root       626 2023-10-16 13:57 usr/lib64/python3.9/site-packages/babel/locale-data/it_SM.dat
-rw-r--r-- root/root       626 2023-10-16 13:57 usr/lib64/python3.9/site-packages/babel/locale-data/it_VA.dat
-rw-r--r-- root/root    210813 2023-10-16 13:57 usr/lib64/python3.9/site-packages/babel/locale-data/ja.dat
-rw-r--r-- root/root       608 2023-10-16 13:57 usr/lib64/python3.9/site-packages/babel/locale-data/ja_JP.dat
-rw-r--r-- root/root     12628 2023-10-16 13:57 usr/lib64/python3.9/site-packages/babel/locale-data/jgo.dat
-rw-r--r-- root/root       609 2023-10-16 13:57 usr/lib64/python3.9/site-packages/babel/locale-data/jgo_CM.dat
-rw-r--r-- root/root     16068 2023-10-16 13:57 usr/lib64/python3.9/site-packages/babel/locale-data/jmc.dat
-rw-r--r-- root/root       590 2023-10-16 13:57 usr/lib64/python3.9/site-packages/babel/locale-data/jmc_TZ.dat
-rw-r--r-- root/root    134912 2023-10-16 13:57 usr/lib64/python3.9/site-packages/babel/locale-data/jv.dat
-rw-r--r-- root/root       608 2023-10-16 13:57 usr/lib64/python3.9/site-packages/babel/locale-data/jv_ID.dat
-rw-r--r-- root/root    273253 2023-10-16 13:57 usr/lib64/python3.9/site-packages/babel/locale-data/ka.dat
-rw-r--r-- root/root       608 2023-10-16 13:57 usr/lib64/python3.9/site-packages/babel/locale-data/ka_GE.dat
-rw-r--r-- root/root    147343 2023-10-16 13:57 usr/lib64/python3.9/site-packages/babel/locale-data/kab.dat
-rw-r--r-- root/root       652 2023-10-16 13:57 usr/lib64/python3.9/site-packages/babel/locale-data/kab_DZ.dat
-rw-r--r-- root/root     16175 2023-10-16 13:57 usr/lib64/python3.9/site-packages/babel/locale-data/kam.dat
-rw-r--r-- root/root       609 2023-10-16 13:57 usr/lib64/python3.9/site-packages/babel/locale-data/kam_KE.dat
-rw-r--r-- root/root     16475 2023-10-16 13:57 usr/lib64/python3.9/site-packages/babel/locale-data/kde.dat
-rw-r--r-- root/root       590 2023-10-16 13:57 usr/lib64/python3.9/site-packages/babel/locale-data/kde_TZ.dat
-rw-r--r-- root/root     92388 2023-10-16 13:57 usr/lib64/python3.9/site-packages/babel/locale-data/kea.dat
-rw-r--r-- root/root       590 2023-10-16 13:57 usr/lib64/python3.9/site-packages/babel/locale-data/kea_CV.dat
-rw-r--r-- root/root    198886 2023-10-16 13:57 usr/lib64/python3.9/site-packages/babel/locale-data/kgp.dat
-rw-r--r-- root/root       609 2023-10-16 13:57 usr/lib64/python3.9/site-packages/babel/locale-data/kgp_BR.dat
-rw-r--r-- root/root     15939 2023-10-16 13:57 usr/lib64/python3.9/site-packages/babel/locale-data/khq.dat
-rw-r--r-- root/root       590 2023-10-16 13:57 usr/lib64/python3.9/site-packages/babel/locale-data/khq_ML.dat
-rw-r--r-- root/root     16123 2023-10-16 13:57 usr/lib64/python3.9/site-packages/babel/locale-data/ki.dat
-rw-r--r-- root/root       608 2023-10-16 13:57 usr/lib64/python3.9/site-packages/babel/locale-data/ki_KE.dat
-rw-r--r-- root/root    217410 2023-10-16 13:57 usr/lib64/python3.9/site-packages/babel/locale-data/kk.dat
-rw-r--r-- root/root       608 2023-10-16 13:57 usr/lib64/python3.9/site-packages/babel/locale-data/kk_KZ.dat
-rw-r--r-- root/root      4888 2023-10-16 13:57 usr/lib64/python3.9/site-packages/babel/locale-data/kkj.dat
-rw-r--r-- root/root       609 2023-10-16 13:57 usr/lib64/python3.9/site-packages/babel/locale-data/kkj_CM.dat
-rw-r--r-- root/root     58210 2023-10-16 13:57 usr/lib64/python3.9/site-packages/babel/locale-data/kl.dat
-rw-r--r-- root/root       589 2023-10-16 13:57 usr/lib64/python3.9/site-packages/babel/locale-data/kl_GL.dat
-rw-r--r-- root/root     18003 2023-10-16 13:57 usr/lib64/python3.9/site-packages/babel/locale-data/kln.dat
-rw-r--r-- root/root       609 2023-10-16 13:57 usr/lib64/python3.9/site-packages/babel/locale-data/kln_KE.dat
-rw-r--r-- root/root    208836 2023-10-16 13:57 usr/lib64/python3.9/site-packages/babel/locale-data/km.dat
-rw-r--r-- root/root       608 2023-10-16 13:57 usr/lib64/python3.9/site-packages/babel/locale-data/km_KH.dat
-rw-r--r-- root/root    284833 2023-10-16 13:57 usr/lib64/python3.9/site-packages/babel/locale-data/kn.dat
-rw-r--r-- root/root       631 2023-10-16 13:57 usr/lib64/python3.9/site-packages/babel/locale-data/kn_IN.dat
-rw-r--r-- root/root    182196 2023-10-16 13:57 usr/lib64/python3.9/site-packages/babel/locale-data/ko.dat
-rw-r--r-- root/root       789 2023-10-16 13:57 usr/lib64/python3.9/site-packages/babel/locale-data/ko_KP.dat
-rw-r--r-- root/root       608 2023-10-16 13:57 usr/lib64/python3.9/site-packages/babel/locale-data/ko_KR.dat
-rw-r--r-- root/root    206452 2023-10-16 13:57 usr/lib64/python3.9/site-packages/babel/locale-data/kok.dat
-rw-r--r-- root/root       632 2023-10-16 13:57 usr/lib64/python3.9/site-packages/babel/locale-data/kok_IN.dat
-rw-r--r-- root/root    105418 2023-10-16 13:57 usr/lib64/python3.9/site-packages/babel/locale-data/ks.dat
-rw-r--r-- root/root       823 2023-10-16 13:57 usr/lib64/python3.9/site-packages/babel/locale-data/ks_Arab.dat
-rw-r--r-- root/root       631 2023-10-16 13:57 usr/lib64/python3.9/site-packages/babel/locale-data/ks_Arab_IN.dat
-rw-r--r-- root/root     11933 2023-10-16 13:57 usr/lib64/python3.9/site-packages/babel/locale-data/ks_Deva.dat
-rw-r--r-- root/root       631 2023-10-16 13:57 usr/lib64/python3.9/site-packages/babel/locale-data/ks_Deva_IN.dat
-rw-r--r-- root/root     16043 2023-10-16 13:57 usr/lib64/python3.9/site-packages/babel/locale-data/ksb.dat
-rw-r--r-- root/root       590 2023-10-16 13:57 usr/lib64/python3.9/site-packages/babel/locale-data/ksb_TZ.dat
-rw-r--r-- root/root     16515 2023-10-16 13:57 usr/lib64/python3.9/site-packages/babel/locale-data/ksf.dat
-rw-r--r-- root/root       609 2023-10-16 13:57 usr/lib64/python3.9/site-packages/babel/locale-data/ksf_CM.dat
-rw-r--r-- root/root     88937 2023-10-16 13:57 usr/lib64/python3.9/site-packages/babel/locale-data/ksh.dat
-rw-r--r-- root/root       627 2023-10-16 13:57 usr/lib64/python3.9/site-packages/babel/locale-data/ksh_DE.dat
-rw-r--r-- root/root     28771 2023-10-16 13:57 usr/lib64/python3.9/site-packages/babel/locale-data/ku.dat
-rw-r--r-- root/root       608 2023-10-16 13:57 usr/lib64/python3.9/site-packages/babel/locale-data/ku_TR.dat
-rw-r--r-- root/root      7242 2023-10-16 13:57 usr/lib64/python3.9/site-packages/babel/locale-data/kw.dat
-rw-r--r-- root/root       626 2023-10-16 13:57 usr/lib64/python3.9/site-packages/babel/locale-data/kw_GB.dat
-rw-r--r-- root/root    206999 2023-10-16 13:57 usr/lib64/python3.9/site-packages/babel/locale-data/ky.dat
-rw-r--r-- root/root       608 2023-10-16 13:57 usr/lib64/python3.9/site-packages/babel/locale-data/ky_KG.dat
-rw-r--r-- root/root     17141 2023-10-16 13:57 usr/lib64/python3.9/site-packages/babel/locale-data/lag.dat
-rw-r--r-- root/root       590 2023-10-16 13:57 usr/lib64/python3.9/site-packages/babel/locale-data/lag_TZ.dat
-rw-r--r-- root/root    164573 2023-10-16 13:57 usr/lib64/python3.9/site-packages/babel/locale-data/lb.dat
-rw-r--r-- root/root       626 2023-10-16 13:57 usr/lib64/python3.9/site-packages/babel/locale-data/lb_LU.dat
-rw-r--r-- root/root     16434 2023-10-16 13:57 usr/lib64/python3.9/site-packages/babel/locale-data/lg.dat
-rw-r--r-- root/root       612 2023-10-16 13:57 usr/lib64/python3.9/site-packages/babel/locale-data/lg_UG.dat
-rw-r--r-- root/root     12766 2023-10-16 13:57 usr/lib64/python3.9/site-packages/babel/locale-data/lkt.dat
-rw-r--r-- root/root       627 2023-10-16 13:57 usr/lib64/python3.9/site-packages/babel/locale-data/lkt_US.dat
-rw-r--r-- root/root     25891 2023-10-16 13:57 usr/lib64/python3.9/site-packages/babel/locale-data/ln.dat
-rw-r--r-- root/root       609 2023-10-16 13:57 usr/lib64/python3.9/site-packages/babel/locale-data/ln_AO.dat
-rw-r--r-- root/root       589 2023-10-16 13:57 usr/lib64/python3.9/site-packages/babel/locale-data/ln_CD.dat
-rw-r--r-- root/root       589 2023-10-16 13:57 usr/lib64/python3.9/site-packages/babel/locale-data/ln_CF.dat
-rw-r--r-- root/root       589 2023-10-16 13:57 usr/lib64/python3.9/site-packages/babel/locale-data/ln_CG.dat
-rw-r--r-- root/root    223602 2023-10-16 13:57 usr/lib64/python3.9/site-packages/babel/locale-data/lo.dat
-rw-r--r-- root/root       608 2023-10-16 13:57 usr/lib64/python3.9/site-packages/babel/locale-data/lo_LA.dat
-rw-r--r-- root/root     19021 2023-10-16 13:57 usr/lib64/python3.9/site-packages/babel/locale-data/lrc.dat
-rw-r--r-- root/root      1228 2023-10-16 13:57 usr/lib64/python3.9/site-packages/babel/locale-data/lrc_IQ.dat
-rw-r--r-- root/root       652 2023-10-16 13:57 usr/lib64/python3.9/site-packages/babel/locale-data/lrc_IR.dat
-rw-r--r-- root/root    294055 2023-10-16 13:57 usr/lib64/python3.9/site-packages/babel/locale-data/lt.dat
-rw-r--r-- root/root       626 2023-10-16 13:57 usr/lib64/python3.9/site-packages/babel/locale-data/lt_LT.dat
-rw-r--r-- root/root     15888 2023-10-16 13:57 usr/lib64/python3.9/site-packages/babel/locale-data/lu.dat
-rw-r--r-- root/root       589 2023-10-16 13:57 usr/lib64/python3.9/site-packages/babel/locale-data/lu_CD.dat
-rw-r--r-- root/root     15885 2023-10-16 13:57 usr/lib64/python3.9/site-packages/babel/locale-data/luo.dat
-rw-r--r-- root/root       609 2023-10-16 13:57 usr/lib64/python3.9/site-packages/babel/locale-data/luo_KE.dat
-rw-r--r-- root/root     15859 2023-10-16 13:57 usr/lib64/python3.9/site-packages/babel/locale-data/luy.dat
-rw-r--r-- root/root       609 2023-10-16 13:57 usr/lib64/python3.9/site-packages/babel/locale-data/luy_KE.dat
-rw-r--r-- root/root    223722 2023-10-16 13:57 usr/lib64/python3.9/site-packages/babel/locale-data/lv.dat
-rw-r--r-- root/root       608 2023-10-16 13:57 usr/lib64/python3.9/site-packages/babel/locale-data/lv_LV.dat
-rw-r--r-- root/root     14678 2023-10-16 13:57 usr/lib64/python3.9/site-packages/babel/locale-data/mai.dat
-rw-r--r-- root/root       632 2023-10-16 13:57 usr/lib64/python3.9/site-packages/babel/locale-data/mai_IN.dat
-rw-r--r-- root/root     17297 2023-10-16 13:57 usr/lib64/python3.9/site-packages/babel/locale-data/mas.dat
-rw-r--r-- root/root       609 2023-10-16 13:57 usr/lib64/python3.9/site-packages/babel/locale-data/mas_KE.dat
-rw-r--r-- root/root       611 2023-10-16 13:57 usr/lib64/python3.9/site-packages/babel/locale-data/mas_TZ.dat
-rw-r--r-- root/root     16088 2023-10-16 13:57 usr/lib64/python3.9/site-packages/babel/locale-data/mer.dat
-rw-r--r-- root/root       609 2023-10-16 13:57 usr/lib64/python3.9/site-packages/babel/locale-data/mer_KE.dat
-rw-r--r-- root/root     15117 2023-10-16 13:57 usr/lib64/python3.9/site-packages/babel/locale-data/mfe.dat
-rw-r--r-- root/root       590 2023-10-16 13:57 usr/lib64/python3.9/site-packages/babel/locale-data/mfe_MU.dat
-rw-r--r-- root/root     23550 2023-10-16 13:57 usr/lib64/python3.9/site-packages/babel/locale-data/mg.dat
-rw-r--r-- root/root       589 2023-10-16 13:57 usr/lib64/python3.9/site-packages/babel/locale-data/mg_MG.dat
-rw-r--r-- root/root     10479 2023-10-16 13:57 usr/lib64/python3.9/site-packages/babel/locale-data/mgh.dat
-rw-r--r-- root/root       609 2023-10-16 13:57 usr/lib64/python3.9/site-packages/babel/locale-data/mgh_MZ.dat
-rw-r--r-- root/root      8206 2023-10-16 13:57 usr/lib64/python3.9/site-packages/babel/locale-data/mgo.dat
-rw-r--r-- root/root       609 2023-10-16 13:57 usr/lib64/python3.9/site-packages/babel/locale-data/mgo_CM.dat
-rw-r--r-- root/root     21440 2023-10-16 13:57 usr/lib64/python3.9/site-packages/babel/locale-data/mi.dat
-rw-r--r-- root/root       608 2023-10-16 13:57 usr/lib64/python3.9/site-packages/babel/locale-data/mi_NZ.dat
-rw-r--r-- root/root    237317 2023-10-16 13:57 usr/lib64/python3.9/site-packages/babel/locale-data/mk.dat
-rw-r--r-- root/root       608 2023-10-16 13:57 usr/lib64/python3.9/site-packages/babel/locale-data/mk_MK.dat
-rw-r--r-- root/root    291107 2023-10-16 13:57 usr/lib64/python3.9/site-packages/babel/locale-data/ml.dat
-rw-r--r-- root/root       631 2023-10-16 13:57 usr/lib64/python3.9/site-packages/babel/locale-data/ml_IN.dat
-rw-r--r-- root/root    210790 2023-10-16 13:57 usr/lib64/python3.9/site-packages/babel/locale-data/mn.dat
-rw-r--r-- root/root       608 2023-10-16 13:57 usr/lib64/python3.9/site-packages/babel/locale-data/mn_MN.dat
-rw-r--r-- root/root     14904 2023-10-16 13:57 usr/lib64/python3.9/site-packages/babel/locale-data/mni.dat
-rw-r--r-- root/root       666 2023-10-16 13:57 usr/lib64/python3.9/site-packages/babel/locale-data/mni_Beng.dat
-rw-r--r-- root/root       632 2023-10-16 13:57 usr/lib64/python3.9/site-packages/babel/locale-data/mni_Beng_IN.dat
-rw-r--r-- root/root    257399 2023-10-16 13:57 usr/lib64/python3.9/site-packages/babel/locale-data/mr.dat
-rw-r--r-- root/root       631 2023-10-16 13:57 usr/lib64/python3.9/site-packages/babel/locale-data/mr_IN.dat
-rw-r--r-- root/root    160811 2023-10-16 13:57 usr/lib64/python3.9/site-packages/babel/locale-data/ms.dat
-rw-r--r-- root/root      1257 2023-10-16 13:57 usr/lib64/python3.9/site-packages/babel/locale-data/ms_BN.dat
-rw-r--r-- root/root      3272 2023-10-16 13:57 usr/lib64/python3.9/site-packages/babel/locale-data/ms_ID.dat
-rw-r--r-- root/root       608 2023-10-16 13:57 usr/lib64/python3.9/site-packages/babel/locale-data/ms_MY.dat
-rw-r--r-- root/root       627 2023-10-16 13:57 usr/lib64/python3.9/site-packages/babel/locale-data/ms_SG.dat
-rw-r--r-- root/root     78217 2023-10-16 13:57 usr/lib64/python3.9/site-packages/babel/locale-data/mt.dat
-rw-r--r-- root/root       608 2023-10-16 13:57 usr/lib64/python3.9/site-packages/babel/locale-data/mt_MT.dat
-rw-r--r-- root/root     16547 2023-10-16 13:57 usr/lib64/python3.9/site-packages/babel/locale-data/mua.dat
-rw-r--r-- root/root       609 2023-10-16 13:57 usr/lib64/python3.9/site-packages/babel/locale-data/mua_CM.dat
-rw-r--r-- root/root    216348 2023-10-16 13:57 usr/lib64/python3.9/site-packages/babel/locale-data/my.dat
-rw-r--r-- root/root       608 2023-10-16 13:57 usr/lib64/python3.9/site-packages/babel/locale-data/my_MM.dat
-rw-r--r-- root/root     65499 2023-10-16 13:57 usr/lib64/python3.9/site-packages/babel/locale-data/mzn.dat
-rw-r--r-- root/root       652 2023-10-16 13:57 usr/lib64/python3.9/site-packages/babel/locale-data/mzn_IR.dat
-rw-r--r-- root/root     16617 2023-10-16 13:57 usr/lib64/python3.9/site-packages/babel/locale-data/naq.dat
-rw-r--r-- root/root       590 2023-10-16 13:57 usr/lib64/python3.9/site-packages/babel/locale-data/naq_NA.dat
-rw-r--r-- root/root      1303 2023-10-16 13:57 usr/lib64/python3.9/site-packages/babel/locale-data/nb.dat
-rw-r--r-- root/root       626 2023-10-16 13:57 usr/lib64/python3.9/site-packages/babel/locale-data/nb_NO.dat
-rw-r--r-- root/root       607 2023-10-16 13:57 usr/lib64/python3.9/site-packages/babel/locale-data/nb_SJ.dat
-rw-r--r-- root/root     16312 2023-10-16 13:57 usr/lib64/python3.9/site-packages/babel/locale-data/nd.dat
-rw-r--r-- root/root       608 2023-10-16 13:57 usr/lib64/python3.9/site-packages/babel/locale-data/nd_ZW.dat
-rw-r--r-- root/root     50602 2023-10-16 13:57 usr/lib64/python3.9/site-packages/babel/locale-data/nds.dat
-rw-r--r-- root/root       627 2023-10-16 13:57 usr/lib64/python3.9/site-packages/babel/locale-data/nds_DE.dat
-rw-r--r-- root/root       627 2023-10-16 13:57 usr/lib64/python3.9/site-packages/babel/locale-data/nds_NL.dat
-rw-r--r-- root/root    256080 2023-10-16 13:57 usr/lib64/python3.9/site-packages/babel/locale-data/ne.dat
-rw-r--r-- root/root      1265 2023-10-16 13:57 usr/lib64/python3.9/site-packages/babel/locale-data/ne_IN.dat
-rw-r--r-- root/root       608 2023-10-16 13:57 usr/lib64/python3.9/site-packages/babel/locale-data/ne_NP.dat
-rw-r--r-- root/root    223561 2023-10-16 13:57 usr/lib64/python3.9/site-packages/babel/locale-data/nl.dat
-rw-r--r-- root/root       611 2023-10-16 13:57 usr/lib64/python3.9/site-packages/babel/locale-data/nl_AW.dat
-rw-r--r-- root/root      1835 2023-10-16 13:57 usr/lib64/python3.9/site-packages/babel/locale-data/nl_BE.dat
-rw-r--r-- root/root       608 2023-10-16 13:57 usr/lib64/python3.9/site-packages/babel/locale-data/nl_BQ.dat
-rw-r--r-- root/root       611 2023-10-16 13:57 usr/lib64/python3.9/site-packages/babel/locale-data/nl_CW.dat
-rw-r--r-- root/root       626 2023-10-16 13:57 usr/lib64/python3.9/site-packages/babel/locale-data/nl_NL.dat
-rw-r--r-- root/root       669 2023-10-16 13:57 usr/lib64/python3.9/site-packages/babel/locale-data/nl_SR.dat
-rw-r--r-- root/root       611 2023-10-16 13:57 usr/lib64/python3.9/site-packages/babel/locale-data/nl_SX.dat
-rw-r--r-- root/root     16189 2023-10-16 13:57 usr/lib64/python3.9/site-packages/babel/locale-data/nmg.dat
-rw-r--r-- root/root       609 2023-10-16 13:57 usr/lib64/python3.9/site-packages/babel/locale-data/nmg_CM.dat
-rw-r--r-- root/root     68041 2023-10-16 13:57 usr/lib64/python3.9/site-packages/babel/locale-data/nn.dat
-rw-r--r-- root/root       626 2023-10-16 13:57 usr/lib64/python3.9/site-packages/babel/locale-data/nn_NO.dat
-rw-r--r-- root/root      6766 2023-10-16 13:57 usr/lib64/python3.9/site-packages/babel/locale-data/nnh.dat
-rw-r--r-- root/root       609 2023-10-16 13:57 usr/lib64/python3.9/site-packages/babel/locale-data/nnh_CM.dat
-rw-r--r-- root/root    219861 2023-10-16 13:57 usr/lib64/python3.9/site-packages/babel/locale-data/no.dat
-rw-r--r-- root/root      9153 2023-10-16 13:57 usr/lib64/python3.9/site-packages/babel/locale-data/nus.dat
-rw-r--r-- root/root       590 2023-10-16 13:57 usr/lib64/python3.9/site-packages/babel/locale-data/nus_SS.dat
-rw-r--r-- root/root     16275 2023-10-16 13:57 usr/lib64/python3.9/site-packages/babel/locale-data/nyn.dat
-rw-r--r-- root/root       613 2023-10-16 13:57 usr/lib64/python3.9/site-packages/babel/locale-data/nyn_UG.dat
-rw-r--r-- root/root     16588 2023-10-16 13:57 usr/lib64/python3.9/site-packages/babel/locale-data/om.dat
-rw-r--r-- root/root       608 2023-10-16 13:57 usr/lib64/python3.9/site-packages/babel/locale-data/om_ET.dat
-rw-r--r-- root/root      1566 2023-10-16 13:57 usr/lib64/python3.9/site-packages/babel/locale-data/om_KE.dat
-rw-r--r-- root/root    244045 2023-10-16 13:57 usr/lib64/python3.9/site-packages/babel/locale-data/or.dat
-rw-r--r-- root/root       631 2023-10-16 13:57 usr/lib64/python3.9/site-packages/babel/locale-data/or_IN.dat
-rw-r--r-- root/root     17627 2023-10-16 13:57 usr/lib64/python3.9/site-packages/babel/locale-data/os.dat
-rw-r--r-- root/root       608 2023-10-16 13:57 usr/lib64/python3.9/site-packages/babel/locale-data/os_GE.dat
-rw-r--r-- root/root       668 2023-10-16 13:57 usr/lib64/python3.9/site-packages/babel/locale-data/os_RU.dat
-rw-r--r-- root/root    255940 2023-10-16 13:57 usr/lib64/python3.9/site-packages/babel/locale-data/pa.dat
-rw-r--r-- root/root      3984 2023-10-16 13:57 usr/lib64/python3.9/site-packages/babel/locale-data/pa_Arab.dat
-rw-r--r-- root/root       608 2023-10-16 13:57 usr/lib64/python3.9/site-packages/babel/locale-data/pa_Arab_PK.dat
-rw-r--r-- root/root      1249 2023-10-16 13:57 usr/lib64/python3.9/site-packages/babel/locale-data/pa_Guru.dat
-rw-r--r-- root/root       631 2023-10-16 13:57 usr/lib64/python3.9/site-packages/babel/locale-data/pa_Guru_IN.dat
-rw-r--r-- root/root    182127 2023-10-16 13:57 usr/lib64/python3.9/site-packages/babel/locale-data/pcm.dat
-rw-r--r-- root/root       590 2023-10-16 13:57 usr/lib64/python3.9/site-packages/babel/locale-data/pcm_NG.dat
-rw-r--r-- root/root    250630 2023-10-16 13:57 usr/lib64/python3.9/site-packages/babel/locale-data/pl.dat
-rw-r--r-- root/root       626 2023-10-16 13:57 usr/lib64/python3.9/site-packages/babel/locale-data/pl_PL.dat
-rw-r--r-- root/root    184404 2023-10-16 13:57 usr/lib64/python3.9/site-packages/babel/locale-data/ps.dat
-rw-r--r-- root/root       651 2023-10-16 13:57 usr/lib64/python3.9/site-packages/babel/locale-data/ps_AF.dat
-rw-r--r-- root/root      7954 2023-10-16 13:57 usr/lib64/python3.9/site-packages/babel/locale-data/ps_PK.dat
-rw-r--r-- root/root    205414 2023-10-16 13:57 usr/lib64/python3.9/site-packages/babel/locale-data/pt.dat
-rw-r--r-- root/root       995 2023-10-16 13:57 usr/lib64/python3.9/site-packages/babel/locale-data/pt_AO.dat
-rw-r--r-- root/root       608 2023-10-16 13:57 usr/lib64/python3.9/site-packages/babel/locale-data/pt_BR.dat
-rw-r--r-- root/root       626 2023-10-16 13:57 usr/lib64/python3.9/site-packages/babel/locale-data/pt_CH.dat
-rw-r--r-- root/root      1012 2023-10-16 13:57 usr/lib64/python3.9/site-packages/babel/locale-data/pt_CV.dat
-rw-r--r-- root/root       589 2023-10-16 13:57 usr/lib64/python3.9/site-packages/babel/locale-data/pt_GQ.dat
-rw-r--r-- root/root       975 2023-10-16 13:57 usr/lib64/python3.9/site-packages/babel/locale-data/pt_GW.dat
-rw-r--r-- root/root       645 2023-10-16 13:57 usr/lib64/python3.9/site-packages/babel/locale-data/pt_LU.dat
-rw-r--r-- root/root      1592 2023-10-16 13:57 usr/lib64/python3.9/site-packages/babel/locale-data/pt_MO.dat
-rw-r--r-- root/root      1015 2023-10-16 13:57 usr/lib64/python3.9/site-packages/babel/locale-data/pt_MZ.dat
-rw-r--r-- root/root    102640 2023-10-16 13:57 usr/lib64/python3.9/site-packages/babel/locale-data/pt_PT.dat
-rw-r--r-- root/root       995 2023-10-16 13:57 usr/lib64/python3.9/site-packages/babel/locale-data/pt_ST.dat
-rw-r--r-- root/root       975 2023-10-16 13:57 usr/lib64/python3.9/site-packages/babel/locale-data/pt_TL.dat
-rw-r--r-- root/root    117027 2023-10-16 13:57 usr/lib64/python3.9/site-packages/babel/locale-data/qu.dat
-rw-r--r-- root/root       836 2023-10-16 13:57 usr/lib64/python3.9/site-packages/babel/locale-data/qu_BO.dat
-rw-r--r-- root/root       810 2023-10-16 13:57 usr/lib64/python3.9/site-packages/babel/locale-data/qu_EC.dat
-rw-r--r-- root/root       608 2023-10-16 13:57 usr/lib64/python3.9/site-packages/babel/locale-data/qu_PE.dat
-rw-r--r-- root/root    101929 2023-10-16 13:57 usr/lib64/python3.9/site-packages/babel/locale-data/rm.dat
-rw-r--r-- root/root       626 2023-10-16 13:57 usr/lib64/python3.9/site-packages/babel/locale-data/rm_CH.dat
-rw-r--r-- root/root     16781 2023-10-16 13:57 usr/lib64/python3.9/site-packages/babel/locale-data/rn.dat
-rw-r--r-- root/root       589 2023-10-16 13:57 usr/lib64/python3.9/site-packages/babel/locale-data/rn_BI.dat
-rw-r--r-- root/root    238308 2023-10-16 13:57 usr/lib64/python3.9/site-packages/babel/locale-data/ro.dat
-rw-r--r-- root/root      3215 2023-10-16 13:57 usr/lib64/python3.9/site-packages/babel/locale-data/ro_MD.dat
-rw-r--r-- root/root       608 2023-10-16 13:57 usr/lib64/python3.9/site-packages/babel/locale-data/ro_RO.dat
-rw-r--r-- root/root     16170 2023-10-16 13:57 usr/lib64/python3.9/site-packages/babel/locale-data/rof.dat
-rw-r--r-- root/root       590 2023-10-16 13:57 usr/lib64/python3.9/site-packages/babel/locale-data/rof_TZ.dat
-rw-r--r-- root/root     44419 2023-10-16 13:57 usr/lib64/python3.9/site-packages/babel/locale-data/root.dat
-rw-r--r-- root/root    316257 2023-10-16 13:57 usr/lib64/python3.9/site-packages/babel/locale-data/ru.dat
-rw-r--r-- root/root       649 2023-10-16 13:57 usr/lib64/python3.9/site-packages/babel/locale-data/ru_BY.dat
-rw-r--r-- root/root       632 2023-10-16 13:57 usr/lib64/python3.9/site-packages/babel/locale-data/ru_KG.dat
-rw-r--r-- root/root       629 2023-10-16 13:57 usr/lib64/python3.9/site-packages/babel/locale-data/ru_KZ.dat
-rw-r--r-- root/root       627 2023-10-16 13:57 usr/lib64/python3.9/site-packages/babel/locale-data/ru_MD.dat
-rw-r--r-- root/root       626 2023-10-16 13:57 usr/lib64/python3.9/site-packages/babel/locale-data/ru_RU.dat
-rw-r--r-- root/root      1668 2023-10-16 13:57 usr/lib64/python3.9/site-packages/babel/locale-data/ru_UA.dat
-rw-r--r-- root/root     16213 2023-10-16 13:57 usr/lib64/python3.9/site-packages/babel/locale-data/rw.dat
-rw-r--r-- root/root       589 2023-10-16 13:57 usr/lib64/python3.9/site-packages/babel/locale-data/rw_RW.dat
-rw-r--r-- root/root     16057 2023-10-16 13:57 usr/lib64/python3.9/site-packages/babel/locale-data/rwk.dat
-rw-r--r-- root/root       590 2023-10-16 13:57 usr/lib64/python3.9/site-packages/babel/locale-data/rwk_TZ.dat
-rw-r--r-- root/root     24096 2023-10-16 13:57 usr/lib64/python3.9/site-packages/babel/locale-data/sa.dat
-rw-r--r-- root/root       631 2023-10-16 13:57 usr/lib64/python3.9/site-packages/babel/locale-data/sa_IN.dat
-rw-r--r-- root/root     48180 2023-10-16 13:57 usr/lib64/python3.9/site-packages/babel/locale-data/sah.dat
-rw-r--r-- root/root       627 2023-10-16 13:57 usr/lib64/python3.9/site-packages/babel/locale-data/sah_RU.dat
-rw-r--r-- root/root     16455 2023-10-16 13:57 usr/lib64/python3.9/site-packages/babel/locale-data/saq.dat
-rw-r--r-- root/root       609 2023-10-16 13:57 usr/lib64/python3.9/site-packages/babel/locale-data/saq_KE.dat
-rw-r--r-- root/root     29012 2023-10-16 13:57 usr/lib64/python3.9/site-packages/babel/locale-data/sat.dat
-rw-r--r-- root/root       878 2023-10-16 13:57 usr/lib64/python3.9/site-packages/babel/locale-data/sat_Olck.dat
-rw-r--r-- root/root       632 2023-10-16 13:57 usr/lib64/python3.9/site-packages/babel/locale-data/sat_Olck_IN.dat
-rw-r--r-- root/root     16479 2023-10-16 13:57 usr/lib64/python3.9/site-packages/babel/locale-data/sbp.dat
-rw-r--r-- root/root       590 2023-10-16 13:57 usr/lib64/python3.9/site-packages/babel/locale-data/sbp_TZ.dat
-rw-r--r-- root/root    186240 2023-10-16 13:57 usr/lib64/python3.9/site-packages/babel/locale-data/sc.dat
-rw-r--r-- root/root       626 2023-10-16 13:57 usr/lib64/python3.9/site-packages/babel/locale-data/sc_IT.dat
-rw-r--r-- root/root    194512 2023-10-16 13:57 usr/lib64/python3.9/site-packages/babel/locale-data/sd.dat
-rw-r--r-- root/root       852 2023-10-16 13:57 usr/lib64/python3.9/site-packages/babel/locale-data/sd_Arab.dat
-rw-r--r-- root/root       608 2023-10-16 13:57 usr/lib64/python3.9/site-packages/babel/locale-data/sd_Arab_PK.dat
-rw-r--r-- root/root     16477 2023-10-16 13:57 usr/lib64/python3.9/site-packages/babel/locale-data/sd_Deva.dat
-rw-r--r-- root/root       631 2023-10-16 13:57 usr/lib64/python3.9/site-packages/babel/locale-data/sd_Deva_IN.dat
-rw-r--r-- root/root     72353 2023-10-16 13:57 usr/lib64/python3.9/site-packages/babel/locale-data/se.dat
-rw-r--r-- root/root     46574 2023-10-16 13:57 usr/lib64/python3.9/site-packages/babel/locale-data/se_FI.dat
-rw-r--r-- root/root       626 2023-10-16 13:57 usr/lib64/python3.9/site-packages/babel/locale-data/se_NO.dat
-rw-r--r-- root/root       667 2023-10-16 13:57 usr/lib64/python3.9/site-packages/babel/locale-data/se_SE.dat
-rw-r--r-- root/root     15910 2023-10-16 13:57 usr/lib64/python3.9/site-packages/babel/locale-data/seh.dat
-rw-r--r-- root/root       609 2023-10-16 13:57 usr/lib64/python3.9/site-packages/babel/locale-data/seh_MZ.dat
-rw-r--r-- root/root     15998 2023-10-16 13:57 usr/lib64/python3.9/site-packages/babel/locale-data/ses.dat
-rw-r--r-- root/root       590 2023-10-16 13:57 usr/lib64/python3.9/site-packages/babel/locale-data/ses_ML.dat
-rw-r--r-- root/root     16635 2023-10-16 13:57 usr/lib64/python3.9/site-packages/babel/locale-data/sg.dat
-rw-r--r-- root/root       589 2023-10-16 13:57 usr/lib64/python3.9/site-packages/babel/locale-data/sg_CF.dat
-rw-r--r-- root/root     22036 2023-10-16 13:57 usr/lib64/python3.9/site-packages/babel/locale-data/shi.dat
-rw-r--r-- root/root     15618 2023-10-16 13:57 usr/lib64/python3.9/site-packages/babel/locale-data/shi_Latn.dat
-rw-r--r-- root/root       590 2023-10-16 13:57 usr/lib64/python3.9/site-packages/babel/locale-data/shi_Latn_MA.dat
-rw-r--r-- root/root       947 2023-10-16 13:57 usr/lib64/python3.9/site-packages/babel/locale-data/shi_Tfng.dat
-rw-r--r-- root/root       590 2023-10-16 13:57 usr/lib64/python3.9/site-packages/babel/locale-data/shi_Tfng_MA.dat
-rw-r--r-- root/root    257442 2023-10-16 13:57 usr/lib64/python3.9/site-packages/babel/locale-data/si.dat
-rw-r--r-- root/root       608 2023-10-16 13:57 usr/lib64/python3.9/site-packages/babel/locale-data/si_LK.dat
-rw-r--r-- root/root    266062 2023-10-16 13:57 usr/lib64/python3.9/site-packages/babel/locale-data/sk.dat
-rw-r--r-- root/root       626 2023-10-16 13:57 usr/lib64/python3.9/site-packages/babel/locale-data/sk_SK.dat
-rw-r--r-- root/root    255106 2023-10-16 13:57 usr/lib64/python3.9/site-packages/babel/locale-data/sl.dat
-rw-r--r-- root/root       608 2023-10-16 13:57 usr/lib64/python3.9/site-packages/babel/locale-data/sl_SI.dat
-rw-r--r-- root/root     42643 2023-10-16 13:57 usr/lib64/python3.9/site-packages/babel/locale-data/smn.dat
-rw-r--r-- root/root       627 2023-10-16 13:57 usr/lib64/python3.9/site-packages/babel/locale-data/smn_FI.dat
-rw-r--r-- root/root     23252 2023-10-16 13:57 usr/lib64/python3.9/site-packages/babel/locale-data/sn.dat
-rw-r--r-- root/root       608 2023-10-16 13:57 usr/lib64/python3.9/site-packages/babel/locale-data/sn_ZW.dat
-rw-r--r-- root/root    157704 2023-10-16 13:57 usr/lib64/python3.9/site-packages/babel/locale-data/so.dat
-rw-r--r-- root/root       629 2023-10-16 13:57 usr/lib64/python3.9/site-packages/babel/locale-data/so_DJ.dat
-rw-r--r-- root/root       628 2023-10-16 13:57 usr/lib64/python3.9/site-packages/babel/locale-data/so_ET.dat
-rw-r--r-- root/root      1181 2023-10-16 13:57 usr/lib64/python3.9/site-packages/babel/locale-data/so_KE.dat
-rw-r--r-- root/root       589 2023-10-16 13:57 usr/lib64/python3.9/site-packages/babel/locale-data/so_SO.dat
-rw-r--r-- root/root    185472 2023-10-16 13:57 usr/lib64/python3.9/site-packages/babel/locale-data/sq.dat
-rw-r--r-- root/root       608 2023-10-16 13:57 usr/lib64/python3.9/site-packages/babel/locale-data/sq_AL.dat
-rw-r--r-- root/root      1181 2023-10-16 13:57 usr/lib64/python3.9/site-packages/babel/locale-data/sq_MK.dat
-rw-r--r-- root/root      1160 2023-10-16 13:57 usr/lib64/python3.9/site-packages/babel/locale-data/sq_XK.dat
-rw-r--r-- root/root    288422 2023-10-16 13:57 usr/lib64/python3.9/site-packages/babel/locale-data/sr.dat
-rw-r--r-- root/root      1957 2023-10-16 13:57 usr/lib64/python3.9/site-packages/babel/locale-data/sr_Cyrl.dat
-rw-r--r-- root/root     44485 2023-10-16 13:57 usr/lib64/python3.9/site-packages/babel/locale-data/sr_Cyrl_BA.dat
-rw-r--r-- root/root      3873 2023-10-16 13:57 usr/lib64/python3.9/site-packages/babel/locale-data/sr_Cyrl_ME.dat
-rw-r--r-- root/root       608 2023-10-16 13:57 usr/lib64/python3.9/site-packages/babel/locale-data/sr_Cyrl_RS.dat
-rw-r--r-- root/root      2756 2023-10-16 13:57 usr/lib64/python3.9/site-packages/babel/locale-data/sr_Cyrl_XK.dat
-rw-r--r-- root/root    239908 2023-10-16 13:57 usr/lib64/python3.9/site-packages/babel/locale-data/sr_Latn.dat
-rw-r--r-- root/root     34544 2023-10-16 13:57 usr/lib64/python3.9/site-packages/babel/locale-data/sr_Latn_BA.dat
-rw-r--r-- root/root      3074 2023-10-16 13:57 usr/lib64/python3.9/site-packages/babel/locale-data/sr_Latn_ME.dat
-rw-r--r-- root/root       608 2023-10-16 13:57 usr/lib64/python3.9/site-packages/babel/locale-data/sr_Latn_RS.dat
-rw-r--r-- root/root      2194 2023-10-16 13:57 usr/lib64/python3.9/site-packages/babel/locale-data/sr_Latn_XK.dat
-rw-r--r-- root/root     13195 2023-10-16 13:57 usr/lib64/python3.9/site-packages/babel/locale-data/su.dat
-rw-r--r-- root/root       718 2023-10-16 13:57 usr/lib64/python3.9/site-packages/babel/locale-data/su_Latn.dat
-rw-r--r-- root/root       608 2023-10-16 13:57 usr/lib64/python3.9/site-packages/babel/locale-data/su_Latn_ID.dat
-rw-r--r-- root/root    223386 2023-10-16 13:57 usr/lib64/python3.9/site-packages/babel/locale-data/sv.dat
-rw-r--r-- root/root       626 2023-10-16 13:57 usr/lib64/python3.9/site-packages/babel/locale-data/sv_AX.dat
-rw-r--r-- root/root      2584 2023-10-16 13:57 usr/lib64/python3.9/site-packages/babel/locale-data/sv_FI.dat
-rw-r--r-- root/root       626 2023-10-16 13:57 usr/lib64/python3.9/site-packages/babel/locale-data/sv_SE.dat
-rw-r--r-- root/root    191058 2023-10-16 13:57 usr/lib64/python3.9/site-packages/babel/locale-data/sw.dat
-rw-r--r-- root/root      2535 2023-10-16 13:57 usr/lib64/python3.9/site-packages/babel/locale-data/sw_CD.dat
-rw-r--r-- root/root     31936 2023-10-16 13:57 usr/lib64/python3.9/site-packages/babel/locale-data/sw_KE.dat
-rw-r--r-- root/root       589 2023-10-16 13:57 usr/lib64/python3.9/site-packages/babel/locale-data/sw_TZ.dat
-rw-r--r-- root/root       633 2023-10-16 13:57 usr/lib64/python3.9/site-packages/babel/locale-data/sw_UG.dat
-rw-r--r-- root/root    286737 2023-10-16 13:57 usr/lib64/python3.9/site-packages/babel/locale-data/ta.dat
-rw-r--r-- root/root       631 2023-10-16 13:57 usr/lib64/python3.9/site-packages/babel/locale-data/ta_IN.dat
-rw-r--r-- root/root      1181 2023-10-16 13:57 usr/lib64/python3.9/site-packages/babel/locale-data/ta_LK.dat
-rw-r--r-- root/root      1238 2023-10-16 13:57 usr/lib64/python3.9/site-packages/babel/locale-data/ta_MY.dat
-rw-r--r-- root/root      1257 2023-10-16 13:57 usr/lib64/python3.9/site-packages/babel/locale-data/ta_SG.dat
-rw-r--r-- root/root    275181 2023-10-16 13:57 usr/lib64/python3.9/site-packages/babel/locale-data/te.dat
-rw-r--r-- root/root       631 2023-10-16 13:57 usr/lib64/python3.9/site-packages/babel/locale-data/te_IN.dat
-rw-r--r-- root/root     16671 2023-10-16 13:57 usr/lib64/python3.9/site-packages/babel/locale-data/teo.dat
-rw-r--r-- root/root       630 2023-10-16 13:57 usr/lib64/python3.9/site-packages/babel/locale-data/teo_KE.dat
-rw-r--r-- root/root       613 2023-10-16 13:57 usr/lib64/python3.9/site-packages/babel/locale-data/teo_UG.dat
-rw-r--r-- root/root     47476 2023-10-16 13:57 usr/lib64/python3.9/site-packages/babel/locale-data/tg.dat
-rw-r--r-- root/root       608 2023-10-16 13:57 usr/lib64/python3.9/site-packages/babel/locale-data/tg_TJ.dat
-rw-r--r-- root/root    250587 2023-10-16 13:57 usr/lib64/python3.9/site-packages/babel/locale-data/th.dat
-rw-r--r-- root/root       608 2023-10-16 13:57 usr/lib64/python3.9/site-packages/babel/locale-data/th_TH.dat
-rw-r--r-- root/root     92922 2023-10-16 13:57 usr/lib64/python3.9/site-packages/babel/locale-data/ti.dat
-rw-r--r-- root/root      1122 2023-10-16 13:57 usr/lib64/python3.9/site-packages/babel/locale-data/ti_ER.dat
-rw-r--r-- root/root       608 2023-10-16 13:57 usr/lib64/python3.9/site-packages/babel/locale-data/ti_ET.dat
-rw-r--r-- root/root    176455 2023-10-16 13:57 usr/lib64/python3.9/site-packages/babel/locale-data/tk.dat
-rw-r--r-- root/root       608 2023-10-16 13:57 usr/lib64/python3.9/site-packages/babel/locale-data/tk_TM.dat
-rw-r--r-- root/root    174853 2023-10-16 13:57 usr/lib64/python3.9/site-packages/babel/locale-data/to.dat
-rw-r--r-- root/root       589 2023-10-16 13:57 usr/lib64/python3.9/site-packages/babel/locale-data/to_TO.dat
-rw-r--r-- root/root    217392 2023-10-16 13:57 usr/lib64/python3.9/site-packages/babel/locale-data/tr.dat
-rw-r--r-- root/root      1184 2023-10-16 13:57 usr/lib64/python3.9/site-packages/babel/locale-data/tr_CY.dat
-rw-r--r-- root/root       608 2023-10-16 13:57 usr/lib64/python3.9/site-packages/babel/locale-data/tr_TR.dat
-rw-r--r-- root/root     41960 2023-10-16 13:57 usr/lib64/python3.9/site-packages/babel/locale-data/tt.dat
-rw-r--r-- root/root       626 2023-10-16 13:57 usr/lib64/python3.9/site-packages/babel/locale-data/tt_RU.dat
-rw-r--r-- root/root     16171 2023-10-16 13:57 usr/lib64/python3.9/site-packages/babel/locale-data/twq.dat
-rw-r--r-- root/root       590 2023-10-16 13:57 usr/lib64/python3.9/site-packages/babel/locale-data/twq_NE.dat
-rw-r--r-- root/root     16149 2023-10-16 13:57 usr/lib64/python3.9/site-packages/babel/locale-data/tzm.dat
-rw-r--r-- root/root       590 2023-10-16 13:57 usr/lib64/python3.9/site-packages/babel/locale-data/tzm_MA.dat
-rw-r--r-- root/root    128485 2023-10-16 13:57 usr/lib64/python3.9/site-packages/babel/locale-data/ug.dat
-rw-r--r-- root/root       608 2023-10-16 13:57 usr/lib64/python3.9/site-packages/babel/locale-data/ug_CN.dat
-rw-r--r-- root/root    336691 2023-10-16 13:57 usr/lib64/python3.9/site-packages/babel/locale-data/uk.dat
-rw-r--r-- root/root       608 2023-10-16 13:57 usr/lib64/python3.9/site-packages/babel/locale-data/uk_UA.dat
-rw-r--r-- root/root    208900 2023-10-16 13:57 usr/lib64/python3.9/site-packages/babel/locale-data/ur.dat
-rw-r--r-- root/root     12108 2023-10-16 13:57 usr/lib64/python3.9/site-packages/babel/locale-data/ur_IN.dat
-rw-r--r-- root/root       608 2023-10-16 13:57 usr/lib64/python3.9/site-packages/babel/locale-data/ur_PK.dat
-rw-r--r-- root/root    182485 2023-10-16 13:57 usr/lib64/python3.9/site-packages/babel/locale-data/uz.dat
-rw-r--r-- root/root      4111 2023-10-16 13:57 usr/lib64/python3.9/site-packages/babel/locale-data/uz_Arab.dat
-rw-r--r-- root/root       651 2023-10-16 13:57 usr/lib64/python3.9/site-packages/babel/locale-data/uz_Arab_AF.dat
-rw-r--r-- root/root     98928 2023-10-16 13:57 usr/lib64/python3.9/site-packages/babel/locale-data/uz_Cyrl.dat
-rw-r--r-- root/root       608 2023-10-16 13:57 usr/lib64/python3.9/site-packages/babel/locale-data/uz_Cyrl_UZ.dat
-rw-r--r-- root/root      1265 2023-10-16 13:57 usr/lib64/python3.9/site-packages/babel/locale-data/uz_Latn.dat
-rw-r--r-- root/root       608 2023-10-16 13:57 usr/lib64/python3.9/site-packages/babel/locale-data/uz_Latn_UZ.dat
-rw-r--r-- root/root     18988 2023-10-16 13:57 usr/lib64/python3.9/site-packages/babel/locale-data/vai.dat
-rw-r--r-- root/root     14989 2023-10-16 13:57 usr/lib64/python3.9/site-packages/babel/locale-data/vai_Latn.dat
-rw-r--r-- root/root       590 2023-10-16 13:57 usr/lib64/python3.9/site-packages/babel/locale-data/vai_Latn_LR.dat
-rw-r--r-- root/root       666 2023-10-16 13:57 usr/lib64/python3.9/site-packages/babel/locale-data/vai_Vaii.dat
-rw-r--r-- root/root       590 2023-10-16 13:57 usr/lib64/python3.9/site-packages/babel/locale-data/vai_Vaii_LR.dat
-rw-r--r-- root/root    169723 2023-10-16 13:57 usr/lib64/python3.9/site-packages/babel/locale-data/vi.dat
-rw-r--r-- root/root       608 2023-10-16 13:57 usr/lib64/python3.9/site-packages/babel/locale-data/vi_VN.dat
-rw-r--r-- root/root     16067 2023-10-16 13:57 usr/lib64/python3.9/site-packages/babel/locale-data/vun.dat
-rw-r--r-- root/root       590 2023-10-16 13:57 usr/lib64/python3.9/site-packages/babel/locale-data/vun_TZ.dat
-rw-r--r-- root/root     28660 2023-10-16 13:57 usr/lib64/python3.9/site-packages/babel/locale-data/wae.dat
-rw-r--r-- root/root       627 2023-10-16 13:57 usr/lib64/python3.9/site-packages/babel/locale-data/wae_CH.dat
-rw-r--r-- root/root     32950 2023-10-16 13:57 usr/lib64/python3.9/site-packages/babel/locale-data/wo.dat
-rw-r--r-- root/root       589 2023-10-16 13:57 usr/lib64/python3.9/site-packages/babel/locale-data/wo_SN.dat
-rw-r--r-- root/root     15055 2023-10-16 13:57 usr/lib64/python3.9/site-packages/babel/locale-data/xh.dat
-rw-r--r-- root/root       608 2023-10-16 13:57 usr/lib64/python3.9/site-packages/babel/locale-data/xh_ZA.dat
-rw-r--r-- root/root     16555 2023-10-16 13:57 usr/lib64/python3.9/site-packages/babel/locale-data/xog.dat
-rw-r--r-- root/root       613 2023-10-16 13:57 usr/lib64/python3.9/site-packages/babel/locale-data/xog_UG.dat
-rw-r--r-- root/root     15302 2023-10-16 13:57 usr/lib64/python3.9/site-packages/babel/locale-data/yav.dat
-rw-r--r-- root/root       609 2023-10-16 13:57 usr/lib64/python3.9/site-packages/babel/locale-data/yav_CM.dat
-rw-r--r-- root/root     30314 2023-10-16 13:57 usr/lib64/python3.9/site-packages/babel/locale-data/yi.dat
-rw-r--r-- root/root       885 2023-10-16 13:57 usr/lib64/python3.9/site-packages/babel/locale-data/yi_001.dat
-rw-r--r-- root/root     85127 2023-10-16 13:57 usr/lib64/python3.9/site-packages/babel/locale-data/yo.dat
-rw-r--r-- root/root     39270 2023-10-16 13:57 usr/lib64/python3.9/site-packages/babel/locale-data/yo_BJ.dat
-rw-r--r-- root/root       589 2023-10-16 13:57 usr/lib64/python3.9/site-packages/babel/locale-data/yo_NG.dat
-rw-r--r-- root/root    201326 2023-10-16 13:57 usr/lib64/python3.9/site-packages/babel/locale-data/yrl.dat
-rw-r--r-- root/root       609 2023-10-16 13:57 usr/lib64/python3.9/site-packages/babel/locale-data/yrl_BR.dat
-rw-r--r-- root/root      8889 2023-10-16 13:57 usr/lib64/python3.9/site-packages/babel/locale-data/yrl_CO.dat
-rw-r--r-- root/root      8889 2023-10-16 13:57 usr/lib64/python3.9/site-packages/babel/locale-data/yrl_VE.dat
-rw-r--r-- root/root    183267 2023-10-16 13:57 usr/lib64/python3.9/site-packages/babel/locale-data/yue.dat
-rw-r--r-- root/root    183068 2023-10-16 13:57 usr/lib64/python3.9/site-packages/babel/locale-data/yue_Hans.dat
-rw-r--r-- root/root       609 2023-10-16 13:57 usr/lib64/python3.9/site-packages/babel/locale-data/yue_Hans_CN.dat
-rw-r--r-- root/root      1279 2023-10-16 13:57 usr/lib64/python3.9/site-packages/babel/locale-data/yue_Hant.dat
-rw-r--r-- root/root       609 2023-10-16 13:57 usr/lib64/python3.9/site-packages/babel/locale-data/yue_Hant_HK.dat
-rw-r--r-- root/root     30498 2023-10-16 13:57 usr/lib64/python3.9/site-packages/babel/locale-data/zgh.dat
-rw-r--r-- root/root       590 2023-10-16 13:57 usr/lib64/python3.9/site-packages/babel/locale-data/zgh_MA.dat
-rw-r--r-- root/root    183618 2023-10-16 13:57 usr/lib64/python3.9/site-packages/babel/locale-data/zh.dat
-rw-r--r-- root/root      1278 2023-10-16 13:57 usr/lib64/python3.9/site-packages/babel/locale-data/zh_Hans.dat
-rw-r--r-- root/root       608 2023-10-16 13:57 usr/lib64/python3.9/site-packages/babel/locale-data/zh_Hans_CN.dat
-rw-r--r-- root/root      3507 2023-10-16 13:57 usr/lib64/python3.9/site-packages/babel/locale-data/zh_Hans_HK.dat
-rw-r--r-- root/root      3639 2023-10-16 13:57 usr/lib64/python3.9/site-packages/babel/locale-data/zh_Hans_MO.dat
-rw-r--r-- root/root      3835 2023-10-16 13:57 usr/lib64/python3.9/site-packages/babel/locale-data/zh_Hans_SG.dat
-rw-r--r-- root/root    195076 2023-10-16 13:57 usr/lib64/python3.9/site-packages/babel/locale-data/zh_Hant.dat
-rw-r--r-- root/root     59108 2023-10-16 13:57 usr/lib64/python3.9/site-packages/babel/locale-data/zh_Hant_HK.dat
-rw-r--r-- root/root       630 2023-10-16 13:57 usr/lib64/python3.9/site-packages/babel/locale-data/zh_Hant_MO.dat
-rw-r--r-- root/root       608 2023-10-16 13:57 usr/lib64/python3.9/site-packages/babel/locale-data/zh_Hant_TW.dat
-rw-r--r-- root/root    180862 2023-10-16 13:57 usr/lib64/python3.9/site-packages/babel/locale-data/zu.dat
-rw-r--r-- root/root       608 2023-10-16 13:57 usr/lib64/python3.9/site-packages/babel/locale-data/zu_ZA.dat
-rw-r--r-- root/root      7902 2022-04-20 19:08 usr/lib64/python3.9/site-packages/babel/localedata.py
drwxr-xr-x root/root         0 2023-10-16 13:57 usr/lib64/python3.9/site-packages/babel/localtime/
-rw-r--r-- root/root      1721 2022-04-20 19:08 usr/lib64/python3.9/site-packages/babel/localtime/__init__.py
drwxr-xr-x root/root         0 2023-10-16 13:57 usr/lib64/python3.9/site-packages/babel/localtime/__pycache__/
-rw-r--r-- root/root      2200 2023-10-16 13:57 usr/lib64/python3.9/site-packages/babel/localtime/__pycache__/__init__.cpython-39.pyc
-rw-r--r-- root/root      2906 2023-10-16 13:57 usr/lib64/python3.9/site-packages/babel/localtime/__pycache__/_unix.cpython-39.pyc
-rw-r--r-- root/root      1845 2023-10-16 13:57 usr/lib64/python3.9/site-packages/babel/localtime/__pycache__/_win32.cpython-39.pyc
-rw-r--r-- root/root      4801 2022-04-20 19:08 usr/lib64/python3.9/site-packages/babel/localtime/_unix.py
-rw-r--r-- root/root      3086 2022-04-20 19:08 usr/lib64/python3.9/site-packages/babel/localtime/_win32.py
drwxr-xr-x root/root         0 2023-10-16 13:57 usr/lib64/python3.9/site-packages/babel/messages/
-rw-r--r-- root/root       254 2022-04-20 19:08 usr/lib64/python3.9/site-packages/babel/messages/__init__.py
drwxr-xr-x root/root         0 2023-10-16 13:57 usr/lib64/python3.9/site-packages/babel/messages/__pycache__/
-rw-r--r-- root/root       393 2023-10-16 13:57 usr/lib64/python3.9/site-packages/babel/messages/__pycache__/__init__.cpython-39.pyc
-rw-r--r-- root/root     27838 2023-10-16 13:57 usr/lib64/python3.9/site-packages/babel/messages/__pycache__/catalog.cpython-39.pyc
-rw-r--r-- root/root      4609 2023-10-16 13:57 usr/lib64/python3.9/site-packages/babel/messages/__pycache__/checkers.cpython-39.pyc
-rw-r--r-- root/root     18979 2023-10-16 13:57 usr/lib64/python3.9/site-packages/babel/messages/__pycache__/extract.cpython-39.pyc
-rw-r--r-- root/root     29190 2023-10-16 13:57 usr/lib64/python3.9/site-packages/babel/messages/__pycache__/frontend.cpython-39.pyc
-rw-r--r-- root/root      4194 2023-10-16 13:57 usr/lib64/python3.9/site-packages/babel/messages/__pycache__/jslexer.cpython-39.pyc
-rw-r--r-- root/root      5274 2023-10-16 13:57 usr/lib64/python3.9/site-packages/babel/messages/__pycache__/mofile.cpython-39.pyc
-rw-r--r-- root/root      4003 2023-10-16 13:57 usr/lib64/python3.9/site-packages/babel/messages/__pycache__/plurals.cpython-39.pyc
-rw-r--r-- root/root     18792 2023-10-16 13:57 usr/lib64/python3.9/site-packages/babel/messages/__pycache__/pofile.cpython-39.pyc
-rw-r--r-- root/root     32694 2022-04-20 19:08 usr/lib64/python3.9/site-packages/babel/messages/catalog.py
-rw-r--r-- root/root      6029 2022-04-20 19:08 usr/lib64/python3.9/site-packages/babel/messages/checkers.py
-rw-r--r-- root/root     26678 2022-04-20 19:08 usr/lib64/python3.9/site-packages/babel/messages/extract.py
-rw-r--r-- root/root     42125 2022-04-20 19:08 usr/lib64/python3.9/site-packages/babel/messages/frontend.py
-rw-r--r-- root/root      6298 2022-04-20 19:08 usr/lib64/python3.9/site-packages/babel/messages/jslexer.py
-rw-r--r-- root/root      7142 2022-04-20 19:08 usr/lib64/python3.9/site-packages/babel/messages/mofile.py
-rw-r--r-- root/root      7206 2022-04-20 19:08 usr/lib64/python3.9/site-packages/babel/messages/plurals.py
-rw-r--r-- root/root     22139 2022-04-20 19:08 usr/lib64/python3.9/site-packages/babel/messages/pofile.py
-rw-r--r-- root/root     39812 2022-04-20 19:08 usr/lib64/python3.9/site-packages/babel/numbers.py
-rw-r--r-- root/root     22155 2022-04-20 19:08 usr/lib64/python3.9/site-packages/babel/plural.py
-rw-r--r-- root/root     22334 2022-04-20 19:08 usr/lib64/python3.9/site-packages/babel/support.py
-rw-r--r-- root/root     11206 2022-04-20 19:08 usr/lib64/python3.9/site-packages/babel/units.py
-rw-r--r-- root/root      7586 2022-04-20 19:08 usr/lib64/python3.9/site-packages/babel/util.py


