++========================================
||
||   Package:  ./qqwing-1.3.4-x86_64-1_snuk.txz
||
++========================================
drwxr-xr-x root/root         0 2023-10-17 06:52 ./
drwxr-xr-x root/root         0 2023-10-17 06:52 install/
-rw-r--r-- root/root       810 2023-10-17 06:52 install/doinst.sh
-rw-r--r-- root/root       605 2023-10-17 06:52 install/slack-desc
drwxr-xr-x root/root         0 2023-10-17 06:52 usr/
drwxr-xr-x root/root         0 2023-10-17 06:52 usr/bin/
-rwxr-xr-x root/root     35352 2023-10-17 06:52 usr/bin/qqwing
drwxr-xr-x root/root         0 2023-10-17 06:52 usr/doc/
drwxr-xr-x root/root         0 2023-10-17 06:52 usr/doc/qqwing-1.3.4/
-rw-r--r-- root/root        71 2015-04-18 01:55 usr/doc/qqwing-1.3.4/AUTHORS
-rw-r--r-- root/root     18092 2015-04-18 01:55 usr/doc/qqwing-1.3.4/COPYING
-rw-r--r-- root/root      1859 2015-04-18 01:55 usr/doc/qqwing-1.3.4/README
-rw-r--r-- root/root      3284 2023-10-17 06:52 usr/doc/qqwing-1.3.4/qqwing.SlackBuild
drwxr-xr-x root/root         0 2023-10-17 06:52 usr/include/
-rw-r--r-- root/root      7009 2023-10-17 06:52 usr/include/qqwing.hpp
drwxr-xr-x root/root         0 2023-10-17 06:52 usr/lib64/
-rwxr-xr-x root/root     43616 2023-10-17 06:52 usr/lib64/libqqwing.so.2.1.0
drwxr-xr-x root/root         0 2023-10-17 06:52 usr/lib64/pkgconfig/
-rw-r--r-- root/root       213 2023-10-17 06:52 usr/lib64/pkgconfig/qqwing.pc
drwxr-xr-x root/root         0 2023-10-17 06:52 usr/man/
drwxr-xr-x root/root         0 2023-10-17 06:52 usr/man/man1/
-rw-r--r-- root/root      1035 2023-10-17 06:52 usr/man/man1/qqwing.1.gz


