++========================================
||
||   Package:  ./sphinxcontrib-devhelp-1.0.2-x86_64-1_snuk.txz
||
++========================================
drwxr-xr-x root/root         0 2023-10-16 13:56 ./
drwxr-xr-x root/root         0 2023-10-16 13:56 install/
-rw-r--r-- root/root       873 2023-10-16 13:56 install/slack-desc
drwxr-xr-x root/root         0 2023-10-16 13:56 usr/
drwxr-xr-x root/root         0 2023-10-16 13:56 usr/doc/
drwxr-xr-x root/root         0 2023-10-16 13:56 usr/doc/sphinxcontrib-devhelp-1.0.2/
-rw-r--r-- root/root       300 2020-02-29 04:14 usr/doc/sphinxcontrib-devhelp-1.0.2/CHANGES
-rw-r--r-- root/root      1437 2020-01-12 15:31 usr/doc/sphinxcontrib-devhelp-1.0.2/LICENSE
-rw-r--r-- root/root       901 2020-01-12 15:31 usr/doc/sphinxcontrib-devhelp-1.0.2/README.rst
-rw-r--r-- root/root      3073 2023-10-16 13:56 usr/doc/sphinxcontrib-devhelp-1.0.2/sphinxcontrib-devhelp.SlackBuild
drwxr-xr-x root/root         0 2023-10-16 13:56 usr/lib64/
drwxr-xr-x root/root         0 2023-10-16 13:56 usr/lib64/python3.9/
drwxr-xr-x root/root         0 2023-10-16 13:56 usr/lib64/python3.9/site-packages/
drwxr-xr-x root/root         0 2023-10-16 13:56 usr/lib64/python3.9/site-packages/sphinxcontrib/
drwxr-xr-x root/root         0 2023-10-16 13:56 usr/lib64/python3.9/site-packages/sphinxcontrib/devhelp/
-rw-r--r-- root/root      5146 2020-01-12 15:58 usr/lib64/python3.9/site-packages/sphinxcontrib/devhelp/__init__.py
drwxr-xr-x root/root         0 2023-10-16 13:56 usr/lib64/python3.9/site-packages/sphinxcontrib/devhelp/__pycache__/
-rw-r--r-- root/root      4700 2023-10-16 13:56 usr/lib64/python3.9/site-packages/sphinxcontrib/devhelp/__pycache__/__init__.cpython-39.pyc
-rw-r--r-- root/root       445 2023-10-16 13:56 usr/lib64/python3.9/site-packages/sphinxcontrib/devhelp/__pycache__/version.cpython-39.pyc
drwxr-xr-x root/root         0 2023-10-16 13:56 usr/lib64/python3.9/site-packages/sphinxcontrib/devhelp/locales/
drwxr-xr-x root/root         0 2023-10-16 13:56 usr/lib64/python3.9/site-packages/sphinxcontrib/devhelp/locales/.tx/
-rw-r--r-- root/root       221 2020-01-12 15:31 usr/lib64/python3.9/site-packages/sphinxcontrib/devhelp/locales/.tx/config
drwxr-xr-x root/root         0 2023-10-16 13:56 usr/lib64/python3.9/site-packages/sphinxcontrib/devhelp/locales/ar/
drwxr-xr-x root/root         0 2023-10-16 13:56 usr/lib64/python3.9/site-packages/sphinxcontrib/devhelp/locales/ar/LC_MESSAGES/
-rw-r--r-- root/root       959 2020-01-12 15:31 usr/lib64/python3.9/site-packages/sphinxcontrib/devhelp/locales/ar/LC_MESSAGES/sphinxcontrib.devhelp.mo
-rw-r--r-- root/root      1106 2020-01-12 15:31 usr/lib64/python3.9/site-packages/sphinxcontrib/devhelp/locales/ar/LC_MESSAGES/sphinxcontrib.devhelp.po
drwxr-xr-x root/root         0 2023-10-16 13:56 usr/lib64/python3.9/site-packages/sphinxcontrib/devhelp/locales/bn/
drwxr-xr-x root/root         0 2023-10-16 13:56 usr/lib64/python3.9/site-packages/sphinxcontrib/devhelp/locales/bn/LC_MESSAGES/
-rw-r--r-- root/root       877 2020-01-12 15:31 usr/lib64/python3.9/site-packages/sphinxcontrib/devhelp/locales/bn/LC_MESSAGES/sphinxcontrib.devhelp.mo
-rw-r--r-- root/root      1024 2020-01-12 15:31 usr/lib64/python3.9/site-packages/sphinxcontrib/devhelp/locales/bn/LC_MESSAGES/sphinxcontrib.devhelp.po
drwxr-xr-x root/root         0 2023-10-16 13:56 usr/lib64/python3.9/site-packages/sphinxcontrib/devhelp/locales/ca/
drwxr-xr-x root/root         0 2023-10-16 13:56 usr/lib64/python3.9/site-packages/sphinxcontrib/devhelp/locales/ca/LC_MESSAGES/
-rw-r--r-- root/root       877 2020-01-12 15:31 usr/lib64/python3.9/site-packages/sphinxcontrib/devhelp/locales/ca/LC_MESSAGES/sphinxcontrib.devhelp.mo
-rw-r--r-- root/root      1024 2020-01-12 15:31 usr/lib64/python3.9/site-packages/sphinxcontrib/devhelp/locales/ca/LC_MESSAGES/sphinxcontrib.devhelp.po
drwxr-xr-x root/root         0 2023-10-16 13:56 usr/lib64/python3.9/site-packages/sphinxcontrib/devhelp/locales/cs/
drwxr-xr-x root/root         0 2023-10-16 13:56 usr/lib64/python3.9/site-packages/sphinxcontrib/devhelp/locales/cs/LC_MESSAGES/
-rw-r--r-- root/root       955 2020-01-12 15:31 usr/lib64/python3.9/site-packages/sphinxcontrib/devhelp/locales/cs/LC_MESSAGES/sphinxcontrib.devhelp.mo
-rw-r--r-- root/root      1102 2020-01-12 15:31 usr/lib64/python3.9/site-packages/sphinxcontrib/devhelp/locales/cs/LC_MESSAGES/sphinxcontrib.devhelp.po
drwxr-xr-x root/root         0 2023-10-16 13:56 usr/lib64/python3.9/site-packages/sphinxcontrib/devhelp/locales/cy/
drwxr-xr-x root/root         0 2023-10-16 13:56 usr/lib64/python3.9/site-packages/sphinxcontrib/devhelp/locales/cy/LC_MESSAGES/
-rw-r--r-- root/root       920 2020-01-12 15:31 usr/lib64/python3.9/site-packages/sphinxcontrib/devhelp/locales/cy/LC_MESSAGES/sphinxcontrib.devhelp.mo
-rw-r--r-- root/root      1067 2020-01-12 15:31 usr/lib64/python3.9/site-packages/sphinxcontrib/devhelp/locales/cy/LC_MESSAGES/sphinxcontrib.devhelp.po
drwxr-xr-x root/root         0 2023-10-16 13:56 usr/lib64/python3.9/site-packages/sphinxcontrib/devhelp/locales/da/
drwxr-xr-x root/root         0 2023-10-16 13:56 usr/lib64/python3.9/site-packages/sphinxcontrib/devhelp/locales/da/LC_MESSAGES/
-rw-r--r-- root/root       876 2020-01-12 15:31 usr/lib64/python3.9/site-packages/sphinxcontrib/devhelp/locales/da/LC_MESSAGES/sphinxcontrib.devhelp.mo
-rw-r--r-- root/root      1023 2020-01-12 15:31 usr/lib64/python3.9/site-packages/sphinxcontrib/devhelp/locales/da/LC_MESSAGES/sphinxcontrib.devhelp.po
drwxr-xr-x root/root         0 2023-10-16 13:56 usr/lib64/python3.9/site-packages/sphinxcontrib/devhelp/locales/de/
drwxr-xr-x root/root         0 2023-10-16 13:56 usr/lib64/python3.9/site-packages/sphinxcontrib/devhelp/locales/de/LC_MESSAGES/
-rw-r--r-- root/root       876 2020-01-12 15:31 usr/lib64/python3.9/site-packages/sphinxcontrib/devhelp/locales/de/LC_MESSAGES/sphinxcontrib.devhelp.mo
-rw-r--r-- root/root      1023 2020-01-12 15:31 usr/lib64/python3.9/site-packages/sphinxcontrib/devhelp/locales/de/LC_MESSAGES/sphinxcontrib.devhelp.po
drwxr-xr-x root/root         0 2023-10-16 13:56 usr/lib64/python3.9/site-packages/sphinxcontrib/devhelp/locales/el/
drwxr-xr-x root/root         0 2023-10-16 13:56 usr/lib64/python3.9/site-packages/sphinxcontrib/devhelp/locales/el/LC_MESSAGES/
-rw-r--r-- root/root       875 2020-01-12 15:31 usr/lib64/python3.9/site-packages/sphinxcontrib/devhelp/locales/el/LC_MESSAGES/sphinxcontrib.devhelp.mo
-rw-r--r-- root/root      1022 2020-01-12 15:31 usr/lib64/python3.9/site-packages/sphinxcontrib/devhelp/locales/el/LC_MESSAGES/sphinxcontrib.devhelp.po
drwxr-xr-x root/root         0 2023-10-16 13:56 usr/lib64/python3.9/site-packages/sphinxcontrib/devhelp/locales/eo/
drwxr-xr-x root/root         0 2023-10-16 13:56 usr/lib64/python3.9/site-packages/sphinxcontrib/devhelp/locales/eo/LC_MESSAGES/
-rw-r--r-- root/root       879 2020-01-12 15:31 usr/lib64/python3.9/site-packages/sphinxcontrib/devhelp/locales/eo/LC_MESSAGES/sphinxcontrib.devhelp.mo
-rw-r--r-- root/root      1026 2020-01-12 15:31 usr/lib64/python3.9/site-packages/sphinxcontrib/devhelp/locales/eo/LC_MESSAGES/sphinxcontrib.devhelp.po
drwxr-xr-x root/root         0 2023-10-16 13:56 usr/lib64/python3.9/site-packages/sphinxcontrib/devhelp/locales/es/
drwxr-xr-x root/root         0 2023-10-16 13:56 usr/lib64/python3.9/site-packages/sphinxcontrib/devhelp/locales/es/LC_MESSAGES/
-rw-r--r-- root/root       877 2020-01-12 15:31 usr/lib64/python3.9/site-packages/sphinxcontrib/devhelp/locales/es/LC_MESSAGES/sphinxcontrib.devhelp.mo
-rw-r--r-- root/root      1024 2020-01-12 15:31 usr/lib64/python3.9/site-packages/sphinxcontrib/devhelp/locales/es/LC_MESSAGES/sphinxcontrib.devhelp.po
drwxr-xr-x root/root         0 2023-10-16 13:56 usr/lib64/python3.9/site-packages/sphinxcontrib/devhelp/locales/et/
drwxr-xr-x root/root         0 2023-10-16 13:56 usr/lib64/python3.9/site-packages/sphinxcontrib/devhelp/locales/et/LC_MESSAGES/
-rw-r--r-- root/root       885 2020-01-12 15:31 usr/lib64/python3.9/site-packages/sphinxcontrib/devhelp/locales/et/LC_MESSAGES/sphinxcontrib.devhelp.mo
-rw-r--r-- root/root      1293 2020-01-12 15:31 usr/lib64/python3.9/site-packages/sphinxcontrib/devhelp/locales/et/LC_MESSAGES/sphinxcontrib.devhelp.po
drwxr-xr-x root/root         0 2023-10-16 13:56 usr/lib64/python3.9/site-packages/sphinxcontrib/devhelp/locales/eu/
drwxr-xr-x root/root         0 2023-10-16 13:56 usr/lib64/python3.9/site-packages/sphinxcontrib/devhelp/locales/eu/LC_MESSAGES/
-rw-r--r-- root/root       876 2020-01-12 15:31 usr/lib64/python3.9/site-packages/sphinxcontrib/devhelp/locales/eu/LC_MESSAGES/sphinxcontrib.devhelp.mo
-rw-r--r-- root/root      1023 2020-01-12 15:31 usr/lib64/python3.9/site-packages/sphinxcontrib/devhelp/locales/eu/LC_MESSAGES/sphinxcontrib.devhelp.po
drwxr-xr-x root/root         0 2023-10-16 13:56 usr/lib64/python3.9/site-packages/sphinxcontrib/devhelp/locales/fa/
drwxr-xr-x root/root         0 2023-10-16 13:56 usr/lib64/python3.9/site-packages/sphinxcontrib/devhelp/locales/fa/LC_MESSAGES/
-rw-r--r-- root/root       876 2020-01-12 15:31 usr/lib64/python3.9/site-packages/sphinxcontrib/devhelp/locales/fa/LC_MESSAGES/sphinxcontrib.devhelp.mo
-rw-r--r-- root/root      1023 2020-01-12 15:31 usr/lib64/python3.9/site-packages/sphinxcontrib/devhelp/locales/fa/LC_MESSAGES/sphinxcontrib.devhelp.po
drwxr-xr-x root/root         0 2023-10-16 13:56 usr/lib64/python3.9/site-packages/sphinxcontrib/devhelp/locales/fi/
drwxr-xr-x root/root         0 2023-10-16 13:56 usr/lib64/python3.9/site-packages/sphinxcontrib/devhelp/locales/fi/LC_MESSAGES/
-rw-r--r-- root/root       877 2020-01-12 15:31 usr/lib64/python3.9/site-packages/sphinxcontrib/devhelp/locales/fi/LC_MESSAGES/sphinxcontrib.devhelp.mo
-rw-r--r-- root/root      1024 2020-01-12 15:31 usr/lib64/python3.9/site-packages/sphinxcontrib/devhelp/locales/fi/LC_MESSAGES/sphinxcontrib.devhelp.po
drwxr-xr-x root/root         0 2023-10-16 13:56 usr/lib64/python3.9/site-packages/sphinxcontrib/devhelp/locales/fr/
drwxr-xr-x root/root         0 2023-10-16 13:56 usr/lib64/python3.9/site-packages/sphinxcontrib/devhelp/locales/fr/LC_MESSAGES/
-rw-r--r-- root/root       901 2020-01-12 15:31 usr/lib64/python3.9/site-packages/sphinxcontrib/devhelp/locales/fr/LC_MESSAGES/sphinxcontrib.devhelp.mo
-rw-r--r-- root/root      1310 2020-01-12 15:31 usr/lib64/python3.9/site-packages/sphinxcontrib/devhelp/locales/fr/LC_MESSAGES/sphinxcontrib.devhelp.po
drwxr-xr-x root/root         0 2023-10-16 13:56 usr/lib64/python3.9/site-packages/sphinxcontrib/devhelp/locales/he/
drwxr-xr-x root/root         0 2023-10-16 13:56 usr/lib64/python3.9/site-packages/sphinxcontrib/devhelp/locales/he/LC_MESSAGES/
-rw-r--r-- root/root       970 2020-01-12 15:31 usr/lib64/python3.9/site-packages/sphinxcontrib/devhelp/locales/he/LC_MESSAGES/sphinxcontrib.devhelp.mo
-rw-r--r-- root/root      1117 2020-01-12 15:31 usr/lib64/python3.9/site-packages/sphinxcontrib/devhelp/locales/he/LC_MESSAGES/sphinxcontrib.devhelp.po
drwxr-xr-x root/root         0 2023-10-16 13:56 usr/lib64/python3.9/site-packages/sphinxcontrib/devhelp/locales/hi/
drwxr-xr-x root/root         0 2023-10-16 13:56 usr/lib64/python3.9/site-packages/sphinxcontrib/devhelp/locales/hi/LC_MESSAGES/
-rw-r--r-- root/root       875 2020-01-12 15:31 usr/lib64/python3.9/site-packages/sphinxcontrib/devhelp/locales/hi/LC_MESSAGES/sphinxcontrib.devhelp.mo
-rw-r--r-- root/root      1022 2020-01-12 15:31 usr/lib64/python3.9/site-packages/sphinxcontrib/devhelp/locales/hi/LC_MESSAGES/sphinxcontrib.devhelp.po
drwxr-xr-x root/root         0 2023-10-16 13:56 usr/lib64/python3.9/site-packages/sphinxcontrib/devhelp/locales/hi_IN/
drwxr-xr-x root/root         0 2023-10-16 13:56 usr/lib64/python3.9/site-packages/sphinxcontrib/devhelp/locales/hi_IN/LC_MESSAGES/
-rw-r--r-- root/root       889 2020-01-12 15:31 usr/lib64/python3.9/site-packages/sphinxcontrib/devhelp/locales/hi_IN/LC_MESSAGES/sphinxcontrib.devhelp.mo
-rw-r--r-- root/root      1036 2020-01-12 15:31 usr/lib64/python3.9/site-packages/sphinxcontrib/devhelp/locales/hi_IN/LC_MESSAGES/sphinxcontrib.devhelp.po
drwxr-xr-x root/root         0 2023-10-16 13:56 usr/lib64/python3.9/site-packages/sphinxcontrib/devhelp/locales/hr/
drwxr-xr-x root/root         0 2023-10-16 13:56 usr/lib64/python3.9/site-packages/sphinxcontrib/devhelp/locales/hr/LC_MESSAGES/
-rw-r--r-- root/root       950 2020-01-12 15:31 usr/lib64/python3.9/site-packages/sphinxcontrib/devhelp/locales/hr/LC_MESSAGES/sphinxcontrib.devhelp.mo
-rw-r--r-- root/root      1097 2020-01-12 15:31 usr/lib64/python3.9/site-packages/sphinxcontrib/devhelp/locales/hr/LC_MESSAGES/sphinxcontrib.devhelp.po
drwxr-xr-x root/root         0 2023-10-16 13:56 usr/lib64/python3.9/site-packages/sphinxcontrib/devhelp/locales/hu/
drwxr-xr-x root/root         0 2023-10-16 13:56 usr/lib64/python3.9/site-packages/sphinxcontrib/devhelp/locales/hu/LC_MESSAGES/
-rw-r--r-- root/root       879 2020-01-12 15:31 usr/lib64/python3.9/site-packages/sphinxcontrib/devhelp/locales/hu/LC_MESSAGES/sphinxcontrib.devhelp.mo
-rw-r--r-- root/root      1026 2020-01-12 15:31 usr/lib64/python3.9/site-packages/sphinxcontrib/devhelp/locales/hu/LC_MESSAGES/sphinxcontrib.devhelp.po
drwxr-xr-x root/root         0 2023-10-16 13:56 usr/lib64/python3.9/site-packages/sphinxcontrib/devhelp/locales/id/
drwxr-xr-x root/root         0 2023-10-16 13:56 usr/lib64/python3.9/site-packages/sphinxcontrib/devhelp/locales/id/LC_MESSAGES/
-rw-r--r-- root/root       877 2020-01-12 15:31 usr/lib64/python3.9/site-packages/sphinxcontrib/devhelp/locales/id/LC_MESSAGES/sphinxcontrib.devhelp.mo
-rw-r--r-- root/root      1296 2020-01-12 15:31 usr/lib64/python3.9/site-packages/sphinxcontrib/devhelp/locales/id/LC_MESSAGES/sphinxcontrib.devhelp.po
drwxr-xr-x root/root         0 2023-10-16 13:56 usr/lib64/python3.9/site-packages/sphinxcontrib/devhelp/locales/it/
drwxr-xr-x root/root         0 2023-10-16 13:56 usr/lib64/python3.9/site-packages/sphinxcontrib/devhelp/locales/it/LC_MESSAGES/
-rw-r--r-- root/root       877 2020-01-12 15:31 usr/lib64/python3.9/site-packages/sphinxcontrib/devhelp/locales/it/LC_MESSAGES/sphinxcontrib.devhelp.mo
-rw-r--r-- root/root      1024 2020-01-12 15:31 usr/lib64/python3.9/site-packages/sphinxcontrib/devhelp/locales/it/LC_MESSAGES/sphinxcontrib.devhelp.po
drwxr-xr-x root/root         0 2023-10-16 13:56 usr/lib64/python3.9/site-packages/sphinxcontrib/devhelp/locales/ja/
drwxr-xr-x root/root         0 2023-10-16 13:56 usr/lib64/python3.9/site-packages/sphinxcontrib/devhelp/locales/ja/LC_MESSAGES/
-rw-r--r-- root/root       871 2020-01-12 15:31 usr/lib64/python3.9/site-packages/sphinxcontrib/devhelp/locales/ja/LC_MESSAGES/sphinxcontrib.devhelp.mo
-rw-r--r-- root/root      1018 2020-01-12 15:31 usr/lib64/python3.9/site-packages/sphinxcontrib/devhelp/locales/ja/LC_MESSAGES/sphinxcontrib.devhelp.po
drwxr-xr-x root/root         0 2023-10-16 13:56 usr/lib64/python3.9/site-packages/sphinxcontrib/devhelp/locales/ko/
drwxr-xr-x root/root         0 2023-10-16 13:56 usr/lib64/python3.9/site-packages/sphinxcontrib/devhelp/locales/ko/LC_MESSAGES/
-rw-r--r-- root/root       869 2020-01-12 15:31 usr/lib64/python3.9/site-packages/sphinxcontrib/devhelp/locales/ko/LC_MESSAGES/sphinxcontrib.devhelp.mo
-rw-r--r-- root/root      1016 2020-01-12 15:31 usr/lib64/python3.9/site-packages/sphinxcontrib/devhelp/locales/ko/LC_MESSAGES/sphinxcontrib.devhelp.po
drwxr-xr-x root/root         0 2023-10-16 13:56 usr/lib64/python3.9/site-packages/sphinxcontrib/devhelp/locales/lt/
drwxr-xr-x root/root         0 2023-10-16 13:56 usr/lib64/python3.9/site-packages/sphinxcontrib/devhelp/locales/lt/LC_MESSAGES/
-rw-r--r-- root/root      1011 2020-01-12 15:31 usr/lib64/python3.9/site-packages/sphinxcontrib/devhelp/locales/lt/LC_MESSAGES/sphinxcontrib.devhelp.mo
-rw-r--r-- root/root      1158 2020-01-12 15:31 usr/lib64/python3.9/site-packages/sphinxcontrib/devhelp/locales/lt/LC_MESSAGES/sphinxcontrib.devhelp.po
drwxr-xr-x root/root         0 2023-10-16 13:56 usr/lib64/python3.9/site-packages/sphinxcontrib/devhelp/locales/lv/
drwxr-xr-x root/root         0 2023-10-16 13:56 usr/lib64/python3.9/site-packages/sphinxcontrib/devhelp/locales/lv/LC_MESSAGES/
-rw-r--r-- root/root       912 2020-01-12 15:31 usr/lib64/python3.9/site-packages/sphinxcontrib/devhelp/locales/lv/LC_MESSAGES/sphinxcontrib.devhelp.mo
-rw-r--r-- root/root      1059 2020-01-12 15:31 usr/lib64/python3.9/site-packages/sphinxcontrib/devhelp/locales/lv/LC_MESSAGES/sphinxcontrib.devhelp.po
drwxr-xr-x root/root         0 2023-10-16 13:56 usr/lib64/python3.9/site-packages/sphinxcontrib/devhelp/locales/mk/
drwxr-xr-x root/root         0 2023-10-16 13:56 usr/lib64/python3.9/site-packages/sphinxcontrib/devhelp/locales/mk/LC_MESSAGES/
-rw-r--r-- root/root       910 2020-01-12 15:31 usr/lib64/python3.9/site-packages/sphinxcontrib/devhelp/locales/mk/LC_MESSAGES/sphinxcontrib.devhelp.mo
-rw-r--r-- root/root      1057 2020-01-12 15:31 usr/lib64/python3.9/site-packages/sphinxcontrib/devhelp/locales/mk/LC_MESSAGES/sphinxcontrib.devhelp.po
drwxr-xr-x root/root         0 2023-10-16 13:56 usr/lib64/python3.9/site-packages/sphinxcontrib/devhelp/locales/nb_NO/
drwxr-xr-x root/root         0 2023-10-16 13:56 usr/lib64/python3.9/site-packages/sphinxcontrib/devhelp/locales/nb_NO/LC_MESSAGES/
-rw-r--r-- root/root       902 2020-01-12 15:31 usr/lib64/python3.9/site-packages/sphinxcontrib/devhelp/locales/nb_NO/LC_MESSAGES/sphinxcontrib.devhelp.mo
-rw-r--r-- root/root      1049 2020-01-12 15:31 usr/lib64/python3.9/site-packages/sphinxcontrib/devhelp/locales/nb_NO/LC_MESSAGES/sphinxcontrib.devhelp.po
drwxr-xr-x root/root         0 2023-10-16 13:56 usr/lib64/python3.9/site-packages/sphinxcontrib/devhelp/locales/ne/
drwxr-xr-x root/root         0 2023-10-16 13:56 usr/lib64/python3.9/site-packages/sphinxcontrib/devhelp/locales/ne/LC_MESSAGES/
-rw-r--r-- root/root       876 2020-01-12 15:31 usr/lib64/python3.9/site-packages/sphinxcontrib/devhelp/locales/ne/LC_MESSAGES/sphinxcontrib.devhelp.mo
-rw-r--r-- root/root      1023 2020-01-12 15:31 usr/lib64/python3.9/site-packages/sphinxcontrib/devhelp/locales/ne/LC_MESSAGES/sphinxcontrib.devhelp.po
drwxr-xr-x root/root         0 2023-10-16 13:56 usr/lib64/python3.9/site-packages/sphinxcontrib/devhelp/locales/nl/
drwxr-xr-x root/root         0 2023-10-16 13:56 usr/lib64/python3.9/site-packages/sphinxcontrib/devhelp/locales/nl/LC_MESSAGES/
-rw-r--r-- root/root       875 2020-01-12 15:31 usr/lib64/python3.9/site-packages/sphinxcontrib/devhelp/locales/nl/LC_MESSAGES/sphinxcontrib.devhelp.mo
-rw-r--r-- root/root      1022 2020-01-12 15:31 usr/lib64/python3.9/site-packages/sphinxcontrib/devhelp/locales/nl/LC_MESSAGES/sphinxcontrib.devhelp.po
drwxr-xr-x root/root         0 2023-10-16 13:56 usr/lib64/python3.9/site-packages/sphinxcontrib/devhelp/locales/pl/
drwxr-xr-x root/root         0 2023-10-16 13:56 usr/lib64/python3.9/site-packages/sphinxcontrib/devhelp/locales/pl/LC_MESSAGES/
-rw-r--r-- root/root      1012 2020-01-12 15:31 usr/lib64/python3.9/site-packages/sphinxcontrib/devhelp/locales/pl/LC_MESSAGES/sphinxcontrib.devhelp.mo
-rw-r--r-- root/root      1398 2020-01-12 15:31 usr/lib64/python3.9/site-packages/sphinxcontrib/devhelp/locales/pl/LC_MESSAGES/sphinxcontrib.devhelp.po
drwxr-xr-x root/root         0 2023-10-16 13:56 usr/lib64/python3.9/site-packages/sphinxcontrib/devhelp/locales/pt/
drwxr-xr-x root/root         0 2023-10-16 13:56 usr/lib64/python3.9/site-packages/sphinxcontrib/devhelp/locales/pt/LC_MESSAGES/
-rw-r--r-- root/root       880 2020-01-12 15:31 usr/lib64/python3.9/site-packages/sphinxcontrib/devhelp/locales/pt/LC_MESSAGES/sphinxcontrib.devhelp.mo
-rw-r--r-- root/root      1027 2020-01-12 15:31 usr/lib64/python3.9/site-packages/sphinxcontrib/devhelp/locales/pt/LC_MESSAGES/sphinxcontrib.devhelp.po
drwxr-xr-x root/root         0 2023-10-16 13:56 usr/lib64/python3.9/site-packages/sphinxcontrib/devhelp/locales/pt_BR/
drwxr-xr-x root/root         0 2023-10-16 13:56 usr/lib64/python3.9/site-packages/sphinxcontrib/devhelp/locales/pt_BR/LC_MESSAGES/
-rw-r--r-- root/root       894 2020-01-12 15:31 usr/lib64/python3.9/site-packages/sphinxcontrib/devhelp/locales/pt_BR/LC_MESSAGES/sphinxcontrib.devhelp.mo
-rw-r--r-- root/root      1041 2020-01-12 15:31 usr/lib64/python3.9/site-packages/sphinxcontrib/devhelp/locales/pt_BR/LC_MESSAGES/sphinxcontrib.devhelp.po
drwxr-xr-x root/root         0 2023-10-16 13:56 usr/lib64/python3.9/site-packages/sphinxcontrib/devhelp/locales/pt_PT/
drwxr-xr-x root/root         0 2023-10-16 13:56 usr/lib64/python3.9/site-packages/sphinxcontrib/devhelp/locales/pt_PT/LC_MESSAGES/
-rw-r--r-- root/root       897 2020-01-12 15:31 usr/lib64/python3.9/site-packages/sphinxcontrib/devhelp/locales/pt_PT/LC_MESSAGES/sphinxcontrib.devhelp.mo
-rw-r--r-- root/root      1044 2020-01-12 15:31 usr/lib64/python3.9/site-packages/sphinxcontrib/devhelp/locales/pt_PT/LC_MESSAGES/sphinxcontrib.devhelp.po
drwxr-xr-x root/root         0 2023-10-16 13:56 usr/lib64/python3.9/site-packages/sphinxcontrib/devhelp/locales/ro/
drwxr-xr-x root/root         0 2023-10-16 13:56 usr/lib64/python3.9/site-packages/sphinxcontrib/devhelp/locales/ro/LC_MESSAGES/
-rw-r--r-- root/root       919 2020-01-12 15:31 usr/lib64/python3.9/site-packages/sphinxcontrib/devhelp/locales/ro/LC_MESSAGES/sphinxcontrib.devhelp.mo
-rw-r--r-- root/root      1066 2020-01-12 15:31 usr/lib64/python3.9/site-packages/sphinxcontrib/devhelp/locales/ro/LC_MESSAGES/sphinxcontrib.devhelp.po
drwxr-xr-x root/root         0 2023-10-16 13:56 usr/lib64/python3.9/site-packages/sphinxcontrib/devhelp/locales/ru/
drwxr-xr-x root/root         0 2023-10-16 13:56 usr/lib64/python3.9/site-packages/sphinxcontrib/devhelp/locales/ru/LC_MESSAGES/
-rw-r--r-- root/root      1015 2020-01-12 15:31 usr/lib64/python3.9/site-packages/sphinxcontrib/devhelp/locales/ru/LC_MESSAGES/sphinxcontrib.devhelp.mo
-rw-r--r-- root/root      1162 2020-01-12 15:31 usr/lib64/python3.9/site-packages/sphinxcontrib/devhelp/locales/ru/LC_MESSAGES/sphinxcontrib.devhelp.po
drwxr-xr-x root/root         0 2023-10-16 13:56 usr/lib64/python3.9/site-packages/sphinxcontrib/devhelp/locales/si/
drwxr-xr-x root/root         0 2023-10-16 13:56 usr/lib64/python3.9/site-packages/sphinxcontrib/devhelp/locales/si/LC_MESSAGES/
-rw-r--r-- root/root       877 2020-01-12 15:31 usr/lib64/python3.9/site-packages/sphinxcontrib/devhelp/locales/si/LC_MESSAGES/sphinxcontrib.devhelp.mo
-rw-r--r-- root/root      1024 2020-01-12 15:31 usr/lib64/python3.9/site-packages/sphinxcontrib/devhelp/locales/si/LC_MESSAGES/sphinxcontrib.devhelp.po
drwxr-xr-x root/root         0 2023-10-16 13:56 usr/lib64/python3.9/site-packages/sphinxcontrib/devhelp/locales/sk/
drwxr-xr-x root/root         0 2023-10-16 13:56 usr/lib64/python3.9/site-packages/sphinxcontrib/devhelp/locales/sk/LC_MESSAGES/
-rw-r--r-- root/root       951 2020-01-12 15:31 usr/lib64/python3.9/site-packages/sphinxcontrib/devhelp/locales/sk/LC_MESSAGES/sphinxcontrib.devhelp.mo
-rw-r--r-- root/root      1098 2020-01-12 15:31 usr/lib64/python3.9/site-packages/sphinxcontrib/devhelp/locales/sk/LC_MESSAGES/sphinxcontrib.devhelp.po
drwxr-xr-x root/root         0 2023-10-16 13:56 usr/lib64/python3.9/site-packages/sphinxcontrib/devhelp/locales/sl/
drwxr-xr-x root/root         0 2023-10-16 13:56 usr/lib64/python3.9/site-packages/sphinxcontrib/devhelp/locales/sl/LC_MESSAGES/
-rw-r--r-- root/root       931 2020-01-12 15:31 usr/lib64/python3.9/site-packages/sphinxcontrib/devhelp/locales/sl/LC_MESSAGES/sphinxcontrib.devhelp.mo
-rw-r--r-- root/root      1078 2020-01-12 15:31 usr/lib64/python3.9/site-packages/sphinxcontrib/devhelp/locales/sl/LC_MESSAGES/sphinxcontrib.devhelp.po
-rw-r--r-- root/root       965 2020-01-12 15:31 usr/lib64/python3.9/site-packages/sphinxcontrib/devhelp/locales/sphinxcontrib.devhelp.pot
drwxr-xr-x root/root         0 2023-10-16 13:56 usr/lib64/python3.9/site-packages/sphinxcontrib/devhelp/locales/sr/
drwxr-xr-x root/root         0 2023-10-16 13:56 usr/lib64/python3.9/site-packages/sphinxcontrib/devhelp/locales/sr/LC_MESSAGES/
-rw-r--r-- root/root       951 2020-01-12 15:31 usr/lib64/python3.9/site-packages/sphinxcontrib/devhelp/locales/sr/LC_MESSAGES/sphinxcontrib.devhelp.mo
-rw-r--r-- root/root      1098 2020-01-12 15:31 usr/lib64/python3.9/site-packages/sphinxcontrib/devhelp/locales/sr/LC_MESSAGES/sphinxcontrib.devhelp.po
drwxr-xr-x root/root         0 2023-10-16 13:56 usr/lib64/python3.9/site-packages/sphinxcontrib/devhelp/locales/sr@latin/
drwxr-xr-x root/root         0 2023-10-16 13:56 usr/lib64/python3.9/site-packages/sphinxcontrib/devhelp/locales/sr@latin/LC_MESSAGES/
-rw-r--r-- root/root       973 2020-01-12 15:31 usr/lib64/python3.9/site-packages/sphinxcontrib/devhelp/locales/sr@latin/LC_MESSAGES/sphinxcontrib.devhelp.mo
-rw-r--r-- root/root      1120 2020-01-12 15:31 usr/lib64/python3.9/site-packages/sphinxcontrib/devhelp/locales/sr@latin/LC_MESSAGES/sphinxcontrib.devhelp.po
drwxr-xr-x root/root         0 2023-10-16 13:56 usr/lib64/python3.9/site-packages/sphinxcontrib/devhelp/locales/sv/
drwxr-xr-x root/root         0 2023-10-16 13:56 usr/lib64/python3.9/site-packages/sphinxcontrib/devhelp/locales/sv/LC_MESSAGES/
-rw-r--r-- root/root       877 2020-01-12 15:31 usr/lib64/python3.9/site-packages/sphinxcontrib/devhelp/locales/sv/LC_MESSAGES/sphinxcontrib.devhelp.mo
-rw-r--r-- root/root      1024 2020-01-12 15:31 usr/lib64/python3.9/site-packages/sphinxcontrib/devhelp/locales/sv/LC_MESSAGES/sphinxcontrib.devhelp.po
drwxr-xr-x root/root         0 2023-10-16 13:56 usr/lib64/python3.9/site-packages/sphinxcontrib/devhelp/locales/ta/
drwxr-xr-x root/root         0 2023-10-16 13:56 usr/lib64/python3.9/site-packages/sphinxcontrib/devhelp/locales/ta/LC_MESSAGES/
-rw-r--r-- root/root       875 2020-01-12 15:31 usr/lib64/python3.9/site-packages/sphinxcontrib/devhelp/locales/ta/LC_MESSAGES/sphinxcontrib.devhelp.mo
-rw-r--r-- root/root      1022 2020-01-12 15:31 usr/lib64/python3.9/site-packages/sphinxcontrib/devhelp/locales/ta/LC_MESSAGES/sphinxcontrib.devhelp.po
drwxr-xr-x root/root         0 2023-10-16 13:56 usr/lib64/python3.9/site-packages/sphinxcontrib/devhelp/locales/tr/
drwxr-xr-x root/root         0 2023-10-16 13:56 usr/lib64/python3.9/site-packages/sphinxcontrib/devhelp/locales/tr/LC_MESSAGES/
-rw-r--r-- root/root       876 2020-01-12 15:31 usr/lib64/python3.9/site-packages/sphinxcontrib/devhelp/locales/tr/LC_MESSAGES/sphinxcontrib.devhelp.mo
-rw-r--r-- root/root      1023 2020-01-12 15:31 usr/lib64/python3.9/site-packages/sphinxcontrib/devhelp/locales/tr/LC_MESSAGES/sphinxcontrib.devhelp.po
drwxr-xr-x root/root         0 2023-10-16 13:56 usr/lib64/python3.9/site-packages/sphinxcontrib/devhelp/locales/uk_UA/
drwxr-xr-x root/root         0 2023-10-16 13:56 usr/lib64/python3.9/site-packages/sphinxcontrib/devhelp/locales/uk_UA/LC_MESSAGES/
-rw-r--r-- root/root      1117 2020-01-12 15:31 usr/lib64/python3.9/site-packages/sphinxcontrib/devhelp/locales/uk_UA/LC_MESSAGES/sphinxcontrib.devhelp.mo
-rw-r--r-- root/root      1264 2020-01-12 15:31 usr/lib64/python3.9/site-packages/sphinxcontrib/devhelp/locales/uk_UA/LC_MESSAGES/sphinxcontrib.devhelp.po
drwxr-xr-x root/root         0 2023-10-16 13:56 usr/lib64/python3.9/site-packages/sphinxcontrib/devhelp/locales/vi/
drwxr-xr-x root/root         0 2023-10-16 13:56 usr/lib64/python3.9/site-packages/sphinxcontrib/devhelp/locales/vi/LC_MESSAGES/
-rw-r--r-- root/root       873 2020-01-12 15:31 usr/lib64/python3.9/site-packages/sphinxcontrib/devhelp/locales/vi/LC_MESSAGES/sphinxcontrib.devhelp.mo
-rw-r--r-- root/root      1020 2020-01-12 15:31 usr/lib64/python3.9/site-packages/sphinxcontrib/devhelp/locales/vi/LC_MESSAGES/sphinxcontrib.devhelp.po
drwxr-xr-x root/root         0 2023-10-16 13:56 usr/lib64/python3.9/site-packages/sphinxcontrib/devhelp/locales/zh_CN/
drwxr-xr-x root/root         0 2023-10-16 13:56 usr/lib64/python3.9/site-packages/sphinxcontrib/devhelp/locales/zh_CN/LC_MESSAGES/
-rw-r--r-- root/root       930 2020-01-12 15:31 usr/lib64/python3.9/site-packages/sphinxcontrib/devhelp/locales/zh_CN/LC_MESSAGES/sphinxcontrib.devhelp.mo
-rw-r--r-- root/root      1368 2020-01-12 15:31 usr/lib64/python3.9/site-packages/sphinxcontrib/devhelp/locales/zh_CN/LC_MESSAGES/sphinxcontrib.devhelp.po
drwxr-xr-x root/root         0 2023-10-16 13:56 usr/lib64/python3.9/site-packages/sphinxcontrib/devhelp/locales/zh_TW/
drwxr-xr-x root/root         0 2023-10-16 13:56 usr/lib64/python3.9/site-packages/sphinxcontrib/devhelp/locales/zh_TW/LC_MESSAGES/
-rw-r--r-- root/root       885 2020-01-12 15:31 usr/lib64/python3.9/site-packages/sphinxcontrib/devhelp/locales/zh_TW/LC_MESSAGES/sphinxcontrib.devhelp.mo
-rw-r--r-- root/root      1032 2020-01-12 15:31 usr/lib64/python3.9/site-packages/sphinxcontrib/devhelp/locales/zh_TW/LC_MESSAGES/sphinxcontrib.devhelp.po
-rw-r--r-- root/root       271 2020-01-12 15:31 usr/lib64/python3.9/site-packages/sphinxcontrib/devhelp/version.py
-rw-r--r-- root/root       574 2023-10-16 13:56 usr/lib64/python3.9/site-packages/sphinxcontrib_devhelp-1.0.2-py3.9-nspkg.pth
drwxr-xr-x root/root         0 2023-10-16 13:56 usr/lib64/python3.9/site-packages/sphinxcontrib_devhelp-1.0.2-py3.9.egg-info/
-rw-r--r-- root/root      1277 2023-10-16 13:56 usr/lib64/python3.9/site-packages/sphinxcontrib_devhelp-1.0.2-py3.9.egg-info/PKG-INFO
-rw-r--r-- root/root      7455 2023-10-16 13:56 usr/lib64/python3.9/site-packages/sphinxcontrib_devhelp-1.0.2-py3.9.egg-info/SOURCES.txt
-rw-r--r-- root/root         1 2023-10-16 13:56 usr/lib64/python3.9/site-packages/sphinxcontrib_devhelp-1.0.2-py3.9.egg-info/dependency_links.txt
-rw-r--r-- root/root        14 2023-10-16 13:56 usr/lib64/python3.9/site-packages/sphinxcontrib_devhelp-1.0.2-py3.9.egg-info/namespace_packages.txt
-rw-r--r-- root/root         1 2020-02-29 04:14 usr/lib64/python3.9/site-packages/sphinxcontrib_devhelp-1.0.2-py3.9.egg-info/not-zip-safe
-rw-r--r-- root/root        50 2023-10-16 13:56 usr/lib64/python3.9/site-packages/sphinxcontrib_devhelp-1.0.2-py3.9.egg-info/requires.txt
-rw-r--r-- root/root        14 2023-10-16 13:56 usr/lib64/python3.9/site-packages/sphinxcontrib_devhelp-1.0.2-py3.9.egg-info/top_level.txt


