++========================================
||
||   Package:  ./spice-0.15.1-x86_64-1_snuk.txz
||
++========================================
drwxr-xr-x root/root         0 2023-10-17 04:31 ./
drwxr-xr-x root/root         0 2023-10-17 04:31 install/
-rw-r--r-- root/root       236 2023-10-17 04:31 install/doinst.sh
-rw-r--r-- root/root      1030 2023-10-17 04:31 install/slack-desc
drwxr-xr-x root/root         0 2023-10-17 04:31 usr/
drwxr-xr-x root/root         0 2023-10-17 04:31 usr/doc/
drwxr-xr-x root/root         0 2023-10-17 04:31 usr/doc/spice-0.15.1/
-rw-r--r-- root/root      3444 2022-10-12 09:23 usr/doc/spice-0.15.1/AUTHORS
-rw-r--r-- root/root     21490 2022-10-12 09:23 usr/doc/spice-0.15.1/CHANGELOG.md
-rw-r--r-- root/root     26530 2022-10-12 09:22 usr/doc/spice-0.15.1/COPYING
-rw-r--r-- root/root      2371 2022-10-12 09:22 usr/doc/spice-0.15.1/README
-rw-r--r-- root/root      3486 2023-10-17 04:31 usr/doc/spice-0.15.1/spice.SlackBuild
drwxr-xr-x root/root         0 2023-10-17 04:31 usr/include/
drwxr-xr-x root/root         0 2023-10-17 04:31 usr/include/spice-server/
-rw-r--r-- root/root      3672 2023-10-17 04:31 usr/include/spice-server/spice-audio.h
-rw-r--r-- root/root      3328 2023-10-17 04:31 usr/include/spice-server/spice-char.h
-rw-r--r-- root/root      3391 2023-10-17 04:31 usr/include/spice-server/spice-core.h
-rw-r--r-- root/root      2980 2023-10-17 04:31 usr/include/spice-server/spice-input.h
-rw-r--r-- root/root      2331 2023-10-17 04:31 usr/include/spice-server/spice-migration.h
-rw-r--r-- root/root      9967 2023-10-17 04:31 usr/include/spice-server/spice-qxl.h
-rw-r--r-- root/root      1467 2023-10-17 04:31 usr/include/spice-server/spice-replay.h
-rw-r--r-- root/root      6808 2023-10-17 04:31 usr/include/spice-server/spice-server.h
-rw-r--r-- root/root       971 2023-10-17 04:31 usr/include/spice-server/spice-version.h
-rw-r--r-- root/root      1065 2023-10-17 04:31 usr/include/spice-server/spice.h
drwxr-xr-x root/root         0 2023-10-17 04:31 usr/lib64/
-rwxr-xr-x root/root   1222744 2023-10-17 04:31 usr/lib64/libspice-server.so.1.14.2
drwxr-xr-x root/root         0 2023-10-17 04:31 usr/lib64/pkgconfig/
-rw-r--r-- root/root       372 2023-10-17 04:31 usr/lib64/pkgconfig/spice-server.pc


