++========================================
||
||   Package:  ./tpm2-tss-3.2.0-x86_64-1_snuk.txz
||
++========================================
drwxr-xr-x root/root         0 2023-10-17 07:32 ./
drwxr-xr-x root/root         0 2023-10-17 07:32 etc/
drwxr-xr-x root/root         0 2023-10-17 07:32 etc/sysusers.d/
-rw-r--r-- root/root        89 2023-10-17 07:32 etc/sysusers.d/tpm2-tss.conf
drwxr-xr-x root/root         0 2023-10-17 07:32 etc/tmpfiles.d/
-rw-r--r-- root/root       440 2023-10-17 07:32 etc/tmpfiles.d/tpm2-tss-fapi.conf
drwxr-xr-x root/root         0 2023-10-17 07:32 etc/tpm2-tss/
-rw-r--r-- root/root       299 2023-10-17 07:32 etc/tpm2-tss/fapi-config.json
drwxr-xr-x root/root         0 2023-10-17 07:32 etc/tpm2-tss/fapi-profiles/
-rw-r--r-- root/root      1139 2023-10-17 07:32 etc/tpm2-tss/fapi-profiles/P_ECCP256SHA256.json
-rw-r--r-- root/root      1454 2023-10-17 07:32 etc/tpm2-tss/fapi-profiles/P_RSA2048SHA256.json
drwxr-xr-x root/root         0 2023-10-17 07:32 install/
-rw-r--r-- root/root      3216 2023-10-17 07:32 install/doinst.sh
-rw-r--r-- root/root       757 2023-10-17 07:32 install/slack-desc
drwxr-xr-x root/root         0 2023-10-17 07:32 lib/
drwxr-xr-x root/root         0 2023-10-17 07:32 lib/udev/
drwxr-xr-x root/root         0 2023-10-17 07:32 lib/udev/rules.d/
-rw-r--r-- root/root       243 2023-10-17 07:32 lib/udev/rules.d/60-tpm-udev.rules
drwxr-xr-x root/root         0 2023-10-17 07:32 usr/
drwxr-xr-x root/root         0 2023-10-17 07:32 usr/doc/
drwxr-xr-x root/root         0 2023-10-17 07:32 usr/doc/tpm2-tss-3.2.0/
-rw-r--r-- root/root      4445 2022-02-18 14:44 usr/doc/tpm2-tss-3.2.0/AUTHORS
-rw-r--r-- root/root     49461 2022-02-18 14:42 usr/doc/tpm2-tss-3.2.0/CHANGELOG.md
-rw-r--r-- root/root      2977 2022-02-18 14:42 usr/doc/tpm2-tss-3.2.0/CONTRIBUTING.md
-rw-r--r-- root/root      1236 2022-01-13 13:45 usr/doc/tpm2-tss-3.2.0/LICENSE
-rw-r--r-- root/root       137 2022-02-18 14:42 usr/doc/tpm2-tss-3.2.0/MAINTAINERS
-rw-r--r-- root/root     13107 2022-02-18 14:41 usr/doc/tpm2-tss-3.2.0/README.md
-rw-r--r-- root/root      6187 2022-02-18 14:42 usr/doc/tpm2-tss-3.2.0/RELEASE.md
-rw-r--r-- root/root      3710 2023-10-17 07:32 usr/doc/tpm2-tss-3.2.0/tpm2-tss.SlackBuild
drwxr-xr-x root/root         0 2023-10-17 07:32 usr/include/
drwxr-xr-x root/root         0 2023-10-17 07:32 usr/include/tss2/
-rw-r--r-- root/root     22542 2023-10-17 07:32 usr/include/tss2/tss2_common.h
-rw-r--r-- root/root     71385 2023-10-17 07:32 usr/include/tss2/tss2_esys.h
-rw-r--r-- root/root     17822 2023-10-17 07:32 usr/include/tss2/tss2_fapi.h
-rw-r--r-- root/root     48283 2023-10-17 07:32 usr/include/tss2/tss2_mu.h
-rw-r--r-- root/root       398 2023-10-17 07:32 usr/include/tss2/tss2_rc.h
-rw-r--r-- root/root     67493 2023-10-17 07:32 usr/include/tss2/tss2_sys.h
-rw-r--r-- root/root      8155 2023-10-17 07:32 usr/include/tss2/tss2_tcti.h
-rw-r--r-- root/root       322 2023-10-17 07:32 usr/include/tss2/tss2_tcti_cmd.h
-rw-r--r-- root/root       413 2023-10-17 07:32 usr/include/tss2/tss2_tcti_device.h
-rw-r--r-- root/root       843 2023-10-17 07:32 usr/include/tss2/tss2_tcti_mssim.h
-rw-r--r-- root/root       397 2023-10-17 07:32 usr/include/tss2/tss2_tcti_pcap.h
-rw-r--r-- root/root       478 2023-10-17 07:32 usr/include/tss2/tss2_tcti_swtpm.h
-rw-r--r-- root/root       802 2023-10-17 07:32 usr/include/tss2/tss2_tctildr.h
-rw-r--r-- root/root    146349 2023-10-17 07:32 usr/include/tss2/tss2_tpm2_types.h
drwxr-xr-x root/root         0 2023-10-17 07:32 usr/lib64/
-rwxr-xr-x root/root    616976 2023-10-17 07:32 usr/lib64/libtss2-esys.so.0.0.0
-rwxr-xr-x root/root    977808 2023-10-17 07:32 usr/lib64/libtss2-fapi.so.1.0.0
-rwxr-xr-x root/root    327240 2023-10-17 07:32 usr/lib64/libtss2-mu.so.0.0.0
-rwxr-xr-x root/root     35912 2023-10-17 07:32 usr/lib64/libtss2-rc.so.0.0.0
-rwxr-xr-x root/root    173968 2023-10-17 07:32 usr/lib64/libtss2-sys.so.1.0.0
-rwxr-xr-x root/root     35216 2023-10-17 07:32 usr/lib64/libtss2-tcti-cmd.so.0.0.0
-rwxr-xr-x root/root     30976 2023-10-17 07:32 usr/lib64/libtss2-tcti-device.so.0.0.0
-rwxr-xr-x root/root     35112 2023-10-17 07:32 usr/lib64/libtss2-tcti-mssim.so.0.0.0
-rwxr-xr-x root/root     35152 2023-10-17 07:32 usr/lib64/libtss2-tcti-pcap.so.0.0.0
-rwxr-xr-x root/root     35104 2023-10-17 07:32 usr/lib64/libtss2-tcti-swtpm.so.0.0.0
-rwxr-xr-x root/root     39384 2023-10-17 07:32 usr/lib64/libtss2-tctildr.so.0.0.0
drwxr-xr-x root/root         0 2023-10-17 07:32 usr/lib64/pkgconfig/
-rw-r--r-- root/root       347 2023-10-17 07:32 usr/lib64/pkgconfig/tss2-esys.pc
-rw-r--r-- root/root       348 2023-10-17 07:32 usr/lib64/pkgconfig/tss2-fapi.pc
-rw-r--r-- root/root       291 2023-10-17 07:32 usr/lib64/pkgconfig/tss2-mu.pc
-rw-r--r-- root/root       273 2023-10-17 07:32 usr/lib64/pkgconfig/tss2-rc.pc
-rw-r--r-- root/root       312 2023-10-17 07:32 usr/lib64/pkgconfig/tss2-sys.pc
-rw-r--r-- root/root       341 2023-10-17 07:32 usr/lib64/pkgconfig/tss2-tcti-cmd.pc
-rw-r--r-- root/root       343 2023-10-17 07:32 usr/lib64/pkgconfig/tss2-tcti-device.pc
-rw-r--r-- root/root       352 2023-10-17 07:32 usr/lib64/pkgconfig/tss2-tcti-mssim.pc
-rw-r--r-- root/root       318 2023-10-17 07:32 usr/lib64/pkgconfig/tss2-tcti-pcap.pc
-rw-r--r-- root/root       329 2023-10-17 07:32 usr/lib64/pkgconfig/tss2-tcti-swtpm.pc
-rw-r--r-- root/root       300 2023-10-17 07:32 usr/lib64/pkgconfig/tss2-tctildr.pc
drwxr-xr-x root/root         0 2023-10-17 07:32 usr/man/
drwxr-xr-x root/root         0 2023-10-17 07:32 usr/man/man3/
-rw-r--r-- root/root      5382 2023-10-17 07:32 usr/man/man3/ESYS_CONTEXT.3
-rw-r--r-- root/root     15347 2023-10-17 07:32 usr/man/man3/ESYS_TR.3
-rw-r--r-- root/root       390 2023-10-17 07:32 usr/man/man3/ESYS_TR_defines.3
-rw-r--r-- root/root      7874 2023-10-17 07:32 usr/man/man3/Esys_ActivateCredential.3
-rw-r--r-- root/root      7950 2023-10-17 07:32 usr/man/man3/Esys_Certify.3
-rw-r--r-- root/root      8638 2023-10-17 07:32 usr/man/man3/Esys_CertifyCreation.3
-rw-r--r-- root/root      7118 2023-10-17 07:32 usr/man/man3/Esys_ChangeEPS.3
-rw-r--r-- root/root      7118 2023-10-17 07:32 usr/man/man3/Esys_ChangePPS.3
-rw-r--r-- root/root      2760 2023-10-17 07:32 usr/man/man3/Esys_Clear.3
-rw-r--r-- root/root     11776 2023-10-17 07:32 usr/man/man3/Esys_ClearControl.3
-rw-r--r-- root/root      7462 2023-10-17 07:32 usr/man/man3/Esys_ClockRateAdjust.3
-rw-r--r-- root/root      7262 2023-10-17 07:32 usr/man/man3/Esys_ClockSet.3
-rw-r--r-- root/root      8058 2023-10-17 07:32 usr/man/man3/Esys_Commit.3
-rw-r--r-- root/root      5324 2023-10-17 07:32 usr/man/man3/Esys_ContextLoad.3
-rw-r--r-- root/root      5600 2023-10-17 07:32 usr/man/man3/Esys_ContextSave.3
-rw-r--r-- root/root      9228 2023-10-17 07:32 usr/man/man3/Esys_Create.3
-rw-r--r-- root/root      9524 2023-10-17 07:32 usr/man/man3/Esys_CreatePrimary.3
-rw-r--r-- root/root      7394 2023-10-17 07:32 usr/man/man3/Esys_DictionaryAttackLockReset.3
-rw-r--r-- root/root      8310 2023-10-17 07:32 usr/man/man3/Esys_DictionaryAttackParameters.3
-rw-r--r-- root/root      8786 2023-10-17 07:32 usr/man/man3/Esys_Duplicate.3
-rw-r--r-- root/root      7126 2023-10-17 07:32 usr/man/man3/Esys_ECC_Parameters.3
-rw-r--r-- root/root      7300 2023-10-17 07:32 usr/man/man3/Esys_ECDH_KeyGen.3
-rw-r--r-- root/root      6984 2023-10-17 07:32 usr/man/man3/Esys_ECDH_ZGen.3
-rw-r--r-- root/root      6908 2023-10-17 07:32 usr/man/man3/Esys_EC_Ephemeral.3
-rw-r--r-- root/root      8302 2023-10-17 07:32 usr/man/man3/Esys_EncryptDecrypt.3
-rw-r--r-- root/root      7814 2023-10-17 07:32 usr/man/man3/Esys_EventSequenceComplete.3
-rw-r--r-- root/root      8072 2023-10-17 07:32 usr/man/man3/Esys_EvictControl.3
-rw-r--r-- root/root      5444 2023-10-17 07:32 usr/man/man3/Esys_FlushContext.3
-rw-r--r-- root/root      7854 2023-10-17 07:32 usr/man/man3/Esys_GetCapability.3
-rw-r--r-- root/root      8126 2023-10-17 07:32 usr/man/man3/Esys_GetCommandAuditDigest.3
-rw-r--r-- root/root      6618 2023-10-17 07:32 usr/man/man3/Esys_GetRandom.3
-rw-r--r-- root/root      8410 2023-10-17 07:32 usr/man/man3/Esys_GetSessionAuditDigest.3
-rw-r--r-- root/root      6652 2023-10-17 07:32 usr/man/man3/Esys_GetTestResult.3
-rw-r--r-- root/root      7968 2023-10-17 07:32 usr/man/man3/Esys_GetTime.3
-rw-r--r-- root/root      7006 2023-10-17 07:32 usr/man/man3/Esys_HMAC.3
-rw-r--r-- root/root      7502 2023-10-17 07:32 usr/man/man3/Esys_HMAC_Start.3
-rw-r--r-- root/root      2442 2023-10-17 07:32 usr/man/man3/Esys_Hash.3
-rw-r--r-- root/root      7084 2023-10-17 07:32 usr/man/man3/Esys_HashSequenceStart.3
-rw-r--r-- root/root      7262 2023-10-17 07:32 usr/man/man3/Esys_HierarchyChangeAuth.3
-rw-r--r-- root/root      2226 2023-10-17 07:32 usr/man/man3/Esys_HierarchyControl.3
-rw-r--r-- root/root      8406 2023-10-17 07:32 usr/man/man3/Esys_Import.3
-rw-r--r-- root/root      7170 2023-10-17 07:32 usr/man/man3/Esys_IncrementalSelfTest.3
-rw-r--r-- root/root      5383 2023-10-17 07:32 usr/man/man3/Esys_Load.3
-rw-r--r-- root/root      4105 2023-10-17 07:32 usr/man/man3/Esys_LoadExternal.3
-rw-r--r-- root/root      7712 2023-10-17 07:32 usr/man/man3/Esys_MakeCredential.3
-rw-r--r-- root/root      8568 2023-10-17 07:32 usr/man/man3/Esys_NV_Certify.3
-rw-r--r-- root/root      7018 2023-10-17 07:32 usr/man/man3/Esys_NV_ChangeAuth.3
-rw-r--r-- root/root      7588 2023-10-17 07:32 usr/man/man3/Esys_NV_DefineSpace.3
-rw-r--r-- root/root      7230 2023-10-17 07:32 usr/man/man3/Esys_NV_Extend.3
-rw-r--r-- root/root      7314 2023-10-17 07:32 usr/man/man3/Esys_NV_GlobalWriteLock.3
-rw-r--r-- root/root      7428 2023-10-17 07:32 usr/man/man3/Esys_NV_Increment.3
-rw-r--r-- root/root      7506 2023-10-17 07:32 usr/man/man3/Esys_NV_Read.3
-rw-r--r-- root/root      7418 2023-10-17 07:32 usr/man/man3/Esys_NV_ReadLock.3
-rw-r--r-- root/root      7234 2023-10-17 07:32 usr/man/man3/Esys_NV_ReadPublic.3
-rw-r--r-- root/root      7614 2023-10-17 07:32 usr/man/man3/Esys_NV_SetBits.3
-rw-r--r-- root/root      7488 2023-10-17 07:32 usr/man/man3/Esys_NV_UndefineSpace.3
-rw-r--r-- root/root      7572 2023-10-17 07:32 usr/man/man3/Esys_NV_UndefineSpaceSpecial.3
-rw-r--r-- root/root      7390 2023-10-17 07:32 usr/man/man3/Esys_NV_Write.3
-rw-r--r-- root/root      7442 2023-10-17 07:32 usr/man/man3/Esys_NV_WriteLock.3
-rw-r--r-- root/root      7276 2023-10-17 07:32 usr/man/man3/Esys_ObjectChangeAuth.3
-rw-r--r-- root/root      8558 2023-10-17 07:32 usr/man/man3/Esys_PCR_Allocate.3
-rw-r--r-- root/root      7184 2023-10-17 07:32 usr/man/man3/Esys_PCR_Event.3
-rw-r--r-- root/root      7394 2023-10-17 07:32 usr/man/man3/Esys_PCR_Extend.3
-rw-r--r-- root/root      7754 2023-10-17 07:32 usr/man/man3/Esys_PCR_Read.3
-rw-r--r-- root/root      7100 2023-10-17 07:32 usr/man/man3/Esys_PCR_Reset.3
-rw-r--r-- root/root      7548 2023-10-17 07:32 usr/man/man3/Esys_PCR_SetAuthPolicy.3
-rw-r--r-- root/root      7168 2023-10-17 07:32 usr/man/man3/Esys_PCR_SetAuthValue.3
-rw-r--r-- root/root      7750 2023-10-17 07:32 usr/man/man3/Esys_PP_Commands.3
-rw-r--r-- root/root      7244 2023-10-17 07:32 usr/man/man3/Esys_PolicyAuthValue.3
-rw-r--r-- root/root      8326 2023-10-17 07:32 usr/man/man3/Esys_PolicyAuthorize.3
-rw-r--r-- root/root      7422 2023-10-17 07:32 usr/man/man3/Esys_PolicyCommandCode.3
-rw-r--r-- root/root      7564 2023-10-17 07:32 usr/man/man3/Esys_PolicyCounterTimer.3
-rw-r--r-- root/root      7414 2023-10-17 07:32 usr/man/man3/Esys_PolicyCpHash.3
-rw-r--r-- root/root      8216 2023-10-17 07:32 usr/man/man3/Esys_PolicyDuplicationSelect.3
-rw-r--r-- root/root      7180 2023-10-17 07:32 usr/man/man3/Esys_PolicyGetDigest.3
-rw-r--r-- root/root      7444 2023-10-17 07:32 usr/man/man3/Esys_PolicyLocality.3
-rw-r--r-- root/root      7874 2023-10-17 07:32 usr/man/man3/Esys_PolicyNV.3
-rw-r--r-- root/root      7468 2023-10-17 07:32 usr/man/man3/Esys_PolicyNameHash.3
-rw-r--r-- root/root      7488 2023-10-17 07:32 usr/man/man3/Esys_PolicyNvWritten.3
-rw-r--r-- root/root      7368 2023-10-17 07:32 usr/man/man3/Esys_PolicyOR.3
-rw-r--r-- root/root      7412 2023-10-17 07:32 usr/man/man3/Esys_PolicyPCR.3
-rw-r--r-- root/root      7226 2023-10-17 07:32 usr/man/man3/Esys_PolicyPassword.3
-rw-r--r-- root/root      7370 2023-10-17 07:32 usr/man/man3/Esys_PolicyPhysicalPresence.3
-rw-r--r-- root/root      7186 2023-10-17 07:32 usr/man/man3/Esys_PolicyRestart.3
-rw-r--r-- root/root      8882 2023-10-17 07:32 usr/man/man3/Esys_PolicySecret.3
-rw-r--r-- root/root      9064 2023-10-17 07:32 usr/man/man3/Esys_PolicySigned.3
-rw-r--r-- root/root      8314 2023-10-17 07:32 usr/man/man3/Esys_PolicyTicket.3
-rw-r--r-- root/root      7672 2023-10-17 07:32 usr/man/man3/Esys_Quote.3
-rw-r--r-- root/root      7590 2023-10-17 07:32 usr/man/man3/Esys_RSA_Decrypt.3
-rw-r--r-- root/root      7566 2023-10-17 07:32 usr/man/man3/Esys_RSA_Encrypt.3
-rw-r--r-- root/root      6738 2023-10-17 07:32 usr/man/man3/Esys_ReadClock.3
-rw-r--r-- root/root      7514 2023-10-17 07:32 usr/man/man3/Esys_ReadPublic.3
-rw-r--r-- root/root      8084 2023-10-17 07:32 usr/man/man3/Esys_Rewrap.3
-rw-r--r-- root/root      6706 2023-10-17 07:32 usr/man/man3/Esys_SelfTest.3
-rw-r--r-- root/root      2585 2023-10-17 07:32 usr/man/man3/Esys_SequenceComplete.3
-rw-r--r-- root/root      7132 2023-10-17 07:32 usr/man/man3/Esys_SequenceUpdate.3
-rw-r--r-- root/root      7490 2023-10-17 07:32 usr/man/man3/Esys_SetAlgorithmSet.3
-rw-r--r-- root/root      8236 2023-10-17 07:32 usr/man/man3/Esys_SetCommandCodeAuditStatus.3
-rw-r--r-- root/root      7516 2023-10-17 07:32 usr/man/man3/Esys_SetPrimaryPolicy.3
-rw-r--r-- root/root      6710 2023-10-17 07:32 usr/man/man3/Esys_Shutdown.3
-rw-r--r-- root/root      7738 2023-10-17 07:32 usr/man/man3/Esys_Sign.3
-rw-r--r-- root/root      6249 2023-10-17 07:32 usr/man/man3/Esys_StartAuthSession.3
-rw-r--r-- root/root      4978 2023-10-17 07:32 usr/man/man3/Esys_Startup.3
-rw-r--r-- root/root      6428 2023-10-17 07:32 usr/man/man3/Esys_StirRandom.3
-rw-r--r-- root/root      6798 2023-10-17 07:32 usr/man/man3/Esys_TestParms.3
-rw-r--r-- root/root      6972 2023-10-17 07:32 usr/man/man3/Esys_Unseal.3
-rw-r--r-- root/root      6334 2023-10-17 07:32 usr/man/man3/Esys_Vendor_TCG_Test.3
-rw-r--r-- root/root      7554 2023-10-17 07:32 usr/man/man3/Esys_VerifySignature.3
-rw-r--r-- root/root      8024 2023-10-17 07:32 usr/man/man3/Esys_ZGen_2Phase.3
-rw-r--r-- root/root     18623 2023-10-17 07:32 usr/man/man3/FapiTestgroup.3
-rw-r--r-- root/root      6623 2023-10-17 07:32 usr/man/man3/Fapi_AuthorizePolicy.3
-rw-r--r-- root/root      6481 2023-10-17 07:32 usr/man/man3/Fapi_ChangeAuth.3
-rw-r--r-- root/root      6864 2023-10-17 07:32 usr/man/man3/Fapi_CreateKey.3
-rw-r--r-- root/root      7191 2023-10-17 07:32 usr/man/man3/Fapi_CreateNv.3
-rw-r--r-- root/root      7323 2023-10-17 07:32 usr/man/man3/Fapi_CreateSeal.3
-rw-r--r-- root/root      6629 2023-10-17 07:32 usr/man/man3/Fapi_Decrypt.3
-rw-r--r-- root/root      5955 2023-10-17 07:32 usr/man/man3/Fapi_Delete.3
-rw-r--r-- root/root      6900 2023-10-17 07:32 usr/man/man3/Fapi_Encrypt.3
-rw-r--r-- root/root      7290 2023-10-17 07:32 usr/man/man3/Fapi_ExportKey.3
-rw-r--r-- root/root      5039 2023-10-17 07:32 usr/man/man3/Fapi_ExportPolicy.3
-rw-r--r-- root/root       729 2023-10-17 07:32 usr/man/man3/Fapi_Finalize.3
-rw-r--r-- root/root       801 2023-10-17 07:32 usr/man/man3/Fapi_Free.3
-rw-r--r-- root/root      5398 2023-10-17 07:32 usr/man/man3/Fapi_GetAppData.3
-rw-r--r-- root/root      5236 2023-10-17 07:32 usr/man/man3/Fapi_GetCertificate.3
-rw-r--r-- root/root      4792 2023-10-17 07:32 usr/man/man3/Fapi_GetDescription.3
-rw-r--r-- root/root      4159 2023-10-17 07:32 usr/man/man3/Fapi_GetInfo.3
-rw-r--r-- root/root      6357 2023-10-17 07:32 usr/man/man3/Fapi_GetPlatformCertificates.3
-rw-r--r-- root/root      1806 2023-10-17 07:32 usr/man/man3/Fapi_GetPollHandles.3
-rw-r--r-- root/root      6090 2023-10-17 07:32 usr/man/man3/Fapi_GetRandom.3
-rw-r--r-- root/root      1507 2023-10-17 07:32 usr/man/man3/Fapi_GetTcti.3
-rw-r--r-- root/root      6045 2023-10-17 07:32 usr/man/man3/Fapi_GetTpmBlobs.3
-rw-r--r-- root/root      6311 2023-10-17 07:32 usr/man/man3/Fapi_Import.3
-rw-r--r-- root/root      4026 2023-10-17 07:32 usr/man/man3/Fapi_Initialize.3
-rw-r--r-- root/root      4568 2023-10-17 07:32 usr/man/man3/Fapi_List.3
-rw-r--r-- root/root      6553 2023-10-17 07:32 usr/man/man3/Fapi_NvExtend.3
-rw-r--r-- root/root      6044 2023-10-17 07:32 usr/man/man3/Fapi_NvIncrement.3
-rw-r--r-- root/root      6749 2023-10-17 07:32 usr/man/man3/Fapi_NvRead.3
-rw-r--r-- root/root      6284 2023-10-17 07:32 usr/man/man3/Fapi_NvSetBits.3
-rw-r--r-- root/root      6193 2023-10-17 07:32 usr/man/man3/Fapi_NvWrite.3
-rw-r--r-- root/root      6178 2023-10-17 07:32 usr/man/man3/Fapi_PcrExtend.3
-rw-r--r-- root/root      5208 2023-10-17 07:32 usr/man/man3/Fapi_PcrRead.3
-rw-r--r-- root/root      7353 2023-10-17 07:32 usr/man/man3/Fapi_Provision.3
-rw-r--r-- root/root      8162 2023-10-17 07:32 usr/man/man3/Fapi_Quote.3
-rw-r--r-- root/root      5289 2023-10-17 07:32 usr/man/man3/Fapi_SetAppData.3
-rw-r--r-- root/root      1808 2023-10-17 07:32 usr/man/man3/Fapi_SetAuthCB.3
-rw-r--r-- root/root      1908 2023-10-17 07:32 usr/man/man3/Fapi_SetBranchCB.3
-rw-r--r-- root/root      5543 2023-10-17 07:32 usr/man/man3/Fapi_SetCertificate.3
-rw-r--r-- root/root      5073 2023-10-17 07:32 usr/man/man3/Fapi_SetDescription.3
-rw-r--r-- root/root      3373 2023-10-17 07:32 usr/man/man3/Fapi_SetSignCB.3
-rw-r--r-- root/root      7398 2023-10-17 07:32 usr/man/man3/Fapi_Sign.3
-rw-r--r-- root/root      5906 2023-10-17 07:32 usr/man/man3/Fapi_Unseal.3
-rw-r--r-- root/root      6517 2023-10-17 07:32 usr/man/man3/Fapi_VerifyQuote.3
-rw-r--r-- root/root      6140 2023-10-17 07:32 usr/man/man3/Fapi_VerifySignature.3
-rw-r--r-- root/root      6149 2023-10-17 07:32 usr/man/man3/Fapi_WriteAuthorizeNv.3
-rw-r--r-- root/root      1858 2023-10-17 07:32 usr/man/man3/Tss2_TctiLdr_Finalize.3
-rw-r--r-- root/root      1724 2023-10-17 07:32 usr/man/man3/Tss2_TctiLdr_FreeInfo.3
-rw-r--r-- root/root      2898 2023-10-17 07:32 usr/man/man3/Tss2_TctiLdr_GetInfo.3
-rw-r--r-- root/root      4693 2023-10-17 07:32 usr/man/man3/Tss2_TctiLdr_Initialize.3
-rw-r--r-- root/root      4318 2023-10-17 07:32 usr/man/man3/Tss2_Tcti_Cmd_Init.3
-rw-r--r-- root/root      4413 2023-10-17 07:32 usr/man/man3/Tss2_Tcti_Device_Init.3
-rw-r--r-- root/root      4741 2023-10-17 07:32 usr/man/man3/Tss2_Tcti_Mssim_Init.3
drwxr-xr-x root/root         0 2023-10-17 07:32 usr/man/man5/
-rw-r--r-- root/root      2545 2023-10-17 07:32 usr/man/man5/fapi-config.5
-rw-r--r-- root/root      7061 2023-10-17 07:32 usr/man/man5/fapi-profile.5
drwxr-xr-x root/root         0 2023-10-17 07:32 usr/man/man7/
-rw-r--r-- root/root      1194 2023-10-17 07:32 usr/man/man7/tss2-tcti-cmd.7
-rw-r--r-- root/root      1152 2023-10-17 07:32 usr/man/man7/tss2-tcti-device.7
-rw-r--r-- root/root      1177 2023-10-17 07:32 usr/man/man7/tss2-tcti-mssim.7
-rw-r--r-- root/root      1380 2023-10-17 07:32 usr/man/man7/tss2-tcti-swtpm.7
-rw-r--r-- root/root      1660 2023-10-17 07:32 usr/man/man7/tss2-tctildr.7
drwxr-xr-x root/root         0 2023-10-17 07:32 var/
drwxr-xr-x root/root         0 2023-10-17 07:32 var/lib/
drwxrwsr-x tss/tss           0 2023-10-17 07:32 var/lib/tpm2-tss/
drwxrwsr-x tss/tss           0 2023-10-17 07:32 var/lib/tpm2-tss/system/
drwxrwsr-x tss/tss           0 2023-10-17 07:32 var/lib/tpm2-tss/system/keystore/
drwxr-xr-x root/root         0 2023-10-17 07:32 var/run/
drwxrwsr-x tss/tss           0 2023-10-17 07:32 var/run/tpm2-tss/
drwxrwsr-x tss/tss           0 2023-10-17 07:32 var/run/tpm2-tss/eventlog/


